thtools.__init__.py > running xstream path fixes
Epoch 1/50

 64/436 [===>..........................] - ETA: 9s - loss: 1.1865 - acc: 0.4219
192/436 [============>.................] - ETA: 2s - loss: 1.0923 - acc: 0.4583
320/436 [=====================>........] - ETA: 0s - loss: 1.1125 - acc: 0.4688
436/436 [==============================] - 2s 4ms/step - loss: 1.0338 - acc: 0.4908
Epoch 2/50

 64/436 [===>..........................] - ETA: 0s - loss: 1.2877 - acc: 0.4531
192/436 [============>.................] - ETA: 0s - loss: 1.0990 - acc: 0.5208
320/436 [=====================>........] - ETA: 0s - loss: 1.0034 - acc: 0.5594
436/436 [==============================] - 0s 486us/step - loss: 1.0252 - acc: 0.5596
Epoch 3/50

 64/436 [===>..........................] - ETA: 0s - loss: 0.8624 - acc: 0.5625
192/436 [============>.................] - ETA: 0s - loss: 0.9285 - acc: 0.5677
320/436 [=====================>........] - ETA: 0s - loss: 0.9574 - acc: 0.5531
436/436 [==============================] - 0s 495us/step - loss: 0.9775 - acc: 0.5367
Epoch 4/50

 64/436 [===>..........................] - ETA: 0s - loss: 0.9632 - acc: 0.5312
192/436 [============>.................] - ETA: 0s - loss: 0.9093 - acc: 0.5521
320/436 [=====================>........] - ETA: 0s - loss: 0.8524 - acc: 0.5719
436/436 [==============================] - 0s 500us/step - loss: 0.8781 - acc: 0.5573
Epoch 5/50

 64/436 [===>..........................] - ETA: 0s - loss: 0.8264 - acc: 0.5938
192/436 [============>.................] - ETA: 0s - loss: 0.8749 - acc: 0.5417
320/436 [=====================>........] - ETA: 0s - loss: 0.9161 - acc: 0.5375
436/436 [==============================] - 0s 494us/step - loss: 0.9150 - acc: 0.5459
Epoch 6/50

 64/436 [===>..........................] - ETA: 0s - loss: 0.8723 - acc: 0.5938
192/436 [============>.................] - ETA: 0s - loss: 0.8536 - acc: 0.6042
320/436 [=====================>........] - ETA: 0s - loss: 0.8805 - acc: 0.6062
436/436 [==============================] - 0s 497us/step - loss: 0.8752 - acc: 0.5940
Epoch 7/50

 64/436 [===>..........................] - ETA: 0s - loss: 0.7999 - acc: 0.5781
192/436 [============>.................] - ETA: 0s - loss: 0.7944 - acc: 0.5938
320/436 [=====================>........] - ETA: 0s - loss: 0.8699 - acc: 0.5781
436/436 [==============================] - 0s 505us/step - loss: 0.8824 - acc: 0.5734
Epoch 8/50

 64/436 [===>..........................] - ETA: 0s - loss: 0.8014 - acc: 0.5938
192/436 [============>.................] - ETA: 0s - loss: 0.7639 - acc: 0.6042
320/436 [=====================>........] - ETA: 0s - loss: 0.8097 - acc: 0.5687
436/436 [==============================] - 0s 533us/step - loss: 0.8720 - acc: 0.5596
Epoch 9/50

 64/436 [===>..........................] - ETA: 0s - loss: 0.7973 - acc: 0.5156
192/436 [============>.................] - ETA: 0s - loss: 0.8954 - acc: 0.5417
320/436 [=====================>........] - ETA: 0s - loss: 0.8245 - acc: 0.5781
436/436 [==============================] - 0s 530us/step - loss: 0.8509 - acc: 0.5665
Epoch 10/50

 64/436 [===>..........................] - ETA: 0s - loss: 0.9874 - acc: 0.5000
192/436 [============>.................] - ETA: 0s - loss: 0.8870 - acc: 0.5573
320/436 [=====================>........] - ETA: 0s - loss: 0.8938 - acc: 0.5656
436/436 [==============================] - 0s 497us/step - loss: 0.8710 - acc: 0.5665
Epoch 11/50

 64/436 [===>..........................] - ETA: 0s - loss: 0.6862 - acc: 0.5781
192/436 [============>.................] - ETA: 0s - loss: 0.7553 - acc: 0.5677
320/436 [=====================>........] - ETA: 0s - loss: 0.8077 - acc: 0.5687
436/436 [==============================] - 0s 503us/step - loss: 0.8187 - acc: 0.5665
Epoch 12/50

 64/436 [===>..........................] - ETA: 0s - loss: 0.8926 - acc: 0.6406
192/436 [============>.................] - ETA: 0s - loss: 0.8150 - acc: 0.5885
320/436 [=====================>........] - ETA: 0s - loss: 0.7915 - acc: 0.5813
436/436 [==============================] - 0s 502us/step - loss: 0.7590 - acc: 0.5826
Epoch 13/50

 64/436 [===>..........................] - ETA: 0s - loss: 0.9267 - acc: 0.5469
192/436 [============>.................] - ETA: 0s - loss: 0.8033 - acc: 0.5833
320/436 [=====================>........] - ETA: 0s - loss: 0.7344 - acc: 0.6281
436/436 [==============================] - 0s 500us/step - loss: 0.7444 - acc: 0.6193
Epoch 14/50

 64/436 [===>..........................] - ETA: 0s - loss: 0.7734 - acc: 0.6562
192/436 [============>.................] - ETA: 0s - loss: 0.6993 - acc: 0.6458
320/436 [=====================>........] - ETA: 0s - loss: 0.7370 - acc: 0.6250
436/436 [==============================] - 0s 504us/step - loss: 0.7354 - acc: 0.6284
Epoch 15/50

 64/436 [===>..........................] - ETA: 0s - loss: 0.6304 - acc: 0.7031
192/436 [============>.................] - ETA: 0s - loss: 0.6412 - acc: 0.6667
320/436 [=====================>........] - ETA: 0s - loss: 0.6525 - acc: 0.6656
436/436 [==============================] - 0s 500us/step - loss: 0.6786 - acc: 0.6514
Epoch 16/50

 64/436 [===>..........................] - ETA: 0s - loss: 0.6840 - acc: 0.6875
192/436 [============>.................] - ETA: 0s - loss: 0.7020 - acc: 0.6302
320/436 [=====================>........] - ETA: 0s - loss: 0.7077 - acc: 0.6312
436/436 [==============================] - 0s 518us/step - loss: 0.6872 - acc: 0.6422
Epoch 17/50

 64/436 [===>..........................] - ETA: 0s - loss: 0.6771 - acc: 0.6562
192/436 [============>.................] - ETA: 0s - loss: 0.5951 - acc: 0.6823
320/436 [=====================>........] - ETA: 0s - loss: 0.6391 - acc: 0.6719
436/436 [==============================] - 0s 504us/step - loss: 0.6412 - acc: 0.6697
Epoch 18/50

 64/436 [===>..........................] - ETA: 0s - loss: 0.5795 - acc: 0.7656
192/436 [============>.................] - ETA: 0s - loss: 0.6306 - acc: 0.6927
320/436 [=====================>........] - ETA: 0s - loss: 0.6119 - acc: 0.6719
436/436 [==============================] - 0s 502us/step - loss: 0.5708 - acc: 0.6950
Epoch 19/50

 64/436 [===>..........................] - ETA: 0s - loss: 0.4793 - acc: 0.7344
192/436 [============>.................] - ETA: 0s - loss: 0.5200 - acc: 0.7448
320/436 [=====================>........] - ETA: 0s - loss: 0.5233 - acc: 0.7469
436/436 [==============================] - 0s 508us/step - loss: 0.5451 - acc: 0.7362
Epoch 20/50

 64/436 [===>..........................] - ETA: 0s - loss: 0.6224 - acc: 0.6562
192/436 [============>.................] - ETA: 0s - loss: 0.5309 - acc: 0.7396
320/436 [=====================>........] - ETA: 0s - loss: 0.5508 - acc: 0.7344
436/436 [==============================] - 0s 506us/step - loss: 0.5476 - acc: 0.7317
Epoch 21/50

 64/436 [===>..........................] - ETA: 0s - loss: 0.5151 - acc: 0.7500
192/436 [============>.................] - ETA: 0s - loss: 0.5232 - acc: 0.7448
320/436 [=====================>........] - ETA: 0s - loss: 0.5361 - acc: 0.7500
436/436 [==============================] - 0s 505us/step - loss: 0.5409 - acc: 0.7454
Epoch 22/50

 64/436 [===>..........................] - ETA: 0s - loss: 0.4848 - acc: 0.7812
192/436 [============>.................] - ETA: 0s - loss: 0.5179 - acc: 0.7604
320/436 [=====================>........] - ETA: 0s - loss: 0.5191 - acc: 0.7719
436/436 [==============================] - 0s 504us/step - loss: 0.5142 - acc: 0.7706
Epoch 23/50

 64/436 [===>..........................] - ETA: 0s - loss: 0.5540 - acc: 0.7344
192/436 [============>.................] - ETA: 0s - loss: 0.5453 - acc: 0.7396
320/436 [=====================>........] - ETA: 0s - loss: 0.4754 - acc: 0.7812
436/436 [==============================] - 0s 502us/step - loss: 0.5022 - acc: 0.7523
Epoch 24/50

 64/436 [===>..........................] - ETA: 0s - loss: 0.4856 - acc: 0.7188
192/436 [============>.................] - ETA: 0s - loss: 0.4790 - acc: 0.7604
320/436 [=====================>........] - ETA: 0s - loss: 0.5089 - acc: 0.7500
436/436 [==============================] - 0s 509us/step - loss: 0.5089 - acc: 0.7500
Epoch 25/50

 64/436 [===>..........................] - ETA: 0s - loss: 0.5251 - acc: 0.7500
192/436 [============>.................] - ETA: 0s - loss: 0.4965 - acc: 0.7604
320/436 [=====================>........] - ETA: 0s - loss: 0.4726 - acc: 0.7750
436/436 [==============================] - 0s 521us/step - loss: 0.4817 - acc: 0.7729
Epoch 26/50

 64/436 [===>..........................] - ETA: 0s - loss: 0.4898 - acc: 0.7812
192/436 [============>.................] - ETA: 0s - loss: 0.4224 - acc: 0.8125
320/436 [=====================>........] - ETA: 0s - loss: 0.4272 - acc: 0.8063
436/436 [==============================] - 0s 514us/step - loss: 0.4493 - acc: 0.7982
Epoch 27/50

 64/436 [===>..........................] - ETA: 0s - loss: 0.4954 - acc: 0.8125
192/436 [============>.................] - ETA: 0s - loss: 0.4124 - acc: 0.8385
320/436 [=====================>........] - ETA: 0s - loss: 0.3899 - acc: 0.8375
436/436 [==============================] - 0s 523us/step - loss: 0.4042 - acc: 0.8211
Epoch 28/50

 64/436 [===>..........................] - ETA: 0s - loss: 0.3753 - acc: 0.8125
192/436 [============>.................] - ETA: 0s - loss: 0.4848 - acc: 0.7865
320/436 [=====================>........] - ETA: 0s - loss: 0.4530 - acc: 0.8094
436/436 [==============================] - 0s 503us/step - loss: 0.4587 - acc: 0.7890
Epoch 29/50

 64/436 [===>..........................] - ETA: 0s - loss: 0.4256 - acc: 0.8125
192/436 [============>.................] - ETA: 0s - loss: 0.4230 - acc: 0.8073
320/436 [=====================>........] - ETA: 0s - loss: 0.4266 - acc: 0.8250
436/436 [==============================] - 0s 503us/step - loss: 0.4084 - acc: 0.8394
Epoch 30/50

 64/436 [===>..........................] - ETA: 0s - loss: 0.3385 - acc: 0.8438
192/436 [============>.................] - ETA: 0s - loss: 0.3768 - acc: 0.8281
320/436 [=====================>........] - ETA: 0s - loss: 0.3624 - acc: 0.8469
436/436 [==============================] - 0s 504us/step - loss: 0.3934 - acc: 0.8234
Epoch 31/50

 64/436 [===>..........................] - ETA: 0s - loss: 0.4479 - acc: 0.8125
192/436 [============>.................] - ETA: 0s - loss: 0.4023 - acc: 0.8281
320/436 [=====================>........] - ETA: 0s - loss: 0.3695 - acc: 0.8438
436/436 [==============================] - 0s 516us/step - loss: 0.3775 - acc: 0.8394
Epoch 32/50

 64/436 [===>..........................] - ETA: 0s - loss: 0.4253 - acc: 0.8281
192/436 [============>.................] - ETA: 0s - loss: 0.3725 - acc: 0.8385
320/436 [=====================>........] - ETA: 0s - loss: 0.3496 - acc: 0.8594
436/436 [==============================] - 0s 504us/step - loss: 0.3297 - acc: 0.8647
Epoch 33/50

 64/436 [===>..........................] - ETA: 0s - loss: 0.3699 - acc: 0.8281
192/436 [============>.................] - ETA: 0s - loss: 0.3618 - acc: 0.8333
320/436 [=====================>........] - ETA: 0s - loss: 0.3423 - acc: 0.8344
436/436 [==============================] - 0s 507us/step - loss: 0.3313 - acc: 0.8463
Epoch 34/50

 64/436 [===>..........................] - ETA: 0s - loss: 0.3120 - acc: 0.8594
192/436 [============>.................] - ETA: 0s - loss: 0.3279 - acc: 0.8698
320/436 [=====================>........] - ETA: 0s - loss: 0.3195 - acc: 0.8719
436/436 [==============================] - 0s 501us/step - loss: 0.3245 - acc: 0.8716
Epoch 35/50

 64/436 [===>..........................] - ETA: 0s - loss: 0.2951 - acc: 0.8438
192/436 [============>.................] - ETA: 0s - loss: 0.3403 - acc: 0.8333
320/436 [=====================>........] - ETA: 0s - loss: 0.3155 - acc: 0.8562
436/436 [==============================] - 0s 556us/step - loss: 0.3012 - acc: 0.8739
Epoch 36/50

 64/436 [===>..........................] - ETA: 0s - loss: 0.2898 - acc: 0.8438
192/436 [============>.................] - ETA: 0s - loss: 0.2560 - acc: 0.9010
320/436 [=====================>........] - ETA: 0s - loss: 0.2675 - acc: 0.9000
436/436 [==============================] - 0s 522us/step - loss: 0.2855 - acc: 0.8876
Epoch 37/50

 64/436 [===>..........................] - ETA: 0s - loss: 0.3854 - acc: 0.7812
192/436 [============>.................] - ETA: 0s - loss: 0.3100 - acc: 0.8490
320/436 [=====================>........] - ETA: 0s - loss: 0.2973 - acc: 0.8719
436/436 [==============================] - 0s 504us/step - loss: 0.2807 - acc: 0.8830
Epoch 38/50

 64/436 [===>..........................] - ETA: 0s - loss: 0.2254 - acc: 0.9375
192/436 [============>.................] - ETA: 0s - loss: 0.2372 - acc: 0.9271
320/436 [=====================>........] - ETA: 0s - loss: 0.2732 - acc: 0.9219
436/436 [==============================] - 0s 512us/step - loss: 0.2722 - acc: 0.9197
Epoch 39/50

 64/436 [===>..........................] - ETA: 0s - loss: 0.2733 - acc: 0.8906
192/436 [============>.................] - ETA: 0s - loss: 0.2944 - acc: 0.9010
320/436 [=====================>........] - ETA: 0s - loss: 0.2903 - acc: 0.9062
436/436 [==============================] - 0s 512us/step - loss: 0.2765 - acc: 0.9128
Epoch 40/50

 64/436 [===>..........................] - ETA: 0s - loss: 0.2412 - acc: 0.9062
192/436 [============>.................] - ETA: 0s - loss: 0.2287 - acc: 0.9010
320/436 [=====================>........] - ETA: 0s - loss: 0.2561 - acc: 0.8750
436/436 [==============================] - 0s 505us/step - loss: 0.2601 - acc: 0.8853
Epoch 41/50

 64/436 [===>..........................] - ETA: 0s - loss: 0.3980 - acc: 0.9062
192/436 [============>.................] - ETA: 0s - loss: 0.2797 - acc: 0.9219
320/436 [=====================>........] - ETA: 0s - loss: 0.2380 - acc: 0.9281
436/436 [==============================] - 0s 502us/step - loss: 0.2236 - acc: 0.9335
Epoch 42/50

 64/436 [===>..........................] - ETA: 0s - loss: 0.1624 - acc: 0.9688
192/436 [============>.................] - ETA: 0s - loss: 0.1954 - acc: 0.9375
320/436 [=====================>........] - ETA: 0s - loss: 0.2256 - acc: 0.9219
436/436 [==============================] - 0s 508us/step - loss: 0.2197 - acc: 0.9197
Epoch 43/50

 64/436 [===>..........................] - ETA: 0s - loss: 0.3195 - acc: 0.8281
192/436 [============>.................] - ETA: 0s - loss: 0.2319 - acc: 0.8958
320/436 [=====================>........] - ETA: 0s - loss: 0.2240 - acc: 0.9156
436/436 [==============================] - 0s 508us/step - loss: 0.2245 - acc: 0.9151
Epoch 44/50

 64/436 [===>..........................] - ETA: 0s - loss: 0.2311 - acc: 0.9219
192/436 [============>.................] - ETA: 0s - loss: 0.2437 - acc: 0.9115
320/436 [=====================>........] - ETA: 0s - loss: 0.2362 - acc: 0.9187
436/436 [==============================] - 0s 514us/step - loss: 0.2366 - acc: 0.9220
Epoch 45/50

 64/436 [===>..........................] - ETA: 0s - loss: 0.2774 - acc: 0.9062
192/436 [============>.................] - ETA: 0s - loss: 0.2357 - acc: 0.9219
320/436 [=====================>........] - ETA: 0s - loss: 0.2714 - acc: 0.9125
436/436 [==============================] - 0s 514us/step - loss: 0.2383 - acc: 0.9266
Epoch 46/50

 64/436 [===>..........................] - ETA: 0s - loss: 0.1143 - acc: 0.9844
192/436 [============>.................] - ETA: 0s - loss: 0.2150 - acc: 0.9219
320/436 [=====================>........] - ETA: 0s - loss: 0.1913 - acc: 0.9375
436/436 [==============================] - 0s 504us/step - loss: 0.1965 - acc: 0.9312
Epoch 47/50

 64/436 [===>..........................] - ETA: 0s - loss: 0.1815 - acc: 0.9219
192/436 [============>.................] - ETA: 0s - loss: 0.2023 - acc: 0.9375
320/436 [=====================>........] - ETA: 0s - loss: 0.1890 - acc: 0.9469
436/436 [==============================] - 0s 518us/step - loss: 0.2217 - acc: 0.9312
Epoch 48/50

 64/436 [===>..........................] - ETA: 0s - loss: 0.2010 - acc: 0.9062
192/436 [============>.................] - ETA: 0s - loss: 0.1831 - acc: 0.9323
320/436 [=====================>........] - ETA: 0s - loss: 0.1608 - acc: 0.9469
436/436 [==============================] - 0s 508us/step - loss: 0.1797 - acc: 0.9381
Epoch 49/50

 64/436 [===>..........................] - ETA: 0s - loss: 0.1302 - acc: 0.9688
192/436 [============>.................] - ETA: 0s - loss: 0.2040 - acc: 0.9167
320/436 [=====================>........] - ETA: 0s - loss: 0.1643 - acc: 0.9406
436/436 [==============================] - 0s 517us/step - loss: 0.1497 - acc: 0.9518
Epoch 50/50

 64/436 [===>..........................] - ETA: 0s - loss: 0.2844 - acc: 0.8906
192/436 [============>.................] - ETA: 0s - loss: 0.2068 - acc: 0.9219
320/436 [=====================>........] - ETA: 0s - loss: 0.1817 - acc: 0.9344
436/436 [==============================] - 0s 509us/step - loss: 0.1827 - acc: 0.9289

 64/218 [=======>......................] - ETA: 0s
218/218 [==============================] - 0s 767us/step

 64/436 [===>..........................] - ETA: 0s
256/436 [================>.............] - ETA: 0s
436/436 [==============================] - 0s 304us/step
Killing tensorboard...
Done!
