Using TensorFlow backend.
2018-07-11 20:47:37.278496: I tensorflow/core/common_runtime/gpu/gpu_device.cc:1105] Found device 0 with properties: 
name: Tesla K80 major: 3 minor: 7 memoryClockRate(GHz): 0.562
pciBusID: 0000:93:00.0
totalMemory: 11.17GiB freeMemory: 11.11GiB
2018-07-11 20:47:37.278814: I tensorflow/core/common_runtime/gpu/gpu_device.cc:1195] Creating TensorFlow device (/device:GPU:0) -> (device: 0, name: Tesla K80, pci bus id: 0000:93:00.0, compute capability: 3.7)
