thtools.__init__.py > running xstream path fixes
Epoch 1/50

 64/436 [===>..........................] - ETA: 24s - loss: 1.3730 - acc: 0.4844
192/436 [============>.................] - ETA: 5s - loss: 1.2546 - acc: 0.4948 
320/436 [=====================>........] - ETA: 1s - loss: 1.1655 - acc: 0.5094
436/436 [==============================] - 4s 10ms/step - loss: 1.1497 - acc: 0.4931
Epoch 2/50

 64/436 [===>..........................] - ETA: 0s - loss: 0.8752 - acc: 0.4844
192/436 [============>.................] - ETA: 0s - loss: 1.2053 - acc: 0.4479
320/436 [=====================>........] - ETA: 0s - loss: 1.1679 - acc: 0.4562
436/436 [==============================] - 0s 530us/step - loss: 1.1132 - acc: 0.4771
Epoch 3/50

 64/436 [===>..........................] - ETA: 0s - loss: 0.9594 - acc: 0.5156
192/436 [============>.................] - ETA: 0s - loss: 0.9650 - acc: 0.5625
320/436 [=====================>........] - ETA: 0s - loss: 1.0754 - acc: 0.5125
436/436 [==============================] - 0s 532us/step - loss: 1.1092 - acc: 0.4977
Epoch 4/50

 64/436 [===>..........................] - ETA: 0s - loss: 1.1516 - acc: 0.5000
192/436 [============>.................] - ETA: 0s - loss: 0.9457 - acc: 0.5417
320/436 [=====================>........] - ETA: 0s - loss: 0.9247 - acc: 0.5250
436/436 [==============================] - 0s 526us/step - loss: 0.9078 - acc: 0.5321
Epoch 5/50

 64/436 [===>..........................] - ETA: 0s - loss: 0.8207 - acc: 0.5312
192/436 [============>.................] - ETA: 0s - loss: 0.8801 - acc: 0.5365
320/436 [=====================>........] - ETA: 0s - loss: 0.9242 - acc: 0.4969
436/436 [==============================] - 0s 527us/step - loss: 0.9076 - acc: 0.5023
Epoch 6/50

 64/436 [===>..........................] - ETA: 0s - loss: 0.9107 - acc: 0.4688
192/436 [============>.................] - ETA: 0s - loss: 0.9272 - acc: 0.5208
320/436 [=====================>........] - ETA: 0s - loss: 0.9762 - acc: 0.5125
436/436 [==============================] - 0s 523us/step - loss: 0.9797 - acc: 0.5092
Epoch 7/50

 64/436 [===>..........................] - ETA: 0s - loss: 1.0082 - acc: 0.5000
192/436 [============>.................] - ETA: 0s - loss: 0.9923 - acc: 0.4792
320/436 [=====================>........] - ETA: 0s - loss: 0.9049 - acc: 0.5188
436/436 [==============================] - 0s 519us/step - loss: 0.9252 - acc: 0.4977
Epoch 8/50

 64/436 [===>..........................] - ETA: 0s - loss: 0.7543 - acc: 0.5625
192/436 [============>.................] - ETA: 0s - loss: 0.8213 - acc: 0.5312
320/436 [=====================>........] - ETA: 0s - loss: 0.8930 - acc: 0.4906
436/436 [==============================] - 0s 516us/step - loss: 0.9097 - acc: 0.4839
Epoch 9/50

 64/436 [===>..........................] - ETA: 0s - loss: 0.9458 - acc: 0.5625
192/436 [============>.................] - ETA: 0s - loss: 0.9407 - acc: 0.5521
320/436 [=====================>........] - ETA: 0s - loss: 0.9242 - acc: 0.5312
436/436 [==============================] - 0s 528us/step - loss: 0.9175 - acc: 0.5115
Epoch 10/50

 64/436 [===>..........................] - ETA: 0s - loss: 0.9234 - acc: 0.5781
192/436 [============>.................] - ETA: 0s - loss: 0.9803 - acc: 0.4740
320/436 [=====================>........] - ETA: 0s - loss: 0.9196 - acc: 0.5062
436/436 [==============================] - 0s 521us/step - loss: 0.8980 - acc: 0.5298
Epoch 11/50

 64/436 [===>..........................] - ETA: 0s - loss: 0.8464 - acc: 0.5312
192/436 [============>.................] - ETA: 0s - loss: 0.8866 - acc: 0.4948
320/436 [=====================>........] - ETA: 0s - loss: 0.8608 - acc: 0.4844
436/436 [==============================] - 0s 521us/step - loss: 0.8772 - acc: 0.4656
Epoch 12/50

 64/436 [===>..........................] - ETA: 0s - loss: 0.9530 - acc: 0.4688
192/436 [============>.................] - ETA: 0s - loss: 0.8943 - acc: 0.4740
320/436 [=====================>........] - ETA: 0s - loss: 0.8803 - acc: 0.4906
436/436 [==============================] - 0s 529us/step - loss: 0.8918 - acc: 0.4794
Epoch 13/50

 64/436 [===>..........................] - ETA: 0s - loss: 0.7424 - acc: 0.5625
192/436 [============>.................] - ETA: 0s - loss: 0.7438 - acc: 0.5573
320/436 [=====================>........] - ETA: 0s - loss: 0.7740 - acc: 0.5563
436/436 [==============================] - 0s 534us/step - loss: 0.7856 - acc: 0.5505
Epoch 14/50

 64/436 [===>..........................] - ETA: 0s - loss: 0.9073 - acc: 0.5938
192/436 [============>.................] - ETA: 0s - loss: 0.8690 - acc: 0.5052
320/436 [=====================>........] - ETA: 0s - loss: 0.9144 - acc: 0.4813
436/436 [==============================] - 0s 515us/step - loss: 0.9069 - acc: 0.4748
Epoch 15/50

 64/436 [===>..........................] - ETA: 0s - loss: 0.7180 - acc: 0.6250
192/436 [============>.................] - ETA: 0s - loss: 0.7625 - acc: 0.5677
320/436 [=====================>........] - ETA: 0s - loss: 0.7732 - acc: 0.5500
436/436 [==============================] - 0s 524us/step - loss: 0.7768 - acc: 0.5390
Epoch 16/50

 64/436 [===>..........................] - ETA: 0s - loss: 0.8364 - acc: 0.5000
192/436 [============>.................] - ETA: 0s - loss: 0.8038 - acc: 0.5208
320/436 [=====================>........] - ETA: 0s - loss: 0.7982 - acc: 0.5375
436/436 [==============================] - 0s 530us/step - loss: 0.7907 - acc: 0.5298
Epoch 17/50

 64/436 [===>..........................] - ETA: 0s - loss: 0.8435 - acc: 0.5625
192/436 [============>.................] - ETA: 0s - loss: 0.8106 - acc: 0.5104
320/436 [=====================>........] - ETA: 0s - loss: 0.8233 - acc: 0.5094
436/436 [==============================] - 0s 625us/step - loss: 0.8049 - acc: 0.5092
Epoch 18/50

 64/436 [===>..........................] - ETA: 0s - loss: 0.8142 - acc: 0.4219
192/436 [============>.................] - ETA: 0s - loss: 0.7677 - acc: 0.4740
320/436 [=====================>........] - ETA: 0s - loss: 0.7904 - acc: 0.4875
436/436 [==============================] - 0s 561us/step - loss: 0.8178 - acc: 0.4885
Epoch 19/50

 64/436 [===>..........................] - ETA: 0s - loss: 0.6995 - acc: 0.6250
192/436 [============>.................] - ETA: 0s - loss: 0.7527 - acc: 0.5573
320/436 [=====================>........] - ETA: 0s - loss: 0.8098 - acc: 0.5375
436/436 [==============================] - 0s 521us/step - loss: 0.8112 - acc: 0.5642
Epoch 20/50

 64/436 [===>..........................] - ETA: 0s - loss: 0.7393 - acc: 0.5781
192/436 [============>.................] - ETA: 0s - loss: 0.7825 - acc: 0.5000
320/436 [=====================>........] - ETA: 0s - loss: 0.8319 - acc: 0.5062
436/436 [==============================] - 0s 543us/step - loss: 0.8382 - acc: 0.5023
Epoch 21/50

 64/436 [===>..........................] - ETA: 0s - loss: 0.8131 - acc: 0.5000
192/436 [============>.................] - ETA: 0s - loss: 0.8542 - acc: 0.4792
320/436 [=====================>........] - ETA: 0s - loss: 0.8155 - acc: 0.5062
436/436 [==============================] - 0s 508us/step - loss: 0.8270 - acc: 0.4954
Epoch 22/50

 64/436 [===>..........................] - ETA: 0s - loss: 0.8341 - acc: 0.5000
192/436 [============>.................] - ETA: 0s - loss: 0.7998 - acc: 0.5260
320/436 [=====================>........] - ETA: 0s - loss: 0.7632 - acc: 0.5344
436/436 [==============================] - 0s 502us/step - loss: 0.7538 - acc: 0.5505
Epoch 23/50

 64/436 [===>..........................] - ETA: 0s - loss: 0.8303 - acc: 0.5156
192/436 [============>.................] - ETA: 0s - loss: 0.8200 - acc: 0.4792
320/436 [=====================>........] - ETA: 0s - loss: 0.7915 - acc: 0.4875
436/436 [==============================] - 0s 509us/step - loss: 0.8008 - acc: 0.4771
Epoch 24/50

 64/436 [===>..........................] - ETA: 0s - loss: 0.8001 - acc: 0.4688
192/436 [============>.................] - ETA: 0s - loss: 0.7708 - acc: 0.5208
320/436 [=====================>........] - ETA: 0s - loss: 0.7820 - acc: 0.4938
436/436 [==============================] - 0s 501us/step - loss: 0.7970 - acc: 0.4885
Epoch 25/50

 64/436 [===>..........................] - ETA: 0s - loss: 0.7496 - acc: 0.5312
192/436 [============>.................] - ETA: 0s - loss: 0.8029 - acc: 0.5104
320/436 [=====================>........] - ETA: 0s - loss: 0.7891 - acc: 0.5281
436/436 [==============================] - 0s 503us/step - loss: 0.8170 - acc: 0.5298
Epoch 26/50

 64/436 [===>..........................] - ETA: 0s - loss: 0.8511 - acc: 0.4531
192/436 [============>.................] - ETA: 0s - loss: 0.7502 - acc: 0.5365
320/436 [=====================>........] - ETA: 0s - loss: 0.7611 - acc: 0.5375
436/436 [==============================] - 0s 520us/step - loss: 0.7588 - acc: 0.5229
Epoch 27/50

 64/436 [===>..........................] - ETA: 0s - loss: 0.7928 - acc: 0.6250
192/436 [============>.................] - ETA: 0s - loss: 0.7534 - acc: 0.5417
320/436 [=====================>........] - ETA: 0s - loss: 0.7689 - acc: 0.5469
436/436 [==============================] - 0s 509us/step - loss: 0.7546 - acc: 0.5596
Epoch 28/50

 64/436 [===>..........................] - ETA: 0s - loss: 0.7116 - acc: 0.5938
192/436 [============>.................] - ETA: 0s - loss: 0.7329 - acc: 0.5833
320/436 [=====================>........] - ETA: 0s - loss: 0.7570 - acc: 0.5531
436/436 [==============================] - 0s 510us/step - loss: 0.7339 - acc: 0.5619
Epoch 29/50

 64/436 [===>..........................] - ETA: 0s - loss: 0.7854 - acc: 0.4844
192/436 [============>.................] - ETA: 0s - loss: 0.8222 - acc: 0.4740
320/436 [=====================>........] - ETA: 0s - loss: 0.8010 - acc: 0.5094
436/436 [==============================] - 0s 514us/step - loss: 0.7934 - acc: 0.5252
Epoch 30/50

 64/436 [===>..........................] - ETA: 0s - loss: 0.7011 - acc: 0.5938
192/436 [============>.................] - ETA: 0s - loss: 0.7974 - acc: 0.5000
320/436 [=====================>........] - ETA: 0s - loss: 0.7909 - acc: 0.5281
436/436 [==============================] - 0s 519us/step - loss: 0.7888 - acc: 0.5138
Epoch 31/50

 64/436 [===>..........................] - ETA: 0s - loss: 0.8778 - acc: 0.3750
192/436 [============>.................] - ETA: 0s - loss: 0.8002 - acc: 0.4792
320/436 [=====================>........] - ETA: 0s - loss: 0.8025 - acc: 0.4719
436/436 [==============================] - 0s 528us/step - loss: 0.7863 - acc: 0.4794
Epoch 32/50

 64/436 [===>..........................] - ETA: 0s - loss: 0.7300 - acc: 0.4688
192/436 [============>.................] - ETA: 0s - loss: 0.7597 - acc: 0.5104
320/436 [=====================>........] - ETA: 0s - loss: 0.7267 - acc: 0.5469
436/436 [==============================] - 0s 522us/step - loss: 0.7387 - acc: 0.5367
Epoch 33/50

 64/436 [===>..........................] - ETA: 0s - loss: 0.7374 - acc: 0.5000
192/436 [============>.................] - ETA: 0s - loss: 0.7533 - acc: 0.5521
320/436 [=====================>........] - ETA: 0s - loss: 0.7411 - acc: 0.5563
436/436 [==============================] - 0s 519us/step - loss: 0.7366 - acc: 0.5550
Epoch 34/50

 64/436 [===>..........................] - ETA: 0s - loss: 0.6564 - acc: 0.6406
192/436 [============>.................] - ETA: 0s - loss: 0.6914 - acc: 0.6250
320/436 [=====================>........] - ETA: 0s - loss: 0.6965 - acc: 0.6062
436/436 [==============================] - 0s 518us/step - loss: 0.7071 - acc: 0.5894
Epoch 35/50

 64/436 [===>..........................] - ETA: 0s - loss: 0.7606 - acc: 0.4531
192/436 [============>.................] - ETA: 0s - loss: 0.8152 - acc: 0.4375
320/436 [=====================>........] - ETA: 0s - loss: 0.8012 - acc: 0.4781
436/436 [==============================] - 0s 520us/step - loss: 0.7831 - acc: 0.4885
Epoch 36/50

 64/436 [===>..........................] - ETA: 0s - loss: 0.8043 - acc: 0.5312
192/436 [============>.................] - ETA: 0s - loss: 0.7789 - acc: 0.5312
320/436 [=====================>........] - ETA: 0s - loss: 0.7663 - acc: 0.5281
436/436 [==============================] - 0s 512us/step - loss: 0.7460 - acc: 0.5619
Epoch 37/50

 64/436 [===>..........................] - ETA: 0s - loss: 0.6650 - acc: 0.5781
192/436 [============>.................] - ETA: 0s - loss: 0.6869 - acc: 0.5312
320/436 [=====================>........] - ETA: 0s - loss: 0.7139 - acc: 0.5312
436/436 [==============================] - 0s 515us/step - loss: 0.7242 - acc: 0.5252
Epoch 38/50

 64/436 [===>..........................] - ETA: 0s - loss: 0.7325 - acc: 0.5000
192/436 [============>.................] - ETA: 0s - loss: 0.7092 - acc: 0.5729
320/436 [=====================>........] - ETA: 0s - loss: 0.7192 - acc: 0.5625
436/436 [==============================] - 0s 525us/step - loss: 0.7234 - acc: 0.5459
Epoch 39/50

 64/436 [===>..........................] - ETA: 0s - loss: 0.7442 - acc: 0.4844
192/436 [============>.................] - ETA: 0s - loss: 0.7630 - acc: 0.4792
320/436 [=====================>........] - ETA: 0s - loss: 0.7521 - acc: 0.5062
436/436 [==============================] - 0s 517us/step - loss: 0.7520 - acc: 0.5206
Epoch 40/50

 64/436 [===>..........................] - ETA: 0s - loss: 0.7837 - acc: 0.5000
192/436 [============>.................] - ETA: 0s - loss: 0.7736 - acc: 0.4896
320/436 [=====================>........] - ETA: 0s - loss: 0.7427 - acc: 0.5156
436/436 [==============================] - 0s 507us/step - loss: 0.7468 - acc: 0.5138
Epoch 41/50

 64/436 [===>..........................] - ETA: 0s - loss: 0.7869 - acc: 0.4688
192/436 [============>.................] - ETA: 0s - loss: 0.7486 - acc: 0.5000
320/436 [=====================>........] - ETA: 0s - loss: 0.7279 - acc: 0.5281
436/436 [==============================] - 0s 519us/step - loss: 0.7255 - acc: 0.5298
Epoch 42/50

 64/436 [===>..........................] - ETA: 0s - loss: 0.7949 - acc: 0.4375
192/436 [============>.................] - ETA: 0s - loss: 0.7333 - acc: 0.5156
320/436 [=====================>........] - ETA: 0s - loss: 0.7324 - acc: 0.5188
436/436 [==============================] - 0s 504us/step - loss: 0.7424 - acc: 0.5000
Epoch 43/50

 64/436 [===>..........................] - ETA: 0s - loss: 0.7574 - acc: 0.5625
192/436 [============>.................] - ETA: 0s - loss: 0.7158 - acc: 0.5625
320/436 [=====================>........] - ETA: 0s - loss: 0.7410 - acc: 0.5312
436/436 [==============================] - 0s 515us/step - loss: 0.7303 - acc: 0.5413
Epoch 44/50

 64/436 [===>..........................] - ETA: 0s - loss: 0.7277 - acc: 0.5469
192/436 [============>.................] - ETA: 0s - loss: 0.6990 - acc: 0.5885
320/436 [=====================>........] - ETA: 0s - loss: 0.7193 - acc: 0.5719
436/436 [==============================] - 0s 511us/step - loss: 0.7308 - acc: 0.5505
Epoch 45/50

 64/436 [===>..........................] - ETA: 0s - loss: 0.6930 - acc: 0.5312
192/436 [============>.................] - ETA: 0s - loss: 0.6996 - acc: 0.5521
320/436 [=====================>........] - ETA: 0s - loss: 0.7133 - acc: 0.5344
436/436 [==============================] - 0s 516us/step - loss: 0.7097 - acc: 0.5436
Epoch 46/50

 64/436 [===>..........................] - ETA: 0s - loss: 0.6510 - acc: 0.5000
192/436 [============>.................] - ETA: 0s - loss: 0.6710 - acc: 0.5677
320/436 [=====================>........] - ETA: 0s - loss: 0.6934 - acc: 0.5500
436/436 [==============================] - 0s 525us/step - loss: 0.7070 - acc: 0.5367
Epoch 47/50

 64/436 [===>..........................] - ETA: 0s - loss: 0.7135 - acc: 0.5781
192/436 [============>.................] - ETA: 0s - loss: 0.7142 - acc: 0.5677
320/436 [=====================>........] - ETA: 0s - loss: 0.7177 - acc: 0.5469
436/436 [==============================] - 0s 510us/step - loss: 0.7055 - acc: 0.5642
Epoch 48/50

 64/436 [===>..........................] - ETA: 0s - loss: 0.7424 - acc: 0.4844
192/436 [============>.................] - ETA: 0s - loss: 0.7100 - acc: 0.5312
320/436 [=====================>........] - ETA: 0s - loss: 0.7138 - acc: 0.5344
436/436 [==============================] - 0s 504us/step - loss: 0.7115 - acc: 0.5252
Epoch 49/50

 64/436 [===>..........................] - ETA: 0s - loss: 0.7308 - acc: 0.5312
192/436 [============>.................] - ETA: 0s - loss: 0.7116 - acc: 0.5208
320/436 [=====================>........] - ETA: 0s - loss: 0.7205 - acc: 0.5406
436/436 [==============================] - 0s 510us/step - loss: 0.7113 - acc: 0.5596
Epoch 50/50

 64/436 [===>..........................] - ETA: 0s - loss: 0.7640 - acc: 0.4375
192/436 [============>.................] - ETA: 0s - loss: 0.6991 - acc: 0.5677
320/436 [=====================>........] - ETA: 0s - loss: 0.6958 - acc: 0.5625
436/436 [==============================] - 0s 509us/step - loss: 0.6955 - acc: 0.5642

 64/218 [=======>......................] - ETA: 0s
218/218 [==============================] - 0s 927us/step

 64/436 [===>..........................] - ETA: 0s
256/436 [================>.............] - ETA: 0s
436/436 [==============================] - 0s 271us/step
Killing tensorboard...
Done!
