thtools.__init__.py > running xstream path fixes
Epoch 1/50

 64/653 [=>............................] - ETA: 32s - loss: 1.0905 - acc: 0.4219
192/653 [=======>......................] - ETA: 8s - loss: 0.9392 - acc: 0.4792 
320/653 [=============>................] - ETA: 3s - loss: 0.9385 - acc: 0.4813
448/653 [===================>..........] - ETA: 1s - loss: 0.9601 - acc: 0.4643
576/653 [=========================>....] - ETA: 0s - loss: 0.9443 - acc: 0.4792
653/653 [==============================] - 4s 6ms/step - loss: 0.9374 - acc: 0.4732
Epoch 2/50

 64/653 [=>............................] - ETA: 0s - loss: 1.0335 - acc: 0.5312
192/653 [=======>......................] - ETA: 0s - loss: 0.9662 - acc: 0.5260
320/653 [=============>................] - ETA: 0s - loss: 0.9797 - acc: 0.5062
448/653 [===================>..........] - ETA: 0s - loss: 0.9238 - acc: 0.5201
576/653 [=========================>....] - ETA: 0s - loss: 0.9095 - acc: 0.5208
653/653 [==============================] - 0s 534us/step - loss: 0.9159 - acc: 0.5237
Epoch 3/50

 64/653 [=>............................] - ETA: 0s - loss: 0.9178 - acc: 0.4688
192/653 [=======>......................] - ETA: 0s - loss: 0.9059 - acc: 0.4740
320/653 [=============>................] - ETA: 0s - loss: 0.8918 - acc: 0.4875
448/653 [===================>..........] - ETA: 0s - loss: 0.8652 - acc: 0.4978
576/653 [=========================>....] - ETA: 0s - loss: 0.8532 - acc: 0.5191
653/653 [==============================] - 0s 540us/step - loss: 0.8561 - acc: 0.5176
Epoch 4/50

 64/653 [=>............................] - ETA: 0s - loss: 0.9501 - acc: 0.4062
192/653 [=======>......................] - ETA: 0s - loss: 0.9198 - acc: 0.4323
320/653 [=============>................] - ETA: 0s - loss: 0.8791 - acc: 0.4875
448/653 [===================>..........] - ETA: 0s - loss: 0.8601 - acc: 0.4933
576/653 [=========================>....] - ETA: 0s - loss: 0.8486 - acc: 0.4983
653/653 [==============================] - 0s 532us/step - loss: 0.8415 - acc: 0.5069
Epoch 5/50

 64/653 [=>............................] - ETA: 0s - loss: 0.7758 - acc: 0.6250
192/653 [=======>......................] - ETA: 0s - loss: 0.7585 - acc: 0.5677
320/653 [=============>................] - ETA: 0s - loss: 0.7799 - acc: 0.5437
448/653 [===================>..........] - ETA: 0s - loss: 0.7740 - acc: 0.5804
576/653 [=========================>....] - ETA: 0s - loss: 0.7839 - acc: 0.5747
653/653 [==============================] - 0s 532us/step - loss: 0.7879 - acc: 0.5727
Epoch 6/50

 64/653 [=>............................] - ETA: 0s - loss: 0.7795 - acc: 0.5000
192/653 [=======>......................] - ETA: 0s - loss: 0.7923 - acc: 0.5677
320/653 [=============>................] - ETA: 0s - loss: 0.7492 - acc: 0.5813
448/653 [===================>..........] - ETA: 0s - loss: 0.7272 - acc: 0.5938
576/653 [=========================>....] - ETA: 0s - loss: 0.7335 - acc: 0.5903
653/653 [==============================] - 0s 533us/step - loss: 0.7290 - acc: 0.5926
Epoch 7/50

 64/653 [=>............................] - ETA: 0s - loss: 0.7443 - acc: 0.5625
192/653 [=======>......................] - ETA: 0s - loss: 0.7009 - acc: 0.6094
320/653 [=============>................] - ETA: 0s - loss: 0.6980 - acc: 0.6062
448/653 [===================>..........] - ETA: 0s - loss: 0.7288 - acc: 0.5893
576/653 [=========================>....] - ETA: 0s - loss: 0.7197 - acc: 0.5938
653/653 [==============================] - 0s 578us/step - loss: 0.7190 - acc: 0.6003
Epoch 8/50

 64/653 [=>............................] - ETA: 0s - loss: 0.7243 - acc: 0.5625
192/653 [=======>......................] - ETA: 0s - loss: 0.7804 - acc: 0.5365
320/653 [=============>................] - ETA: 0s - loss: 0.7904 - acc: 0.5437
448/653 [===================>..........] - ETA: 0s - loss: 0.7796 - acc: 0.5424
576/653 [=========================>....] - ETA: 0s - loss: 0.7797 - acc: 0.5365
653/653 [==============================] - 0s 546us/step - loss: 0.7645 - acc: 0.5482
Epoch 9/50

 64/653 [=>............................] - ETA: 0s - loss: 0.6714 - acc: 0.5781
192/653 [=======>......................] - ETA: 0s - loss: 0.7159 - acc: 0.5677
320/653 [=============>................] - ETA: 0s - loss: 0.7288 - acc: 0.5563
448/653 [===================>..........] - ETA: 0s - loss: 0.7516 - acc: 0.5402
576/653 [=========================>....] - ETA: 0s - loss: 0.7413 - acc: 0.5486
653/653 [==============================] - 0s 547us/step - loss: 0.7383 - acc: 0.5528
Epoch 10/50

 64/653 [=>............................] - ETA: 0s - loss: 0.7421 - acc: 0.5000
192/653 [=======>......................] - ETA: 0s - loss: 0.7262 - acc: 0.5417
320/653 [=============>................] - ETA: 0s - loss: 0.7166 - acc: 0.5656
448/653 [===================>..........] - ETA: 0s - loss: 0.7253 - acc: 0.5536
576/653 [=========================>....] - ETA: 0s - loss: 0.7182 - acc: 0.5677
653/653 [==============================] - 0s 537us/step - loss: 0.7103 - acc: 0.5773
Epoch 11/50

 64/653 [=>............................] - ETA: 0s - loss: 0.6635 - acc: 0.5938
192/653 [=======>......................] - ETA: 0s - loss: 0.7236 - acc: 0.5365
320/653 [=============>................] - ETA: 0s - loss: 0.7280 - acc: 0.5687
448/653 [===================>..........] - ETA: 0s - loss: 0.7171 - acc: 0.5692
576/653 [=========================>....] - ETA: 0s - loss: 0.7078 - acc: 0.5903
653/653 [==============================] - 0s 538us/step - loss: 0.7142 - acc: 0.5896
Epoch 12/50

 64/653 [=>............................] - ETA: 0s - loss: 0.7457 - acc: 0.5312
192/653 [=======>......................] - ETA: 0s - loss: 0.7336 - acc: 0.5312
320/653 [=============>................] - ETA: 0s - loss: 0.7276 - acc: 0.5469
448/653 [===================>..........] - ETA: 0s - loss: 0.7350 - acc: 0.5580
576/653 [=========================>....] - ETA: 0s - loss: 0.7120 - acc: 0.5816
653/653 [==============================] - 0s 545us/step - loss: 0.7122 - acc: 0.5865
Epoch 13/50

 64/653 [=>............................] - ETA: 0s - loss: 0.6662 - acc: 0.6406
192/653 [=======>......................] - ETA: 0s - loss: 0.6801 - acc: 0.5938
320/653 [=============>................] - ETA: 0s - loss: 0.6491 - acc: 0.6281
448/653 [===================>..........] - ETA: 0s - loss: 0.6627 - acc: 0.6295
576/653 [=========================>....] - ETA: 0s - loss: 0.6664 - acc: 0.6163
653/653 [==============================] - 0s 546us/step - loss: 0.6683 - acc: 0.6187
Epoch 14/50

 64/653 [=>............................] - ETA: 0s - loss: 0.6030 - acc: 0.7031
192/653 [=======>......................] - ETA: 0s - loss: 0.6234 - acc: 0.6562
320/653 [=============>................] - ETA: 0s - loss: 0.6358 - acc: 0.6281
448/653 [===================>..........] - ETA: 0s - loss: 0.6540 - acc: 0.6317
576/653 [=========================>....] - ETA: 0s - loss: 0.6542 - acc: 0.6111
653/653 [==============================] - 0s 535us/step - loss: 0.6683 - acc: 0.6049
Epoch 15/50

 64/653 [=>............................] - ETA: 0s - loss: 0.6937 - acc: 0.5625
192/653 [=======>......................] - ETA: 0s - loss: 0.6708 - acc: 0.6094
320/653 [=============>................] - ETA: 0s - loss: 0.6534 - acc: 0.6219
448/653 [===================>..........] - ETA: 0s - loss: 0.6246 - acc: 0.6295
576/653 [=========================>....] - ETA: 0s - loss: 0.6173 - acc: 0.6372
653/653 [==============================] - 0s 536us/step - loss: 0.6201 - acc: 0.6355
Epoch 16/50

 64/653 [=>............................] - ETA: 0s - loss: 0.6176 - acc: 0.5938
192/653 [=======>......................] - ETA: 0s - loss: 0.6081 - acc: 0.6146
320/653 [=============>................] - ETA: 0s - loss: 0.6111 - acc: 0.6156
448/653 [===================>..........] - ETA: 0s - loss: 0.6151 - acc: 0.6228
576/653 [=========================>....] - ETA: 0s - loss: 0.6063 - acc: 0.6337
653/653 [==============================] - 0s 535us/step - loss: 0.6131 - acc: 0.6294
Epoch 17/50

 64/653 [=>............................] - ETA: 0s - loss: 0.6181 - acc: 0.6875
192/653 [=======>......................] - ETA: 0s - loss: 0.5961 - acc: 0.6406
320/653 [=============>................] - ETA: 0s - loss: 0.6098 - acc: 0.6312
448/653 [===================>..........] - ETA: 0s - loss: 0.6005 - acc: 0.6406
576/653 [=========================>....] - ETA: 0s - loss: 0.5863 - acc: 0.6510
653/653 [==============================] - 0s 545us/step - loss: 0.5924 - acc: 0.6462
Epoch 18/50

 64/653 [=>............................] - ETA: 0s - loss: 0.6844 - acc: 0.6250
192/653 [=======>......................] - ETA: 0s - loss: 0.6349 - acc: 0.6458
320/653 [=============>................] - ETA: 0s - loss: 0.6082 - acc: 0.6562
448/653 [===================>..........] - ETA: 0s - loss: 0.6050 - acc: 0.6562
576/653 [=========================>....] - ETA: 0s - loss: 0.5971 - acc: 0.6632
653/653 [==============================] - 0s 547us/step - loss: 0.6055 - acc: 0.6570
Epoch 19/50

 64/653 [=>............................] - ETA: 0s - loss: 0.5696 - acc: 0.7812
192/653 [=======>......................] - ETA: 0s - loss: 0.6019 - acc: 0.6719
320/653 [=============>................] - ETA: 0s - loss: 0.6024 - acc: 0.6781
448/653 [===================>..........] - ETA: 0s - loss: 0.5838 - acc: 0.6920
576/653 [=========================>....] - ETA: 0s - loss: 0.5785 - acc: 0.6892
653/653 [==============================] - 0s 553us/step - loss: 0.5769 - acc: 0.6937
Epoch 20/50

 64/653 [=>............................] - ETA: 0s - loss: 0.6232 - acc: 0.6250
192/653 [=======>......................] - ETA: 0s - loss: 0.5651 - acc: 0.6719
320/653 [=============>................] - ETA: 0s - loss: 0.5803 - acc: 0.6625
448/653 [===================>..........] - ETA: 0s - loss: 0.5503 - acc: 0.6920
576/653 [=========================>....] - ETA: 0s - loss: 0.5569 - acc: 0.6910
653/653 [==============================] - 0s 581us/step - loss: 0.5482 - acc: 0.6968
Epoch 21/50

 64/653 [=>............................] - ETA: 0s - loss: 0.4834 - acc: 0.7031
192/653 [=======>......................] - ETA: 0s - loss: 0.4748 - acc: 0.7552
320/653 [=============>................] - ETA: 0s - loss: 0.5135 - acc: 0.7156
448/653 [===================>..........] - ETA: 0s - loss: 0.5072 - acc: 0.7277
576/653 [=========================>....] - ETA: 0s - loss: 0.5282 - acc: 0.7049
653/653 [==============================] - 0s 547us/step - loss: 0.5396 - acc: 0.6937
Epoch 22/50

 64/653 [=>............................] - ETA: 0s - loss: 0.5055 - acc: 0.7344
192/653 [=======>......................] - ETA: 0s - loss: 0.5938 - acc: 0.6615
320/653 [=============>................] - ETA: 0s - loss: 0.5949 - acc: 0.6687
448/653 [===================>..........] - ETA: 0s - loss: 0.5719 - acc: 0.6853
576/653 [=========================>....] - ETA: 0s - loss: 0.5694 - acc: 0.6788
653/653 [==============================] - 0s 541us/step - loss: 0.5627 - acc: 0.6891
Epoch 23/50

 64/653 [=>............................] - ETA: 0s - loss: 0.5147 - acc: 0.7188
192/653 [=======>......................] - ETA: 0s - loss: 0.5266 - acc: 0.7188
320/653 [=============>................] - ETA: 0s - loss: 0.5437 - acc: 0.7188
448/653 [===================>..........] - ETA: 0s - loss: 0.5344 - acc: 0.7188
576/653 [=========================>....] - ETA: 0s - loss: 0.5380 - acc: 0.7188
653/653 [==============================] - 0s 538us/step - loss: 0.5365 - acc: 0.7167
Epoch 24/50

 64/653 [=>............................] - ETA: 0s - loss: 0.4857 - acc: 0.7344
192/653 [=======>......................] - ETA: 0s - loss: 0.5037 - acc: 0.7188
320/653 [=============>................] - ETA: 0s - loss: 0.4995 - acc: 0.7406
448/653 [===================>..........] - ETA: 0s - loss: 0.5140 - acc: 0.7299
576/653 [=========================>....] - ETA: 0s - loss: 0.5091 - acc: 0.7413
653/653 [==============================] - 0s 526us/step - loss: 0.5072 - acc: 0.7443
Epoch 25/50

 64/653 [=>............................] - ETA: 0s - loss: 0.6131 - acc: 0.6406
192/653 [=======>......................] - ETA: 0s - loss: 0.5806 - acc: 0.6667
320/653 [=============>................] - ETA: 0s - loss: 0.5773 - acc: 0.6594
448/653 [===================>..........] - ETA: 0s - loss: 0.5845 - acc: 0.6518
576/653 [=========================>....] - ETA: 0s - loss: 0.5845 - acc: 0.6528
653/653 [==============================] - 0s 526us/step - loss: 0.5944 - acc: 0.6417
Epoch 26/50

 64/653 [=>............................] - ETA: 0s - loss: 0.5375 - acc: 0.7344
192/653 [=======>......................] - ETA: 0s - loss: 0.5119 - acc: 0.7708
320/653 [=============>................] - ETA: 0s - loss: 0.5142 - acc: 0.7531
448/653 [===================>..........] - ETA: 0s - loss: 0.5114 - acc: 0.7656
576/653 [=========================>....] - ETA: 0s - loss: 0.5055 - acc: 0.7639
653/653 [==============================] - 0s 526us/step - loss: 0.5173 - acc: 0.7458
Epoch 27/50

 64/653 [=>............................] - ETA: 0s - loss: 0.4971 - acc: 0.7812
192/653 [=======>......................] - ETA: 0s - loss: 0.5428 - acc: 0.7292
320/653 [=============>................] - ETA: 0s - loss: 0.5573 - acc: 0.7063
448/653 [===================>..........] - ETA: 0s - loss: 0.5365 - acc: 0.7277
576/653 [=========================>....] - ETA: 0s - loss: 0.5379 - acc: 0.7292
653/653 [==============================] - 0s 538us/step - loss: 0.5415 - acc: 0.7213
Epoch 28/50

 64/653 [=>............................] - ETA: 0s - loss: 0.4653 - acc: 0.7969
192/653 [=======>......................] - ETA: 0s - loss: 0.5586 - acc: 0.6771
320/653 [=============>................] - ETA: 0s - loss: 0.5611 - acc: 0.6781
448/653 [===================>..........] - ETA: 0s - loss: 0.5724 - acc: 0.6830
576/653 [=========================>....] - ETA: 0s - loss: 0.5866 - acc: 0.6753
653/653 [==============================] - 0s 542us/step - loss: 0.5878 - acc: 0.6723
Epoch 29/50

 64/653 [=>............................] - ETA: 0s - loss: 0.5743 - acc: 0.6719
192/653 [=======>......................] - ETA: 0s - loss: 0.5884 - acc: 0.6927
320/653 [=============>................] - ETA: 0s - loss: 0.5685 - acc: 0.6844
448/653 [===================>..........] - ETA: 0s - loss: 0.5671 - acc: 0.6830
576/653 [=========================>....] - ETA: 0s - loss: 0.5566 - acc: 0.6910
653/653 [==============================] - 0s 546us/step - loss: 0.5571 - acc: 0.6922
Epoch 30/50

 64/653 [=>............................] - ETA: 0s - loss: 0.5172 - acc: 0.7344
192/653 [=======>......................] - ETA: 0s - loss: 0.5251 - acc: 0.7344
320/653 [=============>................] - ETA: 0s - loss: 0.5021 - acc: 0.7344
448/653 [===================>..........] - ETA: 0s - loss: 0.5110 - acc: 0.7098
576/653 [=========================>....] - ETA: 0s - loss: 0.4858 - acc: 0.7378
653/653 [==============================] - 0s 550us/step - loss: 0.4931 - acc: 0.7305
Epoch 31/50

 64/653 [=>............................] - ETA: 0s - loss: 0.4280 - acc: 0.7344
192/653 [=======>......................] - ETA: 0s - loss: 0.4786 - acc: 0.7396
320/653 [=============>................] - ETA: 0s - loss: 0.4940 - acc: 0.7438
448/653 [===================>..........] - ETA: 0s - loss: 0.4981 - acc: 0.7388
576/653 [=========================>....] - ETA: 0s - loss: 0.4885 - acc: 0.7535
653/653 [==============================] - 0s 549us/step - loss: 0.4903 - acc: 0.7504
Epoch 32/50

 64/653 [=>............................] - ETA: 0s - loss: 0.5982 - acc: 0.5625
192/653 [=======>......................] - ETA: 0s - loss: 0.4937 - acc: 0.6771
320/653 [=============>................] - ETA: 0s - loss: 0.4718 - acc: 0.7063
448/653 [===================>..........] - ETA: 0s - loss: 0.4781 - acc: 0.7210
576/653 [=========================>....] - ETA: 0s - loss: 0.4674 - acc: 0.7344
653/653 [==============================] - 0s 542us/step - loss: 0.4663 - acc: 0.7427
Epoch 33/50

 64/653 [=>............................] - ETA: 0s - loss: 0.4910 - acc: 0.7188
192/653 [=======>......................] - ETA: 0s - loss: 0.4733 - acc: 0.7500
320/653 [=============>................] - ETA: 0s - loss: 0.4502 - acc: 0.7656
448/653 [===================>..........] - ETA: 0s - loss: 0.4428 - acc: 0.7701
576/653 [=========================>....] - ETA: 0s - loss: 0.4459 - acc: 0.7778
653/653 [==============================] - 0s 547us/step - loss: 0.4459 - acc: 0.7764
Epoch 34/50

 64/653 [=>............................] - ETA: 0s - loss: 0.4636 - acc: 0.7031
192/653 [=======>......................] - ETA: 0s - loss: 0.4409 - acc: 0.7917
320/653 [=============>................] - ETA: 0s - loss: 0.4447 - acc: 0.8031
448/653 [===================>..........] - ETA: 0s - loss: 0.4534 - acc: 0.7946
576/653 [=========================>....] - ETA: 0s - loss: 0.4377 - acc: 0.7934
653/653 [==============================] - 0s 540us/step - loss: 0.4276 - acc: 0.7963
Epoch 35/50

 64/653 [=>............................] - ETA: 0s - loss: 0.3679 - acc: 0.8438
192/653 [=======>......................] - ETA: 0s - loss: 0.3906 - acc: 0.8333
320/653 [=============>................] - ETA: 0s - loss: 0.3899 - acc: 0.8281
448/653 [===================>..........] - ETA: 0s - loss: 0.3997 - acc: 0.8259
576/653 [=========================>....] - ETA: 0s - loss: 0.3947 - acc: 0.8229
653/653 [==============================] - 0s 548us/step - loss: 0.3963 - acc: 0.8193
Epoch 36/50

 64/653 [=>............................] - ETA: 0s - loss: 0.3688 - acc: 0.8750
192/653 [=======>......................] - ETA: 0s - loss: 0.3748 - acc: 0.8333
320/653 [=============>................] - ETA: 0s - loss: 0.3755 - acc: 0.8313
448/653 [===================>..........] - ETA: 0s - loss: 0.3709 - acc: 0.8281
576/653 [=========================>....] - ETA: 0s - loss: 0.3792 - acc: 0.8142
653/653 [==============================] - 0s 538us/step - loss: 0.3761 - acc: 0.8178
Epoch 37/50

 64/653 [=>............................] - ETA: 0s - loss: 0.3512 - acc: 0.8906
192/653 [=======>......................] - ETA: 0s - loss: 0.3754 - acc: 0.8490
320/653 [=============>................] - ETA: 0s - loss: 0.3802 - acc: 0.8219
448/653 [===================>..........] - ETA: 0s - loss: 0.3687 - acc: 0.8348
576/653 [=========================>....] - ETA: 0s - loss: 0.3591 - acc: 0.8368
653/653 [==============================] - 0s 541us/step - loss: 0.3652 - acc: 0.8346
Epoch 38/50

 64/653 [=>............................] - ETA: 0s - loss: 0.2939 - acc: 0.8594
192/653 [=======>......................] - ETA: 0s - loss: 0.3818 - acc: 0.8229
320/653 [=============>................] - ETA: 0s - loss: 0.3590 - acc: 0.8313
448/653 [===================>..........] - ETA: 0s - loss: 0.3712 - acc: 0.8259
576/653 [=========================>....] - ETA: 0s - loss: 0.3641 - acc: 0.8316
653/653 [==============================] - 0s 545us/step - loss: 0.3632 - acc: 0.8315
Epoch 39/50

 64/653 [=>............................] - ETA: 0s - loss: 0.3175 - acc: 0.8438
192/653 [=======>......................] - ETA: 0s - loss: 0.3282 - acc: 0.8490
320/653 [=============>................] - ETA: 0s - loss: 0.3411 - acc: 0.8375
448/653 [===================>..........] - ETA: 0s - loss: 0.3682 - acc: 0.8214
576/653 [=========================>....] - ETA: 0s - loss: 0.3647 - acc: 0.8247
653/653 [==============================] - 0s 545us/step - loss: 0.3593 - acc: 0.8254
Epoch 40/50

 64/653 [=>............................] - ETA: 0s - loss: 0.2832 - acc: 0.8594
192/653 [=======>......................] - ETA: 0s - loss: 0.3330 - acc: 0.8177
320/653 [=============>................] - ETA: 0s - loss: 0.3551 - acc: 0.8031
448/653 [===================>..........] - ETA: 0s - loss: 0.3430 - acc: 0.8170
576/653 [=========================>....] - ETA: 0s - loss: 0.3439 - acc: 0.8264
653/653 [==============================] - 0s 537us/step - loss: 0.3424 - acc: 0.8361
Epoch 41/50

 64/653 [=>............................] - ETA: 0s - loss: 0.3633 - acc: 0.8594
192/653 [=======>......................] - ETA: 0s - loss: 0.3097 - acc: 0.8750
320/653 [=============>................] - ETA: 0s - loss: 0.3252 - acc: 0.8531
448/653 [===================>..........] - ETA: 0s - loss: 0.3243 - acc: 0.8527
576/653 [=========================>....] - ETA: 0s - loss: 0.3160 - acc: 0.8524
653/653 [==============================] - 0s 529us/step - loss: 0.3189 - acc: 0.8515
Epoch 42/50

 64/653 [=>............................] - ETA: 0s - loss: 0.2943 - acc: 0.8750
192/653 [=======>......................] - ETA: 0s - loss: 0.3277 - acc: 0.8542
320/653 [=============>................] - ETA: 0s - loss: 0.3275 - acc: 0.8500
448/653 [===================>..........] - ETA: 0s - loss: 0.3218 - acc: 0.8393
576/653 [=========================>....] - ETA: 0s - loss: 0.3177 - acc: 0.8507
653/653 [==============================] - 0s 544us/step - loss: 0.3177 - acc: 0.8560
Epoch 43/50

 64/653 [=>............................] - ETA: 0s - loss: 0.3856 - acc: 0.8125
192/653 [=======>......................] - ETA: 0s - loss: 0.4038 - acc: 0.8021
320/653 [=============>................] - ETA: 0s - loss: 0.3844 - acc: 0.8125
448/653 [===================>..........] - ETA: 0s - loss: 0.3743 - acc: 0.8192
576/653 [=========================>....] - ETA: 0s - loss: 0.3522 - acc: 0.8333
653/653 [==============================] - 0s 541us/step - loss: 0.3435 - acc: 0.8407
Epoch 44/50

 64/653 [=>............................] - ETA: 0s - loss: 0.2604 - acc: 0.9062
192/653 [=======>......................] - ETA: 0s - loss: 0.3503 - acc: 0.8490
320/653 [=============>................] - ETA: 0s - loss: 0.3191 - acc: 0.8562
448/653 [===================>..........] - ETA: 0s - loss: 0.3195 - acc: 0.8549
576/653 [=========================>....] - ETA: 0s - loss: 0.3119 - acc: 0.8594
653/653 [==============================] - 0s 550us/step - loss: 0.3155 - acc: 0.8622
Epoch 45/50

 64/653 [=>............................] - ETA: 0s - loss: 0.3126 - acc: 0.8750
192/653 [=======>......................] - ETA: 0s - loss: 0.3242 - acc: 0.8698
320/653 [=============>................] - ETA: 0s - loss: 0.3094 - acc: 0.8656
448/653 [===================>..........] - ETA: 0s - loss: 0.3006 - acc: 0.8795
576/653 [=========================>....] - ETA: 0s - loss: 0.2997 - acc: 0.8750
653/653 [==============================] - 0s 546us/step - loss: 0.2953 - acc: 0.8806
Epoch 46/50

 64/653 [=>............................] - ETA: 0s - loss: 0.2800 - acc: 0.8438
192/653 [=======>......................] - ETA: 0s - loss: 0.2988 - acc: 0.8385
320/653 [=============>................] - ETA: 0s - loss: 0.2720 - acc: 0.8625
448/653 [===================>..........] - ETA: 0s - loss: 0.2757 - acc: 0.8638
576/653 [=========================>....] - ETA: 0s - loss: 0.2934 - acc: 0.8576
653/653 [==============================] - 0s 543us/step - loss: 0.2866 - acc: 0.8622
Epoch 47/50

 64/653 [=>............................] - ETA: 0s - loss: 0.2910 - acc: 0.8750
192/653 [=======>......................] - ETA: 0s - loss: 0.2958 - acc: 0.8698
320/653 [=============>................] - ETA: 0s - loss: 0.2896 - acc: 0.8656
448/653 [===================>..........] - ETA: 0s - loss: 0.2964 - acc: 0.8527
576/653 [=========================>....] - ETA: 0s - loss: 0.2917 - acc: 0.8576
653/653 [==============================] - 0s 538us/step - loss: 0.2845 - acc: 0.8652
Epoch 48/50

 64/653 [=>............................] - ETA: 0s - loss: 0.2739 - acc: 0.8906
192/653 [=======>......................] - ETA: 0s - loss: 0.2514 - acc: 0.8906
320/653 [=============>................] - ETA: 0s - loss: 0.2473 - acc: 0.8812
448/653 [===================>..........] - ETA: 0s - loss: 0.2580 - acc: 0.8817
576/653 [=========================>....] - ETA: 0s - loss: 0.2661 - acc: 0.8785
653/653 [==============================] - 0s 545us/step - loss: 0.2705 - acc: 0.8729
Epoch 49/50

 64/653 [=>............................] - ETA: 0s - loss: 0.2458 - acc: 0.8594
192/653 [=======>......................] - ETA: 0s - loss: 0.2563 - acc: 0.8594
320/653 [=============>................] - ETA: 0s - loss: 0.2536 - acc: 0.8719
448/653 [===================>..........] - ETA: 0s - loss: 0.2470 - acc: 0.8884
576/653 [=========================>....] - ETA: 0s - loss: 0.2421 - acc: 0.8941
653/653 [==============================] - 0s 545us/step - loss: 0.2455 - acc: 0.8959
Epoch 50/50

 64/653 [=>............................] - ETA: 0s - loss: 0.2301 - acc: 0.9531
192/653 [=======>......................] - ETA: 0s - loss: 0.2743 - acc: 0.8646
320/653 [=============>................] - ETA: 0s - loss: 0.2562 - acc: 0.8750
448/653 [===================>..........] - ETA: 0s - loss: 0.2652 - acc: 0.8683
576/653 [=========================>....] - ETA: 0s - loss: 0.2683 - acc: 0.8698
653/653 [==============================] - 0s 545us/step - loss: 0.2730 - acc: 0.8683

 64/218 [=======>......................] - ETA: 0s
218/218 [==============================] - 0s 2ms/step

 64/653 [=>............................] - ETA: 0s
256/653 [==========>...................] - ETA: 0s
448/653 [===================>..........] - ETA: 0s
640/653 [============================>.] - ETA: 0s
653/653 [==============================] - 0s 302us/step
Killing tensorboard...
Done!
