thtools.__init__.py > running xstream path fixes
Epoch 1/50

 64/436 [===>..........................] - ETA: 15s - loss: 1.1381 - acc: 0.5312
192/436 [============>.................] - ETA: 3s - loss: 0.9217 - acc: 0.5521 
320/436 [=====================>........] - ETA: 1s - loss: 0.8936 - acc: 0.5719
436/436 [==============================] - 3s 7ms/step - loss: 0.9106 - acc: 0.5436
Epoch 2/50

 64/436 [===>..........................] - ETA: 0s - loss: 1.0713 - acc: 0.5156
192/436 [============>.................] - ETA: 0s - loss: 0.8914 - acc: 0.5833
320/436 [=====================>........] - ETA: 0s - loss: 0.9034 - acc: 0.5844
436/436 [==============================] - 0s 550us/step - loss: 0.9129 - acc: 0.5757
Epoch 3/50

 64/436 [===>..........................] - ETA: 0s - loss: 1.0595 - acc: 0.5781
192/436 [============>.................] - ETA: 0s - loss: 1.0297 - acc: 0.5729
320/436 [=====================>........] - ETA: 0s - loss: 1.0245 - acc: 0.5500
436/436 [==============================] - 0s 570us/step - loss: 1.0102 - acc: 0.5550
Epoch 4/50

 64/436 [===>..........................] - ETA: 0s - loss: 0.8553 - acc: 0.6562
192/436 [============>.................] - ETA: 0s - loss: 0.9260 - acc: 0.5781
320/436 [=====================>........] - ETA: 0s - loss: 0.9151 - acc: 0.5594
436/436 [==============================] - 0s 571us/step - loss: 0.9445 - acc: 0.5321
Epoch 5/50

 64/436 [===>..........................] - ETA: 0s - loss: 0.9820 - acc: 0.5625
192/436 [============>.................] - ETA: 0s - loss: 0.9962 - acc: 0.5156
320/436 [=====================>........] - ETA: 0s - loss: 0.9600 - acc: 0.5188
436/436 [==============================] - 0s 545us/step - loss: 0.9826 - acc: 0.5367
Epoch 6/50

 64/436 [===>..........................] - ETA: 0s - loss: 0.7421 - acc: 0.5781
192/436 [============>.................] - ETA: 0s - loss: 0.7905 - acc: 0.5885
320/436 [=====================>........] - ETA: 0s - loss: 0.8541 - acc: 0.5781
436/436 [==============================] - 0s 524us/step - loss: 0.8977 - acc: 0.5528
Epoch 7/50

 64/436 [===>..........................] - ETA: 0s - loss: 0.8721 - acc: 0.4844
192/436 [============>.................] - ETA: 0s - loss: 0.9902 - acc: 0.4948
320/436 [=====================>........] - ETA: 0s - loss: 1.0634 - acc: 0.4750
436/436 [==============================] - 0s 527us/step - loss: 1.0025 - acc: 0.5046
Epoch 8/50

 64/436 [===>..........................] - ETA: 0s - loss: 0.9846 - acc: 0.5312
192/436 [============>.................] - ETA: 0s - loss: 0.9538 - acc: 0.5625
320/436 [=====================>........] - ETA: 0s - loss: 0.9434 - acc: 0.5406
436/436 [==============================] - 0s 526us/step - loss: 0.9280 - acc: 0.5505
Epoch 9/50

 64/436 [===>..........................] - ETA: 0s - loss: 0.7890 - acc: 0.5312
192/436 [============>.................] - ETA: 0s - loss: 0.8493 - acc: 0.5729
320/436 [=====================>........] - ETA: 0s - loss: 0.8867 - acc: 0.5375
436/436 [==============================] - 0s 528us/step - loss: 0.8770 - acc: 0.5528
Epoch 10/50

 64/436 [===>..........................] - ETA: 0s - loss: 0.7323 - acc: 0.5938
192/436 [============>.................] - ETA: 0s - loss: 0.8387 - acc: 0.5625
320/436 [=====================>........] - ETA: 0s - loss: 0.8243 - acc: 0.5719
436/436 [==============================] - 0s 556us/step - loss: 0.8240 - acc: 0.5550
Epoch 11/50

 64/436 [===>..........................] - ETA: 0s - loss: 1.0603 - acc: 0.4219
192/436 [============>.................] - ETA: 0s - loss: 0.9124 - acc: 0.5312
320/436 [=====================>........] - ETA: 0s - loss: 0.9128 - acc: 0.5250
436/436 [==============================] - 0s 557us/step - loss: 0.9023 - acc: 0.5252
Epoch 12/50

 64/436 [===>..........................] - ETA: 0s - loss: 0.9098 - acc: 0.6250
192/436 [============>.................] - ETA: 0s - loss: 0.8741 - acc: 0.6042
320/436 [=====================>........] - ETA: 0s - loss: 0.9139 - acc: 0.5594
436/436 [==============================] - 0s 551us/step - loss: 0.9310 - acc: 0.5367
Epoch 13/50

 64/436 [===>..........................] - ETA: 0s - loss: 0.9016 - acc: 0.5938
192/436 [============>.................] - ETA: 0s - loss: 0.9176 - acc: 0.5312
320/436 [=====================>........] - ETA: 0s - loss: 0.9332 - acc: 0.5250
436/436 [==============================] - 0s 565us/step - loss: 0.9338 - acc: 0.5344
Epoch 14/50

 64/436 [===>..........................] - ETA: 0s - loss: 0.9499 - acc: 0.4844
192/436 [============>.................] - ETA: 0s - loss: 0.9752 - acc: 0.5000
320/436 [=====================>........] - ETA: 0s - loss: 0.9721 - acc: 0.5188
436/436 [==============================] - 0s 566us/step - loss: 0.9546 - acc: 0.5275
Epoch 15/50

 64/436 [===>..........................] - ETA: 0s - loss: 1.0239 - acc: 0.4844
192/436 [============>.................] - ETA: 0s - loss: 0.9124 - acc: 0.5312
320/436 [=====================>........] - ETA: 0s - loss: 0.9537 - acc: 0.5156
436/436 [==============================] - 0s 580us/step - loss: 0.9375 - acc: 0.5252
Epoch 16/50

 64/436 [===>..........................] - ETA: 0s - loss: 0.9357 - acc: 0.5781
192/436 [============>.................] - ETA: 0s - loss: 0.9024 - acc: 0.5521
320/436 [=====================>........] - ETA: 0s - loss: 0.9142 - acc: 0.5312
436/436 [==============================] - 0s 574us/step - loss: 0.8728 - acc: 0.5367
Epoch 17/50

 64/436 [===>..........................] - ETA: 0s - loss: 1.0017 - acc: 0.5312
192/436 [============>.................] - ETA: 0s - loss: 0.8190 - acc: 0.5573
320/436 [=====================>........] - ETA: 0s - loss: 0.8215 - acc: 0.5594
436/436 [==============================] - 0s 576us/step - loss: 0.8219 - acc: 0.5413
Epoch 18/50

 64/436 [===>..........................] - ETA: 0s - loss: 0.7590 - acc: 0.5938
192/436 [============>.................] - ETA: 0s - loss: 0.8020 - acc: 0.5469
320/436 [=====================>........] - ETA: 0s - loss: 0.8144 - acc: 0.5500
436/436 [==============================] - 0s 589us/step - loss: 0.8001 - acc: 0.5642
Epoch 19/50

 64/436 [===>..........................] - ETA: 0s - loss: 0.8383 - acc: 0.5000
192/436 [============>.................] - ETA: 0s - loss: 0.7990 - acc: 0.5677
320/436 [=====================>........] - ETA: 0s - loss: 0.8131 - acc: 0.5781
436/436 [==============================] - 0s 562us/step - loss: 0.8412 - acc: 0.5734
Epoch 20/50

 64/436 [===>..........................] - ETA: 0s - loss: 0.8192 - acc: 0.5000
192/436 [============>.................] - ETA: 0s - loss: 0.8669 - acc: 0.5208
320/436 [=====================>........] - ETA: 0s - loss: 0.8332 - acc: 0.5500
436/436 [==============================] - 0s 534us/step - loss: 0.8160 - acc: 0.5505
Epoch 21/50

 64/436 [===>..........................] - ETA: 0s - loss: 0.7117 - acc: 0.5469
192/436 [============>.................] - ETA: 0s - loss: 0.7827 - acc: 0.5052
320/436 [=====================>........] - ETA: 0s - loss: 0.7938 - acc: 0.5312
436/436 [==============================] - 0s 533us/step - loss: 0.8275 - acc: 0.5252
Epoch 22/50

 64/436 [===>..........................] - ETA: 0s - loss: 0.8961 - acc: 0.5156
192/436 [============>.................] - ETA: 0s - loss: 0.8710 - acc: 0.4688
320/436 [=====================>........] - ETA: 0s - loss: 0.8604 - acc: 0.5250
436/436 [==============================] - 0s 533us/step - loss: 0.8733 - acc: 0.5252
Epoch 23/50

 64/436 [===>..........................] - ETA: 0s - loss: 0.8032 - acc: 0.6094
192/436 [============>.................] - ETA: 0s - loss: 0.7758 - acc: 0.5781
320/436 [=====================>........] - ETA: 0s - loss: 0.8370 - acc: 0.5437
436/436 [==============================] - 0s 530us/step - loss: 0.8148 - acc: 0.5482
Epoch 24/50

 64/436 [===>..........................] - ETA: 0s - loss: 0.9292 - acc: 0.4531
192/436 [============>.................] - ETA: 0s - loss: 0.8442 - acc: 0.5156
320/436 [=====================>........] - ETA: 0s - loss: 0.8674 - acc: 0.5406
436/436 [==============================] - 0s 525us/step - loss: 0.8359 - acc: 0.5459
Epoch 25/50

 64/436 [===>..........................] - ETA: 0s - loss: 0.8225 - acc: 0.5469
192/436 [============>.................] - ETA: 0s - loss: 0.8198 - acc: 0.5521
320/436 [=====================>........] - ETA: 0s - loss: 0.8364 - acc: 0.5563
436/436 [==============================] - 0s 526us/step - loss: 0.8143 - acc: 0.5550
Epoch 26/50

 64/436 [===>..........................] - ETA: 0s - loss: 0.8521 - acc: 0.5156
192/436 [============>.................] - ETA: 0s - loss: 0.8710 - acc: 0.5312
320/436 [=====================>........] - ETA: 0s - loss: 0.8157 - acc: 0.5406
436/436 [==============================] - 0s 531us/step - loss: 0.8023 - acc: 0.5596
Epoch 27/50

 64/436 [===>..........................] - ETA: 0s - loss: 1.0531 - acc: 0.4375
192/436 [============>.................] - ETA: 0s - loss: 0.9097 - acc: 0.5208
320/436 [=====================>........] - ETA: 0s - loss: 0.8833 - acc: 0.5344
436/436 [==============================] - 0s 534us/step - loss: 0.8570 - acc: 0.5390
Epoch 28/50

 64/436 [===>..........................] - ETA: 0s - loss: 0.8846 - acc: 0.5000
192/436 [============>.................] - ETA: 0s - loss: 0.8102 - acc: 0.4896
320/436 [=====================>........] - ETA: 0s - loss: 0.8019 - acc: 0.5094
436/436 [==============================] - 0s 538us/step - loss: 0.8095 - acc: 0.5069
Epoch 29/50

 64/436 [===>..........................] - ETA: 0s - loss: 0.7103 - acc: 0.5312
192/436 [============>.................] - ETA: 0s - loss: 0.8003 - acc: 0.4896
320/436 [=====================>........] - ETA: 0s - loss: 0.8013 - acc: 0.5094
436/436 [==============================] - 0s 541us/step - loss: 0.8035 - acc: 0.5115
Epoch 30/50

 64/436 [===>..........................] - ETA: 0s - loss: 0.7604 - acc: 0.5781
192/436 [============>.................] - ETA: 0s - loss: 0.7197 - acc: 0.6042
320/436 [=====================>........] - ETA: 0s - loss: 0.7882 - acc: 0.5844
436/436 [==============================] - 0s 540us/step - loss: 0.7947 - acc: 0.5596
Epoch 31/50

 64/436 [===>..........................] - ETA: 0s - loss: 0.7191 - acc: 0.5781
192/436 [============>.................] - ETA: 0s - loss: 0.7843 - acc: 0.5625
320/436 [=====================>........] - ETA: 0s - loss: 0.7861 - acc: 0.5312
436/436 [==============================] - 0s 540us/step - loss: 0.8072 - acc: 0.5092
Epoch 32/50

 64/436 [===>..........................] - ETA: 0s - loss: 0.8468 - acc: 0.4531
192/436 [============>.................] - ETA: 0s - loss: 0.7709 - acc: 0.5573
320/436 [=====================>........] - ETA: 0s - loss: 0.8001 - acc: 0.5156
436/436 [==============================] - 0s 542us/step - loss: 0.7869 - acc: 0.5321
Epoch 33/50

 64/436 [===>..........................] - ETA: 0s - loss: 0.8043 - acc: 0.5312
192/436 [============>.................] - ETA: 0s - loss: 0.8050 - acc: 0.5729
320/436 [=====================>........] - ETA: 0s - loss: 0.7734 - acc: 0.5750
436/436 [==============================] - 0s 550us/step - loss: 0.7713 - acc: 0.5665
Epoch 34/50

 64/436 [===>..........................] - ETA: 0s - loss: 0.8386 - acc: 0.5625
192/436 [============>.................] - ETA: 0s - loss: 0.7950 - acc: 0.5260
320/436 [=====================>........] - ETA: 0s - loss: 0.7715 - acc: 0.5375
436/436 [==============================] - 0s 543us/step - loss: 0.7790 - acc: 0.5206
Epoch 35/50

 64/436 [===>..........................] - ETA: 0s - loss: 0.7097 - acc: 0.5312
192/436 [============>.................] - ETA: 0s - loss: 0.7354 - acc: 0.5260
320/436 [=====================>........] - ETA: 0s - loss: 0.7023 - acc: 0.5625
436/436 [==============================] - 0s 557us/step - loss: 0.7120 - acc: 0.5711
Epoch 36/50

 64/436 [===>..........................] - ETA: 0s - loss: 0.7722 - acc: 0.5781
192/436 [============>.................] - ETA: 0s - loss: 0.8050 - acc: 0.4948
320/436 [=====================>........] - ETA: 0s - loss: 0.8033 - acc: 0.5344
436/436 [==============================] - 0s 533us/step - loss: 0.8036 - acc: 0.5321
Epoch 37/50

 64/436 [===>..........................] - ETA: 0s - loss: 0.8671 - acc: 0.4219
192/436 [============>.................] - ETA: 0s - loss: 0.8508 - acc: 0.4844
320/436 [=====================>........] - ETA: 0s - loss: 0.7989 - acc: 0.5188
436/436 [==============================] - 0s 542us/step - loss: 0.7817 - acc: 0.5413
Epoch 38/50

 64/436 [===>..........................] - ETA: 0s - loss: 0.8298 - acc: 0.4688
192/436 [============>.................] - ETA: 0s - loss: 0.7986 - acc: 0.5260
320/436 [=====================>........] - ETA: 0s - loss: 0.7836 - acc: 0.5281
436/436 [==============================] - 0s 538us/step - loss: 0.7719 - acc: 0.5413
Epoch 39/50

 64/436 [===>..........................] - ETA: 0s - loss: 0.7759 - acc: 0.5312
192/436 [============>.................] - ETA: 0s - loss: 0.7560 - acc: 0.5469
320/436 [=====================>........] - ETA: 0s - loss: 0.7754 - acc: 0.5188
436/436 [==============================] - 0s 567us/step - loss: 0.7747 - acc: 0.5229
Epoch 40/50

 64/436 [===>..........................] - ETA: 0s - loss: 0.7756 - acc: 0.5938
192/436 [============>.................] - ETA: 0s - loss: 0.7730 - acc: 0.5781
320/436 [=====================>........] - ETA: 0s - loss: 0.7623 - acc: 0.5531
436/436 [==============================] - 0s 538us/step - loss: 0.7441 - acc: 0.5550
Epoch 41/50

 64/436 [===>..........................] - ETA: 0s - loss: 0.8565 - acc: 0.3594
192/436 [============>.................] - ETA: 0s - loss: 0.7608 - acc: 0.5365
320/436 [=====================>........] - ETA: 0s - loss: 0.7722 - acc: 0.5219
436/436 [==============================] - 0s 546us/step - loss: 0.7634 - acc: 0.5229
Epoch 42/50

 64/436 [===>..........................] - ETA: 0s - loss: 0.7819 - acc: 0.5469
192/436 [============>.................] - ETA: 0s - loss: 0.7381 - acc: 0.5938
320/436 [=====================>........] - ETA: 0s - loss: 0.7650 - acc: 0.5500
436/436 [==============================] - 0s 546us/step - loss: 0.7667 - acc: 0.5505
Epoch 43/50

 64/436 [===>..........................] - ETA: 0s - loss: 0.6664 - acc: 0.6719
192/436 [============>.................] - ETA: 0s - loss: 0.7695 - acc: 0.5260
320/436 [=====================>........] - ETA: 0s - loss: 0.7874 - acc: 0.5250
436/436 [==============================] - 0s 538us/step - loss: 0.7932 - acc: 0.5390
Epoch 44/50

 64/436 [===>..........................] - ETA: 0s - loss: 0.6952 - acc: 0.6562
192/436 [============>.................] - ETA: 0s - loss: 0.7261 - acc: 0.5365
320/436 [=====================>........] - ETA: 0s - loss: 0.7552 - acc: 0.5312
436/436 [==============================] - 0s 538us/step - loss: 0.7481 - acc: 0.5390
Epoch 45/50

 64/436 [===>..........................] - ETA: 0s - loss: 0.7625 - acc: 0.5312
192/436 [============>.................] - ETA: 0s - loss: 0.7055 - acc: 0.6146
320/436 [=====================>........] - ETA: 0s - loss: 0.7233 - acc: 0.5844
436/436 [==============================] - 0s 538us/step - loss: 0.7349 - acc: 0.5619
Epoch 46/50

 64/436 [===>..........................] - ETA: 0s - loss: 0.8033 - acc: 0.5156
192/436 [============>.................] - ETA: 0s - loss: 0.7150 - acc: 0.5781
320/436 [=====================>........] - ETA: 0s - loss: 0.7493 - acc: 0.5500
436/436 [==============================] - 0s 534us/step - loss: 0.7407 - acc: 0.5505
Epoch 47/50

 64/436 [===>..........................] - ETA: 0s - loss: 0.7206 - acc: 0.5156
192/436 [============>.................] - ETA: 0s - loss: 0.7319 - acc: 0.5521
320/436 [=====================>........] - ETA: 0s - loss: 0.7182 - acc: 0.5594
436/436 [==============================] - 0s 531us/step - loss: 0.7357 - acc: 0.5528
Epoch 48/50

 64/436 [===>..........................] - ETA: 0s - loss: 0.7318 - acc: 0.4844
192/436 [============>.................] - ETA: 0s - loss: 0.7691 - acc: 0.4948
320/436 [=====================>........] - ETA: 0s - loss: 0.7725 - acc: 0.5156
436/436 [==============================] - 0s 532us/step - loss: 0.7631 - acc: 0.5252
Epoch 49/50

 64/436 [===>..........................] - ETA: 0s - loss: 0.7360 - acc: 0.5156
192/436 [============>.................] - ETA: 0s - loss: 0.7071 - acc: 0.5677
320/436 [=====================>........] - ETA: 0s - loss: 0.7050 - acc: 0.5813
436/436 [==============================] - 0s 542us/step - loss: 0.7353 - acc: 0.5505
Epoch 50/50

 64/436 [===>..........................] - ETA: 0s - loss: 0.7352 - acc: 0.5312
192/436 [============>.................] - ETA: 0s - loss: 0.7639 - acc: 0.5729
320/436 [=====================>........] - ETA: 0s - loss: 0.7482 - acc: 0.5563
436/436 [==============================] - 0s 543us/step - loss: 0.7338 - acc: 0.5459

 64/217 [=======>......................] - ETA: 0s
217/217 [==============================] - 0s 713us/step

 64/436 [===>..........................] - ETA: 0s
256/436 [================>.............] - ETA: 0s
436/436 [==============================] - 0s 288us/step
Killing tensorboard...
Done!
