thtools.__init__.py > running xstream path fixes
Epoch 1/50

 64/436 [===>..........................] - ETA: 10s - loss: 0.9293 - acc: 0.3906
192/436 [============>.................] - ETA: 2s - loss: 0.8813 - acc: 0.4531 
320/436 [=====================>........] - ETA: 0s - loss: 0.8813 - acc: 0.4562
436/436 [==============================] - 2s 5ms/step - loss: 0.9026 - acc: 0.4541
Epoch 2/50

 64/436 [===>..........................] - ETA: 0s - loss: 0.7541 - acc: 0.5625
192/436 [============>.................] - ETA: 0s - loss: 0.7504 - acc: 0.5625
320/436 [=====================>........] - ETA: 0s - loss: 0.7921 - acc: 0.5250
436/436 [==============================] - 0s 506us/step - loss: 0.7963 - acc: 0.5344
Epoch 3/50

 64/436 [===>..........................] - ETA: 0s - loss: 0.7762 - acc: 0.5938
192/436 [============>.................] - ETA: 0s - loss: 0.7863 - acc: 0.5885
320/436 [=====================>........] - ETA: 0s - loss: 0.7508 - acc: 0.5969
436/436 [==============================] - 0s 544us/step - loss: 0.7621 - acc: 0.5596
Epoch 4/50

 64/436 [===>..........................] - ETA: 0s - loss: 0.6970 - acc: 0.5938
192/436 [============>.................] - ETA: 0s - loss: 0.7534 - acc: 0.5156
320/436 [=====================>........] - ETA: 0s - loss: 0.7698 - acc: 0.5156
436/436 [==============================] - 0s 548us/step - loss: 0.7599 - acc: 0.5367
Epoch 5/50

 64/436 [===>..........................] - ETA: 0s - loss: 0.6844 - acc: 0.6250
192/436 [============>.................] - ETA: 0s - loss: 0.7246 - acc: 0.5677
320/436 [=====================>........] - ETA: 0s - loss: 0.7268 - acc: 0.5594
436/436 [==============================] - 0s 522us/step - loss: 0.7482 - acc: 0.5344
Epoch 6/50

 64/436 [===>..........................] - ETA: 0s - loss: 0.8488 - acc: 0.4844
192/436 [============>.................] - ETA: 0s - loss: 0.7557 - acc: 0.5521
320/436 [=====================>........] - ETA: 0s - loss: 0.7386 - acc: 0.5594
436/436 [==============================] - 0s 525us/step - loss: 0.7499 - acc: 0.5459
Epoch 7/50

 64/436 [===>..........................] - ETA: 0s - loss: 0.7832 - acc: 0.4688
192/436 [============>.................] - ETA: 0s - loss: 0.7436 - acc: 0.5312
320/436 [=====================>........] - ETA: 0s - loss: 0.7230 - acc: 0.5437
436/436 [==============================] - 0s 516us/step - loss: 0.7414 - acc: 0.5206
Epoch 8/50

 64/436 [===>..........................] - ETA: 0s - loss: 0.6515 - acc: 0.6250
192/436 [============>.................] - ETA: 0s - loss: 0.6976 - acc: 0.5885
320/436 [=====================>........] - ETA: 0s - loss: 0.7164 - acc: 0.5750
436/436 [==============================] - 0s 523us/step - loss: 0.7291 - acc: 0.5596
Epoch 9/50

 64/436 [===>..........................] - ETA: 0s - loss: 0.7677 - acc: 0.4375
192/436 [============>.................] - ETA: 0s - loss: 0.7861 - acc: 0.4740
320/436 [=====================>........] - ETA: 0s - loss: 0.7817 - acc: 0.4969
436/436 [==============================] - 0s 522us/step - loss: 0.7600 - acc: 0.5229
Epoch 10/50

 64/436 [===>..........................] - ETA: 0s - loss: 0.7264 - acc: 0.4844
192/436 [============>.................] - ETA: 0s - loss: 0.7181 - acc: 0.5417
320/436 [=====================>........] - ETA: 0s - loss: 0.7402 - acc: 0.5156
436/436 [==============================] - 0s 538us/step - loss: 0.7324 - acc: 0.5161
Epoch 11/50

 64/436 [===>..........................] - ETA: 0s - loss: 0.7154 - acc: 0.5312
192/436 [============>.................] - ETA: 0s - loss: 0.7526 - acc: 0.4948
320/436 [=====================>........] - ETA: 0s - loss: 0.7400 - acc: 0.5219
436/436 [==============================] - 0s 531us/step - loss: 0.7371 - acc: 0.5183
Epoch 12/50

 64/436 [===>..........................] - ETA: 0s - loss: 0.7135 - acc: 0.5156
192/436 [============>.................] - ETA: 0s - loss: 0.7390 - acc: 0.5156
320/436 [=====================>........] - ETA: 0s - loss: 0.7149 - acc: 0.5344
436/436 [==============================] - 0s 526us/step - loss: 0.7297 - acc: 0.5161
Epoch 13/50

 64/436 [===>..........................] - ETA: 0s - loss: 0.6989 - acc: 0.5469
192/436 [============>.................] - ETA: 0s - loss: 0.6779 - acc: 0.5625
320/436 [=====================>........] - ETA: 0s - loss: 0.6860 - acc: 0.5781
436/436 [==============================] - 0s 532us/step - loss: 0.7118 - acc: 0.5482
Epoch 14/50

 64/436 [===>..........................] - ETA: 0s - loss: 0.6834 - acc: 0.5938
192/436 [============>.................] - ETA: 0s - loss: 0.7202 - acc: 0.5625
320/436 [=====================>........] - ETA: 0s - loss: 0.7385 - acc: 0.5531
436/436 [==============================] - 0s 534us/step - loss: 0.7280 - acc: 0.5321
Epoch 15/50

 64/436 [===>..........................] - ETA: 0s - loss: 0.6609 - acc: 0.6719
192/436 [============>.................] - ETA: 0s - loss: 0.6977 - acc: 0.5729
320/436 [=====================>........] - ETA: 0s - loss: 0.7078 - acc: 0.5344
436/436 [==============================] - 0s 523us/step - loss: 0.7151 - acc: 0.5344
Epoch 16/50

 64/436 [===>..........................] - ETA: 0s - loss: 0.6913 - acc: 0.6094
192/436 [============>.................] - ETA: 0s - loss: 0.6875 - acc: 0.5469
320/436 [=====================>........] - ETA: 0s - loss: 0.6766 - acc: 0.5781
436/436 [==============================] - 0s 533us/step - loss: 0.6877 - acc: 0.5826
Epoch 17/50

 64/436 [===>..........................] - ETA: 0s - loss: 0.6624 - acc: 0.6250
192/436 [============>.................] - ETA: 0s - loss: 0.7193 - acc: 0.5521
320/436 [=====================>........] - ETA: 0s - loss: 0.7142 - acc: 0.5781
436/436 [==============================] - 0s 530us/step - loss: 0.7072 - acc: 0.5573
Epoch 18/50

 64/436 [===>..........................] - ETA: 0s - loss: 0.7051 - acc: 0.5156
192/436 [============>.................] - ETA: 0s - loss: 0.6818 - acc: 0.5885
320/436 [=====================>........] - ETA: 0s - loss: 0.7031 - acc: 0.5500
436/436 [==============================] - 0s 529us/step - loss: 0.7085 - acc: 0.5298
Epoch 19/50

 64/436 [===>..........................] - ETA: 0s - loss: 0.7251 - acc: 0.4531
192/436 [============>.................] - ETA: 0s - loss: 0.7224 - acc: 0.5052
320/436 [=====================>........] - ETA: 0s - loss: 0.7044 - acc: 0.5719
436/436 [==============================] - 0s 538us/step - loss: 0.7226 - acc: 0.5505
Epoch 20/50

 64/436 [===>..........................] - ETA: 0s - loss: 0.7186 - acc: 0.4531
192/436 [============>.................] - ETA: 0s - loss: 0.7226 - acc: 0.5156
320/436 [=====================>........] - ETA: 0s - loss: 0.7082 - acc: 0.5312
436/436 [==============================] - 0s 528us/step - loss: 0.7140 - acc: 0.5252
Epoch 21/50

 64/436 [===>..........................] - ETA: 0s - loss: 0.7125 - acc: 0.4844
192/436 [============>.................] - ETA: 0s - loss: 0.6932 - acc: 0.5521
320/436 [=====================>........] - ETA: 0s - loss: 0.6967 - acc: 0.5531
436/436 [==============================] - 0s 523us/step - loss: 0.6990 - acc: 0.5596
Epoch 22/50

 64/436 [===>..........................] - ETA: 0s - loss: 0.7198 - acc: 0.4688
192/436 [============>.................] - ETA: 0s - loss: 0.6939 - acc: 0.5260
320/436 [=====================>........] - ETA: 0s - loss: 0.6910 - acc: 0.5563
436/436 [==============================] - 0s 522us/step - loss: 0.7072 - acc: 0.5298
Epoch 23/50

 64/436 [===>..........................] - ETA: 0s - loss: 0.6949 - acc: 0.5469
192/436 [============>.................] - ETA: 0s - loss: 0.7076 - acc: 0.5417
320/436 [=====================>........] - ETA: 0s - loss: 0.7070 - acc: 0.5500
436/436 [==============================] - 0s 543us/step - loss: 0.6978 - acc: 0.5619
Epoch 24/50

 64/436 [===>..........................] - ETA: 0s - loss: 0.6891 - acc: 0.5781
192/436 [============>.................] - ETA: 0s - loss: 0.6998 - acc: 0.5781
320/436 [=====================>........] - ETA: 0s - loss: 0.6992 - acc: 0.5625
436/436 [==============================] - 0s 522us/step - loss: 0.7044 - acc: 0.5573
Epoch 25/50

 64/436 [===>..........................] - ETA: 0s - loss: 0.7137 - acc: 0.5312
192/436 [============>.................] - ETA: 0s - loss: 0.7183 - acc: 0.5521
320/436 [=====================>........] - ETA: 0s - loss: 0.7120 - acc: 0.5406
436/436 [==============================] - 0s 529us/step - loss: 0.7182 - acc: 0.5321
Epoch 26/50

 64/436 [===>..........................] - ETA: 0s - loss: 0.7067 - acc: 0.5469
192/436 [============>.................] - ETA: 0s - loss: 0.7047 - acc: 0.5677
320/436 [=====================>........] - ETA: 0s - loss: 0.6918 - acc: 0.5844
436/436 [==============================] - 0s 528us/step - loss: 0.6956 - acc: 0.5894
Epoch 27/50

 64/436 [===>..........................] - ETA: 0s - loss: 0.6952 - acc: 0.5469
192/436 [============>.................] - ETA: 0s - loss: 0.6831 - acc: 0.5729
320/436 [=====================>........] - ETA: 0s - loss: 0.6954 - acc: 0.5437
436/436 [==============================] - 0s 514us/step - loss: 0.7021 - acc: 0.5550
Epoch 28/50

 64/436 [===>..........................] - ETA: 0s - loss: 0.7791 - acc: 0.4219
192/436 [============>.................] - ETA: 0s - loss: 0.7307 - acc: 0.5365
320/436 [=====================>........] - ETA: 0s - loss: 0.7228 - acc: 0.5312
436/436 [==============================] - 0s 528us/step - loss: 0.7259 - acc: 0.5321
Epoch 29/50

 64/436 [===>..........................] - ETA: 0s - loss: 0.7541 - acc: 0.5000
192/436 [============>.................] - ETA: 0s - loss: 0.7224 - acc: 0.5365
320/436 [=====================>........] - ETA: 0s - loss: 0.7090 - acc: 0.5500
436/436 [==============================] - 0s 518us/step - loss: 0.7043 - acc: 0.5596
Epoch 30/50

 64/436 [===>..........................] - ETA: 0s - loss: 0.8023 - acc: 0.4531
192/436 [============>.................] - ETA: 0s - loss: 0.7467 - acc: 0.5156
320/436 [=====================>........] - ETA: 0s - loss: 0.7277 - acc: 0.5625
436/436 [==============================] - 0s 524us/step - loss: 0.7239 - acc: 0.5505
Epoch 31/50

 64/436 [===>..........................] - ETA: 0s - loss: 0.6949 - acc: 0.5625
192/436 [============>.................] - ETA: 0s - loss: 0.7080 - acc: 0.5312
320/436 [=====================>........] - ETA: 0s - loss: 0.7014 - acc: 0.5656
436/436 [==============================] - 0s 523us/step - loss: 0.7026 - acc: 0.5619
Epoch 32/50

 64/436 [===>..........................] - ETA: 0s - loss: 0.6992 - acc: 0.5938
192/436 [============>.................] - ETA: 0s - loss: 0.7174 - acc: 0.5104
320/436 [=====================>........] - ETA: 0s - loss: 0.7139 - acc: 0.5531
436/436 [==============================] - 0s 520us/step - loss: 0.7167 - acc: 0.5528
Epoch 33/50

 64/436 [===>..........................] - ETA: 0s - loss: 0.6776 - acc: 0.5625
192/436 [============>.................] - ETA: 0s - loss: 0.6847 - acc: 0.5677
320/436 [=====================>........] - ETA: 0s - loss: 0.7112 - acc: 0.5375
436/436 [==============================] - 0s 531us/step - loss: 0.7233 - acc: 0.5252
Epoch 34/50

 64/436 [===>..........................] - ETA: 0s - loss: 0.7053 - acc: 0.6094
192/436 [============>.................] - ETA: 0s - loss: 0.7027 - acc: 0.5417
320/436 [=====================>........] - ETA: 0s - loss: 0.7076 - acc: 0.5312
436/436 [==============================] - 0s 518us/step - loss: 0.7046 - acc: 0.5436
Epoch 35/50

 64/436 [===>..........................] - ETA: 0s - loss: 0.6798 - acc: 0.6250
192/436 [============>.................] - ETA: 0s - loss: 0.7002 - acc: 0.5469
320/436 [=====================>........] - ETA: 0s - loss: 0.6841 - acc: 0.5813
436/436 [==============================] - 0s 522us/step - loss: 0.6811 - acc: 0.5688
Epoch 36/50

 64/436 [===>..........................] - ETA: 0s - loss: 0.6581 - acc: 0.6250
192/436 [============>.................] - ETA: 0s - loss: 0.6960 - acc: 0.5521
320/436 [=====================>........] - ETA: 0s - loss: 0.7110 - acc: 0.5344
436/436 [==============================] - 0s 518us/step - loss: 0.7005 - acc: 0.5688
Epoch 37/50

 64/436 [===>..........................] - ETA: 0s - loss: 0.6335 - acc: 0.6250
192/436 [============>.................] - ETA: 0s - loss: 0.6792 - acc: 0.5885
320/436 [=====================>........] - ETA: 0s - loss: 0.7072 - acc: 0.5594
436/436 [==============================] - 0s 513us/step - loss: 0.6985 - acc: 0.5665
Epoch 38/50

 64/436 [===>..........................] - ETA: 0s - loss: 0.6788 - acc: 0.5938
192/436 [============>.................] - ETA: 0s - loss: 0.7057 - acc: 0.5938
320/436 [=====================>........] - ETA: 0s - loss: 0.7085 - acc: 0.5719
436/436 [==============================] - 0s 507us/step - loss: 0.7028 - acc: 0.5642
Epoch 39/50

 64/436 [===>..........................] - ETA: 0s - loss: 0.7255 - acc: 0.5781
192/436 [============>.................] - ETA: 0s - loss: 0.7204 - acc: 0.5677
320/436 [=====================>........] - ETA: 0s - loss: 0.7082 - acc: 0.5750
436/436 [==============================] - 0s 509us/step - loss: 0.7082 - acc: 0.5573
Epoch 40/50

 64/436 [===>..........................] - ETA: 0s - loss: 0.7180 - acc: 0.6094
192/436 [============>.................] - ETA: 0s - loss: 0.7197 - acc: 0.5938
320/436 [=====================>........] - ETA: 0s - loss: 0.7064 - acc: 0.5813
436/436 [==============================] - 0s 515us/step - loss: 0.7125 - acc: 0.5619
Epoch 41/50

 64/436 [===>..........................] - ETA: 0s - loss: 0.6945 - acc: 0.5469
192/436 [============>.................] - ETA: 0s - loss: 0.6988 - acc: 0.5365
320/436 [=====================>........] - ETA: 0s - loss: 0.7179 - acc: 0.5094
436/436 [==============================] - 0s 511us/step - loss: 0.7239 - acc: 0.5161
Epoch 42/50

 64/436 [===>..........................] - ETA: 0s - loss: 0.7033 - acc: 0.5625
192/436 [============>.................] - ETA: 0s - loss: 0.6855 - acc: 0.5729
320/436 [=====================>........] - ETA: 0s - loss: 0.6967 - acc: 0.5625
436/436 [==============================] - 0s 525us/step - loss: 0.7043 - acc: 0.5619
Epoch 43/50

 64/436 [===>..........................] - ETA: 0s - loss: 0.7123 - acc: 0.5625
192/436 [============>.................] - ETA: 0s - loss: 0.7332 - acc: 0.5573
320/436 [=====================>........] - ETA: 0s - loss: 0.7257 - acc: 0.5375
436/436 [==============================] - 0s 521us/step - loss: 0.7307 - acc: 0.5275
Epoch 44/50

 64/436 [===>..........................] - ETA: 0s - loss: 0.6684 - acc: 0.5781
192/436 [============>.................] - ETA: 0s - loss: 0.6939 - acc: 0.5677
320/436 [=====================>........] - ETA: 0s - loss: 0.7007 - acc: 0.5625
436/436 [==============================] - 0s 522us/step - loss: 0.6984 - acc: 0.5528
Epoch 45/50

 64/436 [===>..........................] - ETA: 0s - loss: 0.6590 - acc: 0.6406
192/436 [============>.................] - ETA: 0s - loss: 0.7016 - acc: 0.5677
320/436 [=====================>........] - ETA: 0s - loss: 0.7136 - acc: 0.5594
436/436 [==============================] - 0s 517us/step - loss: 0.7152 - acc: 0.5482
Epoch 46/50

 64/436 [===>..........................] - ETA: 0s - loss: 0.6464 - acc: 0.6562
192/436 [============>.................] - ETA: 0s - loss: 0.6983 - acc: 0.6042
320/436 [=====================>........] - ETA: 0s - loss: 0.7143 - acc: 0.5656
436/436 [==============================] - 0s 530us/step - loss: 0.7043 - acc: 0.5826
Epoch 47/50

 64/436 [===>..........................] - ETA: 0s - loss: 0.7279 - acc: 0.5781
192/436 [============>.................] - ETA: 0s - loss: 0.6982 - acc: 0.5677
320/436 [=====================>........] - ETA: 0s - loss: 0.7093 - acc: 0.5469
436/436 [==============================] - 0s 529us/step - loss: 0.7045 - acc: 0.5619
Epoch 48/50

 64/436 [===>..........................] - ETA: 0s - loss: 0.7043 - acc: 0.5469
192/436 [============>.................] - ETA: 0s - loss: 0.6913 - acc: 0.6250
320/436 [=====================>........] - ETA: 0s - loss: 0.6959 - acc: 0.6188
436/436 [==============================] - 0s 541us/step - loss: 0.6982 - acc: 0.5940
Epoch 49/50

 64/436 [===>..........................] - ETA: 0s - loss: 0.6733 - acc: 0.5469
192/436 [============>.................] - ETA: 0s - loss: 0.6759 - acc: 0.5521
320/436 [=====================>........] - ETA: 0s - loss: 0.6857 - acc: 0.5500
436/436 [==============================] - 0s 533us/step - loss: 0.6887 - acc: 0.5505
Epoch 50/50

 64/436 [===>..........................] - ETA: 0s - loss: 0.7165 - acc: 0.5312
192/436 [============>.................] - ETA: 0s - loss: 0.7254 - acc: 0.5365
320/436 [=====================>........] - ETA: 0s - loss: 0.7021 - acc: 0.5656
436/436 [==============================] - 0s 563us/step - loss: 0.7022 - acc: 0.5528

 64/217 [=======>......................] - ETA: 0s
217/217 [==============================] - 0s 746us/step

 64/436 [===>..........................] - ETA: 0s
256/436 [================>.............] - ETA: 0s
436/436 [==============================] - 0s 285us/step
Killing tensorboard...
Done!
