thtools.__init__.py > running xstream path fixes
Epoch 1/50

 64/435 [===>..........................] - ETA: 21s - loss: 0.9271 - acc: 0.4844
192/435 [============>.................] - ETA: 4s - loss: 1.1024 - acc: 0.5104 
320/435 [=====================>........] - ETA: 1s - loss: 1.1080 - acc: 0.5219
435/435 [==============================] - 4s 9ms/step - loss: 1.0505 - acc: 0.5195
Epoch 2/50

 64/435 [===>..........................] - ETA: 0s - loss: 1.0460 - acc: 0.4375
192/435 [============>.................] - ETA: 0s - loss: 1.0427 - acc: 0.4635
320/435 [=====================>........] - ETA: 0s - loss: 1.0034 - acc: 0.4781
435/435 [==============================] - 0s 525us/step - loss: 0.9748 - acc: 0.4989
Epoch 3/50

 64/435 [===>..........................] - ETA: 0s - loss: 0.8609 - acc: 0.5156
192/435 [============>.................] - ETA: 0s - loss: 0.8604 - acc: 0.6042
320/435 [=====================>........] - ETA: 0s - loss: 0.9091 - acc: 0.5687
435/435 [==============================] - 0s 533us/step - loss: 0.9145 - acc: 0.5724
Epoch 4/50

 64/435 [===>..........................] - ETA: 0s - loss: 0.8693 - acc: 0.4844
192/435 [============>.................] - ETA: 0s - loss: 1.0094 - acc: 0.4531
320/435 [=====================>........] - ETA: 0s - loss: 1.0008 - acc: 0.4688
435/435 [==============================] - 0s 528us/step - loss: 1.0040 - acc: 0.4920
Epoch 5/50

 64/435 [===>..........................] - ETA: 0s - loss: 0.8762 - acc: 0.6406
192/435 [============>.................] - ETA: 0s - loss: 0.9022 - acc: 0.5781
320/435 [=====================>........] - ETA: 0s - loss: 0.9339 - acc: 0.5250
435/435 [==============================] - 0s 534us/step - loss: 0.9492 - acc: 0.5126
Epoch 6/50

 64/435 [===>..........................] - ETA: 0s - loss: 0.9976 - acc: 0.5625
192/435 [============>.................] - ETA: 0s - loss: 0.9605 - acc: 0.5365
320/435 [=====================>........] - ETA: 0s - loss: 0.9784 - acc: 0.4969
435/435 [==============================] - 0s 548us/step - loss: 0.9488 - acc: 0.5172
Epoch 7/50

 64/435 [===>..........................] - ETA: 0s - loss: 1.1016 - acc: 0.4531
192/435 [============>.................] - ETA: 0s - loss: 0.9797 - acc: 0.4792
320/435 [=====================>........] - ETA: 0s - loss: 0.9985 - acc: 0.4844
435/435 [==============================] - 0s 559us/step - loss: 0.9708 - acc: 0.4897
Epoch 8/50

 64/435 [===>..........................] - ETA: 0s - loss: 0.9797 - acc: 0.5312
192/435 [============>.................] - ETA: 0s - loss: 0.9371 - acc: 0.5000
320/435 [=====================>........] - ETA: 0s - loss: 0.9547 - acc: 0.4750
435/435 [==============================] - 0s 575us/step - loss: 0.9066 - acc: 0.5103
Epoch 9/50

 64/435 [===>..........................] - ETA: 0s - loss: 0.9117 - acc: 0.5156
192/435 [============>.................] - ETA: 0s - loss: 1.0028 - acc: 0.4844
320/435 [=====================>........] - ETA: 0s - loss: 0.9747 - acc: 0.4906
435/435 [==============================] - 0s 552us/step - loss: 0.9407 - acc: 0.5103
Epoch 10/50

 64/435 [===>..........................] - ETA: 0s - loss: 0.9194 - acc: 0.4844
192/435 [============>.................] - ETA: 0s - loss: 0.8739 - acc: 0.5156
320/435 [=====================>........] - ETA: 0s - loss: 0.9038 - acc: 0.5094
435/435 [==============================] - 0s 519us/step - loss: 0.9217 - acc: 0.4943
Epoch 11/50

 64/435 [===>..........................] - ETA: 0s - loss: 0.6980 - acc: 0.5781
192/435 [============>.................] - ETA: 0s - loss: 0.7341 - acc: 0.5833
320/435 [=====================>........] - ETA: 0s - loss: 0.7839 - acc: 0.5687
435/435 [==============================] - 0s 514us/step - loss: 0.8038 - acc: 0.5471
Epoch 12/50

 64/435 [===>..........................] - ETA: 0s - loss: 0.9186 - acc: 0.5938
192/435 [============>.................] - ETA: 0s - loss: 0.8635 - acc: 0.5365
320/435 [=====================>........] - ETA: 0s - loss: 0.8671 - acc: 0.5125
435/435 [==============================] - 0s 517us/step - loss: 0.8883 - acc: 0.4989
Epoch 13/50

 64/435 [===>..........................] - ETA: 0s - loss: 0.9537 - acc: 0.5469
192/435 [============>.................] - ETA: 0s - loss: 0.9264 - acc: 0.5156
320/435 [=====================>........] - ETA: 0s - loss: 0.9105 - acc: 0.5031
435/435 [==============================] - 0s 540us/step - loss: 0.8694 - acc: 0.5172
Epoch 14/50

 64/435 [===>..........................] - ETA: 0s - loss: 0.9095 - acc: 0.4375
192/435 [============>.................] - ETA: 0s - loss: 0.8933 - acc: 0.4896
320/435 [=====================>........] - ETA: 0s - loss: 0.8709 - acc: 0.5156
435/435 [==============================] - 0s 571us/step - loss: 0.8776 - acc: 0.5218
Epoch 15/50

 64/435 [===>..........................] - ETA: 0s - loss: 0.7697 - acc: 0.5312
192/435 [============>.................] - ETA: 0s - loss: 0.8101 - acc: 0.5365
320/435 [=====================>........] - ETA: 0s - loss: 0.7828 - acc: 0.5500
435/435 [==============================] - 0s 540us/step - loss: 0.8100 - acc: 0.5264
Epoch 16/50

 64/435 [===>..........................] - ETA: 0s - loss: 0.8193 - acc: 0.5156
192/435 [============>.................] - ETA: 0s - loss: 0.7937 - acc: 0.5417
320/435 [=====================>........] - ETA: 0s - loss: 0.8316 - acc: 0.5281
435/435 [==============================] - 0s 550us/step - loss: 0.8409 - acc: 0.5195
Epoch 17/50

 64/435 [===>..........................] - ETA: 0s - loss: 0.8097 - acc: 0.5156
192/435 [============>.................] - ETA: 0s - loss: 0.8647 - acc: 0.4948
320/435 [=====================>........] - ETA: 0s - loss: 0.8751 - acc: 0.5094
435/435 [==============================] - 0s 574us/step - loss: 0.8474 - acc: 0.5287
Epoch 18/50

 64/435 [===>..........................] - ETA: 0s - loss: 0.7931 - acc: 0.5469
192/435 [============>.................] - ETA: 0s - loss: 0.8364 - acc: 0.5625
320/435 [=====================>........] - ETA: 0s - loss: 0.8475 - acc: 0.5281
435/435 [==============================] - 0s 606us/step - loss: 0.8195 - acc: 0.5402
Epoch 19/50

 64/435 [===>..........................] - ETA: 0s - loss: 0.7487 - acc: 0.5781
192/435 [============>.................] - ETA: 0s - loss: 0.8143 - acc: 0.5365
320/435 [=====================>........] - ETA: 0s - loss: 0.8570 - acc: 0.5062
435/435 [==============================] - 0s 571us/step - loss: 0.8266 - acc: 0.5080
Epoch 20/50

 64/435 [===>..........................] - ETA: 0s - loss: 0.6673 - acc: 0.5469
192/435 [============>.................] - ETA: 0s - loss: 0.7364 - acc: 0.5625
320/435 [=====================>........] - ETA: 0s - loss: 0.7663 - acc: 0.5563
435/435 [==============================] - 0s 543us/step - loss: 0.7810 - acc: 0.5540
Epoch 21/50

 64/435 [===>..........................] - ETA: 0s - loss: 0.8406 - acc: 0.5625
192/435 [============>.................] - ETA: 0s - loss: 0.8269 - acc: 0.5104
320/435 [=====================>........] - ETA: 0s - loss: 0.8111 - acc: 0.5125
435/435 [==============================] - 0s 565us/step - loss: 0.8016 - acc: 0.5149
Epoch 22/50

 64/435 [===>..........................] - ETA: 0s - loss: 0.8415 - acc: 0.4531
192/435 [============>.................] - ETA: 0s - loss: 0.8740 - acc: 0.4583
320/435 [=====================>........] - ETA: 0s - loss: 0.8431 - acc: 0.4750
435/435 [==============================] - 0s 589us/step - loss: 0.8039 - acc: 0.5057
Epoch 23/50

 64/435 [===>..........................] - ETA: 0s - loss: 0.6542 - acc: 0.6719
192/435 [============>.................] - ETA: 0s - loss: 0.7146 - acc: 0.6146
320/435 [=====================>........] - ETA: 0s - loss: 0.7192 - acc: 0.6000
435/435 [==============================] - 0s 543us/step - loss: 0.7332 - acc: 0.5770
Epoch 24/50

 64/435 [===>..........................] - ETA: 0s - loss: 0.8257 - acc: 0.5156
192/435 [============>.................] - ETA: 0s - loss: 0.8374 - acc: 0.5260
320/435 [=====================>........] - ETA: 0s - loss: 0.7685 - acc: 0.5531
435/435 [==============================] - 0s 534us/step - loss: 0.7544 - acc: 0.5632
Epoch 25/50

 64/435 [===>..........................] - ETA: 0s - loss: 0.7825 - acc: 0.5312
192/435 [============>.................] - ETA: 0s - loss: 0.7253 - acc: 0.5677
320/435 [=====================>........] - ETA: 0s - loss: 0.7694 - acc: 0.5375
435/435 [==============================] - 0s 539us/step - loss: 0.7592 - acc: 0.5448
Epoch 26/50

 64/435 [===>..........................] - ETA: 0s - loss: 0.8390 - acc: 0.5625
192/435 [============>.................] - ETA: 0s - loss: 0.7466 - acc: 0.5833
320/435 [=====================>........] - ETA: 0s - loss: 0.7662 - acc: 0.5469
435/435 [==============================] - 0s 538us/step - loss: 0.7805 - acc: 0.5517
Epoch 27/50

 64/435 [===>..........................] - ETA: 0s - loss: 0.6590 - acc: 0.5312
192/435 [============>.................] - ETA: 0s - loss: 0.7377 - acc: 0.5365
320/435 [=====================>........] - ETA: 0s - loss: 0.7396 - acc: 0.5375
435/435 [==============================] - 0s 532us/step - loss: 0.7474 - acc: 0.5540
Epoch 28/50

 64/435 [===>..........................] - ETA: 0s - loss: 0.7535 - acc: 0.5625
192/435 [============>.................] - ETA: 0s - loss: 0.7858 - acc: 0.5312
320/435 [=====================>........] - ETA: 0s - loss: 0.7416 - acc: 0.5719
435/435 [==============================] - 0s 528us/step - loss: 0.7182 - acc: 0.5839
Epoch 29/50

 64/435 [===>..........................] - ETA: 0s - loss: 0.7712 - acc: 0.5938
192/435 [============>.................] - ETA: 0s - loss: 0.7192 - acc: 0.5990
320/435 [=====================>........] - ETA: 0s - loss: 0.7283 - acc: 0.5844
435/435 [==============================] - 0s 533us/step - loss: 0.7288 - acc: 0.5632
Epoch 30/50

 64/435 [===>..........................] - ETA: 0s - loss: 0.7597 - acc: 0.6406
192/435 [============>.................] - ETA: 0s - loss: 0.7401 - acc: 0.5625
320/435 [=====================>........] - ETA: 0s - loss: 0.7050 - acc: 0.5906
435/435 [==============================] - 0s 530us/step - loss: 0.6863 - acc: 0.6000
Epoch 31/50

 64/435 [===>..........................] - ETA: 0s - loss: 0.7162 - acc: 0.5938
192/435 [============>.................] - ETA: 0s - loss: 0.6877 - acc: 0.6042
320/435 [=====================>........] - ETA: 0s - loss: 0.7012 - acc: 0.5875
435/435 [==============================] - 0s 535us/step - loss: 0.7017 - acc: 0.5816
Epoch 32/50

 64/435 [===>..........................] - ETA: 0s - loss: 0.7480 - acc: 0.5781
192/435 [============>.................] - ETA: 0s - loss: 0.6645 - acc: 0.6146
320/435 [=====================>........] - ETA: 0s - loss: 0.6587 - acc: 0.6188
435/435 [==============================] - 0s 534us/step - loss: 0.6476 - acc: 0.6253
Epoch 33/50

 64/435 [===>..........................] - ETA: 0s - loss: 0.6547 - acc: 0.6719
192/435 [============>.................] - ETA: 0s - loss: 0.6878 - acc: 0.6146
320/435 [=====================>........] - ETA: 0s - loss: 0.6814 - acc: 0.6219
435/435 [==============================] - 0s 540us/step - loss: 0.6942 - acc: 0.6046
Epoch 34/50

 64/435 [===>..........................] - ETA: 0s - loss: 0.7193 - acc: 0.5781
192/435 [============>.................] - ETA: 0s - loss: 0.7001 - acc: 0.6146
320/435 [=====================>........] - ETA: 0s - loss: 0.6893 - acc: 0.5938
435/435 [==============================] - 0s 559us/step - loss: 0.6840 - acc: 0.5908
Epoch 35/50

 64/435 [===>..........................] - ETA: 0s - loss: 0.7291 - acc: 0.5469
192/435 [============>.................] - ETA: 0s - loss: 0.6882 - acc: 0.5885
320/435 [=====================>........] - ETA: 0s - loss: 0.6740 - acc: 0.6094
435/435 [==============================] - 0s 552us/step - loss: 0.6572 - acc: 0.6253
Epoch 36/50

 64/435 [===>..........................] - ETA: 0s - loss: 0.7137 - acc: 0.5156
192/435 [============>.................] - ETA: 0s - loss: 0.6633 - acc: 0.5938
320/435 [=====================>........] - ETA: 0s - loss: 0.6821 - acc: 0.5875
435/435 [==============================] - 0s 536us/step - loss: 0.6797 - acc: 0.6023
Epoch 37/50

 64/435 [===>..........................] - ETA: 0s - loss: 0.5767 - acc: 0.7031
192/435 [============>.................] - ETA: 0s - loss: 0.6188 - acc: 0.6562
320/435 [=====================>........] - ETA: 0s - loss: 0.6371 - acc: 0.6500
435/435 [==============================] - 0s 552us/step - loss: 0.6199 - acc: 0.6644
Epoch 38/50

 64/435 [===>..........................] - ETA: 0s - loss: 0.6628 - acc: 0.6406
192/435 [============>.................] - ETA: 0s - loss: 0.6846 - acc: 0.5990
320/435 [=====================>........] - ETA: 0s - loss: 0.6530 - acc: 0.6375
435/435 [==============================] - 0s 554us/step - loss: 0.6386 - acc: 0.6483
Epoch 39/50

 64/435 [===>..........................] - ETA: 0s - loss: 0.6250 - acc: 0.7031
192/435 [============>.................] - ETA: 0s - loss: 0.5987 - acc: 0.6771
320/435 [=====================>........] - ETA: 0s - loss: 0.6071 - acc: 0.6875
435/435 [==============================] - 0s 539us/step - loss: 0.6090 - acc: 0.6805
Epoch 40/50

 64/435 [===>..........................] - ETA: 0s - loss: 0.6173 - acc: 0.6562
192/435 [============>.................] - ETA: 0s - loss: 0.6055 - acc: 0.6667
320/435 [=====================>........] - ETA: 0s - loss: 0.6130 - acc: 0.6625
435/435 [==============================] - 0s 539us/step - loss: 0.6102 - acc: 0.6759
Epoch 41/50

 64/435 [===>..........................] - ETA: 0s - loss: 0.6534 - acc: 0.6094
192/435 [============>.................] - ETA: 0s - loss: 0.5919 - acc: 0.6771
320/435 [=====================>........] - ETA: 0s - loss: 0.6083 - acc: 0.6750
435/435 [==============================] - 0s 538us/step - loss: 0.5936 - acc: 0.6782
Epoch 42/50

 64/435 [===>..........................] - ETA: 0s - loss: 0.5028 - acc: 0.7969
192/435 [============>.................] - ETA: 0s - loss: 0.5716 - acc: 0.7292
320/435 [=====================>........] - ETA: 0s - loss: 0.5806 - acc: 0.7000
435/435 [==============================] - 0s 553us/step - loss: 0.5770 - acc: 0.7011
Epoch 43/50

 64/435 [===>..........................] - ETA: 0s - loss: 0.5935 - acc: 0.6562
192/435 [============>.................] - ETA: 0s - loss: 0.5379 - acc: 0.7396
320/435 [=====================>........] - ETA: 0s - loss: 0.5218 - acc: 0.7719
435/435 [==============================] - 0s 552us/step - loss: 0.5358 - acc: 0.7609
Epoch 44/50

 64/435 [===>..........................] - ETA: 0s - loss: 0.4991 - acc: 0.7500
192/435 [============>.................] - ETA: 0s - loss: 0.5649 - acc: 0.7240
320/435 [=====================>........] - ETA: 0s - loss: 0.5592 - acc: 0.6969
435/435 [==============================] - 0s 541us/step - loss: 0.5531 - acc: 0.6966
Epoch 45/50

 64/435 [===>..........................] - ETA: 0s - loss: 0.5691 - acc: 0.7500
192/435 [============>.................] - ETA: 0s - loss: 0.5382 - acc: 0.7396
320/435 [=====================>........] - ETA: 0s - loss: 0.5403 - acc: 0.7375
435/435 [==============================] - 0s 542us/step - loss: 0.5439 - acc: 0.7333
Epoch 46/50

 64/435 [===>..........................] - ETA: 0s - loss: 0.5202 - acc: 0.7500
192/435 [============>.................] - ETA: 0s - loss: 0.5275 - acc: 0.7500
320/435 [=====================>........] - ETA: 0s - loss: 0.5435 - acc: 0.7406
435/435 [==============================] - 0s 541us/step - loss: 0.5465 - acc: 0.7425
Epoch 47/50

 64/435 [===>..........................] - ETA: 0s - loss: 0.5572 - acc: 0.7344
192/435 [============>.................] - ETA: 0s - loss: 0.5171 - acc: 0.7760
320/435 [=====================>........] - ETA: 0s - loss: 0.4982 - acc: 0.7781
435/435 [==============================] - 0s 543us/step - loss: 0.5183 - acc: 0.7540
Epoch 48/50

 64/435 [===>..........................] - ETA: 0s - loss: 0.5130 - acc: 0.7344
192/435 [============>.................] - ETA: 0s - loss: 0.5098 - acc: 0.7188
320/435 [=====================>........] - ETA: 0s - loss: 0.5185 - acc: 0.7312
435/435 [==============================] - 0s 536us/step - loss: 0.5202 - acc: 0.7310
Epoch 49/50

 64/435 [===>..........................] - ETA: 0s - loss: 0.5053 - acc: 0.7656
192/435 [============>.................] - ETA: 0s - loss: 0.5084 - acc: 0.7552
320/435 [=====================>........] - ETA: 0s - loss: 0.4837 - acc: 0.7875
435/435 [==============================] - 0s 550us/step - loss: 0.4653 - acc: 0.7908
Epoch 50/50

 64/435 [===>..........................] - ETA: 0s - loss: 0.4417 - acc: 0.8125
192/435 [============>.................] - ETA: 0s - loss: 0.4265 - acc: 0.8125
320/435 [=====================>........] - ETA: 0s - loss: 0.4599 - acc: 0.7844
435/435 [==============================] - 0s 550us/step - loss: 0.4490 - acc: 0.7977

 64/218 [=======>......................] - ETA: 0s
218/218 [==============================] - 0s 762us/step

 64/435 [===>..........................] - ETA: 0s
256/435 [================>.............] - ETA: 0s
435/435 [==============================] - 0s 278us/step
Killing tensorboard...
Done!
