thtools.__init__.py > running xstream path fixes
Epoch 1/50

 64/653 [=>............................] - ETA: 35s - loss: 0.9589 - acc: 0.4844
192/653 [=======>......................] - ETA: 9s - loss: 1.0081 - acc: 0.4844 
320/653 [=============>................] - ETA: 4s - loss: 1.0018 - acc: 0.4813
448/653 [===================>..........] - ETA: 1s - loss: 0.9970 - acc: 0.4799
576/653 [=========================>....] - ETA: 0s - loss: 1.0129 - acc: 0.4774
653/653 [==============================] - 4s 6ms/step - loss: 1.0226 - acc: 0.4732
Epoch 2/50

 64/653 [=>............................] - ETA: 0s - loss: 1.1214 - acc: 0.3906
192/653 [=======>......................] - ETA: 0s - loss: 1.0174 - acc: 0.4688
320/653 [=============>................] - ETA: 0s - loss: 1.0452 - acc: 0.4719
448/653 [===================>..........] - ETA: 0s - loss: 0.9932 - acc: 0.4911
576/653 [=========================>....] - ETA: 0s - loss: 0.9413 - acc: 0.5156
653/653 [==============================] - 0s 492us/step - loss: 0.9445 - acc: 0.5115
Epoch 3/50

 64/653 [=>............................] - ETA: 0s - loss: 0.8265 - acc: 0.4219
192/653 [=======>......................] - ETA: 0s - loss: 0.8860 - acc: 0.4948
320/653 [=============>................] - ETA: 0s - loss: 0.9400 - acc: 0.4844
448/653 [===================>..........] - ETA: 0s - loss: 0.9442 - acc: 0.4933
576/653 [=========================>....] - ETA: 0s - loss: 0.9359 - acc: 0.4913
653/653 [==============================] - 0s 527us/step - loss: 0.9134 - acc: 0.5069
Epoch 4/50

 64/653 [=>............................] - ETA: 0s - loss: 0.8212 - acc: 0.5469
192/653 [=======>......................] - ETA: 0s - loss: 0.8907 - acc: 0.5000
320/653 [=============>................] - ETA: 0s - loss: 0.9151 - acc: 0.5000
448/653 [===================>..........] - ETA: 0s - loss: 0.8788 - acc: 0.5379
576/653 [=========================>....] - ETA: 0s - loss: 0.8756 - acc: 0.5330
653/653 [==============================] - 0s 517us/step - loss: 0.8912 - acc: 0.5161
Epoch 5/50

 64/653 [=>............................] - ETA: 0s - loss: 0.8130 - acc: 0.5156
192/653 [=======>......................] - ETA: 0s - loss: 0.8568 - acc: 0.5312
320/653 [=============>................] - ETA: 0s - loss: 0.9351 - acc: 0.4906
448/653 [===================>..........] - ETA: 0s - loss: 0.9137 - acc: 0.5067
576/653 [=========================>....] - ETA: 0s - loss: 0.8807 - acc: 0.5243
653/653 [==============================] - 0s 520us/step - loss: 0.8825 - acc: 0.5207
Epoch 6/50

 64/653 [=>............................] - ETA: 0s - loss: 0.6125 - acc: 0.6875
192/653 [=======>......................] - ETA: 0s - loss: 0.8333 - acc: 0.5521
320/653 [=============>................] - ETA: 0s - loss: 0.8482 - acc: 0.5594
448/653 [===================>..........] - ETA: 0s - loss: 0.8544 - acc: 0.5558
576/653 [=========================>....] - ETA: 0s - loss: 0.8380 - acc: 0.5608
653/653 [==============================] - 0s 521us/step - loss: 0.8315 - acc: 0.5666
Epoch 7/50

 64/653 [=>............................] - ETA: 0s - loss: 0.8071 - acc: 0.5156
192/653 [=======>......................] - ETA: 0s - loss: 0.9261 - acc: 0.4635
320/653 [=============>................] - ETA: 0s - loss: 0.9008 - acc: 0.4938
448/653 [===================>..........] - ETA: 0s - loss: 0.8773 - acc: 0.5112
576/653 [=========================>....] - ETA: 0s - loss: 0.8688 - acc: 0.5052
653/653 [==============================] - 0s 511us/step - loss: 0.8683 - acc: 0.5115
Epoch 8/50

 64/653 [=>............................] - ETA: 0s - loss: 0.9952 - acc: 0.4531
192/653 [=======>......................] - ETA: 0s - loss: 0.8039 - acc: 0.5365
320/653 [=============>................] - ETA: 0s - loss: 0.8076 - acc: 0.5563
448/653 [===================>..........] - ETA: 0s - loss: 0.8354 - acc: 0.5379
576/653 [=========================>....] - ETA: 0s - loss: 0.8002 - acc: 0.5451
653/653 [==============================] - 0s 509us/step - loss: 0.8174 - acc: 0.5391
Epoch 9/50

 64/653 [=>............................] - ETA: 0s - loss: 0.9087 - acc: 0.4688
192/653 [=======>......................] - ETA: 0s - loss: 0.9035 - acc: 0.5260
320/653 [=============>................] - ETA: 0s - loss: 0.8735 - acc: 0.5406
448/653 [===================>..........] - ETA: 0s - loss: 0.8399 - acc: 0.5446
576/653 [=========================>....] - ETA: 0s - loss: 0.8349 - acc: 0.5434
653/653 [==============================] - 0s 520us/step - loss: 0.8274 - acc: 0.5436
Epoch 10/50

 64/653 [=>............................] - ETA: 0s - loss: 0.8944 - acc: 0.4375
192/653 [=======>......................] - ETA: 0s - loss: 0.7968 - acc: 0.5104
320/653 [=============>................] - ETA: 0s - loss: 0.7544 - acc: 0.5375
448/653 [===================>..........] - ETA: 0s - loss: 0.7498 - acc: 0.5491
576/653 [=========================>....] - ETA: 0s - loss: 0.7610 - acc: 0.5434
653/653 [==============================] - 0s 525us/step - loss: 0.7648 - acc: 0.5436
Epoch 11/50

 64/653 [=>............................] - ETA: 0s - loss: 0.8365 - acc: 0.5156
192/653 [=======>......................] - ETA: 0s - loss: 0.8379 - acc: 0.5156
320/653 [=============>................] - ETA: 0s - loss: 0.8173 - acc: 0.5437
448/653 [===================>..........] - ETA: 0s - loss: 0.8069 - acc: 0.5603
576/653 [=========================>....] - ETA: 0s - loss: 0.8015 - acc: 0.5590
653/653 [==============================] - 0s 517us/step - loss: 0.7964 - acc: 0.5620
Epoch 12/50

 64/653 [=>............................] - ETA: 0s - loss: 0.8024 - acc: 0.6562
192/653 [=======>......................] - ETA: 0s - loss: 0.7796 - acc: 0.5885
320/653 [=============>................] - ETA: 0s - loss: 0.7824 - acc: 0.5563
448/653 [===================>..........] - ETA: 0s - loss: 0.7690 - acc: 0.5625
576/653 [=========================>....] - ETA: 0s - loss: 0.7648 - acc: 0.5694
653/653 [==============================] - 0s 513us/step - loss: 0.7648 - acc: 0.5651
Epoch 13/50

 64/653 [=>............................] - ETA: 0s - loss: 0.7216 - acc: 0.5312
192/653 [=======>......................] - ETA: 0s - loss: 0.7629 - acc: 0.5573
320/653 [=============>................] - ETA: 0s - loss: 0.7438 - acc: 0.5719
448/653 [===================>..........] - ETA: 0s - loss: 0.7386 - acc: 0.5647
576/653 [=========================>....] - ETA: 0s - loss: 0.7459 - acc: 0.5642
653/653 [==============================] - 0s 513us/step - loss: 0.7525 - acc: 0.5574
Epoch 14/50

 64/653 [=>............................] - ETA: 0s - loss: 0.7672 - acc: 0.5938
192/653 [=======>......................] - ETA: 0s - loss: 0.7568 - acc: 0.6042
320/653 [=============>................] - ETA: 0s - loss: 0.7856 - acc: 0.5594
448/653 [===================>..........] - ETA: 0s - loss: 0.7894 - acc: 0.5469
576/653 [=========================>....] - ETA: 0s - loss: 0.7810 - acc: 0.5469
653/653 [==============================] - 0s 513us/step - loss: 0.7729 - acc: 0.5528
Epoch 15/50

 64/653 [=>............................] - ETA: 0s - loss: 0.7242 - acc: 0.5781
192/653 [=======>......................] - ETA: 0s - loss: 0.7755 - acc: 0.5521
320/653 [=============>................] - ETA: 0s - loss: 0.7738 - acc: 0.5563
448/653 [===================>..........] - ETA: 0s - loss: 0.7471 - acc: 0.5737
576/653 [=========================>....] - ETA: 0s - loss: 0.7411 - acc: 0.5799
653/653 [==============================] - 0s 511us/step - loss: 0.7382 - acc: 0.5835
Epoch 16/50

 64/653 [=>............................] - ETA: 0s - loss: 0.7605 - acc: 0.5625
192/653 [=======>......................] - ETA: 0s - loss: 0.7496 - acc: 0.5781
320/653 [=============>................] - ETA: 0s - loss: 0.7600 - acc: 0.5531
448/653 [===================>..........] - ETA: 0s - loss: 0.7553 - acc: 0.5737
576/653 [=========================>....] - ETA: 0s - loss: 0.7529 - acc: 0.5590
653/653 [==============================] - 0s 523us/step - loss: 0.7536 - acc: 0.5559
Epoch 17/50

 64/653 [=>............................] - ETA: 0s - loss: 0.7771 - acc: 0.5000
192/653 [=======>......................] - ETA: 0s - loss: 0.7473 - acc: 0.5312
320/653 [=============>................] - ETA: 0s - loss: 0.7416 - acc: 0.5469
448/653 [===================>..........] - ETA: 0s - loss: 0.7366 - acc: 0.5670
576/653 [=========================>....] - ETA: 0s - loss: 0.7313 - acc: 0.5590
653/653 [==============================] - 0s 513us/step - loss: 0.7247 - acc: 0.5681
Epoch 18/50

 64/653 [=>............................] - ETA: 0s - loss: 0.7923 - acc: 0.4062
192/653 [=======>......................] - ETA: 0s - loss: 0.7244 - acc: 0.5312
320/653 [=============>................] - ETA: 0s - loss: 0.7498 - acc: 0.5281
448/653 [===================>..........] - ETA: 0s - loss: 0.7602 - acc: 0.5223
576/653 [=========================>....] - ETA: 0s - loss: 0.7513 - acc: 0.5260
653/653 [==============================] - 0s 503us/step - loss: 0.7614 - acc: 0.5237
Epoch 19/50

 64/653 [=>............................] - ETA: 0s - loss: 0.7636 - acc: 0.4531
192/653 [=======>......................] - ETA: 0s - loss: 0.7494 - acc: 0.4896
320/653 [=============>................] - ETA: 0s - loss: 0.7157 - acc: 0.5375
448/653 [===================>..........] - ETA: 0s - loss: 0.7214 - acc: 0.5446
576/653 [=========================>....] - ETA: 0s - loss: 0.7217 - acc: 0.5469
653/653 [==============================] - 0s 584us/step - loss: 0.7221 - acc: 0.5467
Epoch 20/50

 64/653 [=>............................] - ETA: 0s - loss: 0.6983 - acc: 0.5000
192/653 [=======>......................] - ETA: 0s - loss: 0.6793 - acc: 0.5885
320/653 [=============>................] - ETA: 0s - loss: 0.6781 - acc: 0.5750
448/653 [===================>..........] - ETA: 0s - loss: 0.6846 - acc: 0.5893
576/653 [=========================>....] - ETA: 0s - loss: 0.6788 - acc: 0.5903
653/653 [==============================] - 0s 523us/step - loss: 0.6812 - acc: 0.5942
Epoch 21/50

 64/653 [=>............................] - ETA: 0s - loss: 0.6154 - acc: 0.6562
192/653 [=======>......................] - ETA: 0s - loss: 0.6534 - acc: 0.6562
320/653 [=============>................] - ETA: 0s - loss: 0.6607 - acc: 0.6125
448/653 [===================>..........] - ETA: 0s - loss: 0.6640 - acc: 0.6138
576/653 [=========================>....] - ETA: 0s - loss: 0.6776 - acc: 0.5990
653/653 [==============================] - 0s 508us/step - loss: 0.6743 - acc: 0.6080
Epoch 22/50

 64/653 [=>............................] - ETA: 0s - loss: 0.6558 - acc: 0.5312
192/653 [=======>......................] - ETA: 0s - loss: 0.6334 - acc: 0.6146
320/653 [=============>................] - ETA: 0s - loss: 0.6328 - acc: 0.6281
448/653 [===================>..........] - ETA: 0s - loss: 0.6376 - acc: 0.6161
576/653 [=========================>....] - ETA: 0s - loss: 0.6373 - acc: 0.6181
653/653 [==============================] - 0s 498us/step - loss: 0.6367 - acc: 0.6156
Epoch 23/50

 64/653 [=>............................] - ETA: 0s - loss: 0.6299 - acc: 0.5625
192/653 [=======>......................] - ETA: 0s - loss: 0.6756 - acc: 0.5729
320/653 [=============>................] - ETA: 0s - loss: 0.6960 - acc: 0.5906
448/653 [===================>..........] - ETA: 0s - loss: 0.6860 - acc: 0.6183
576/653 [=========================>....] - ETA: 0s - loss: 0.6943 - acc: 0.6076
653/653 [==============================] - 0s 504us/step - loss: 0.7019 - acc: 0.5988
Epoch 24/50

 64/653 [=>............................] - ETA: 0s - loss: 0.6441 - acc: 0.6875
192/653 [=======>......................] - ETA: 0s - loss: 0.7066 - acc: 0.5938
320/653 [=============>................] - ETA: 0s - loss: 0.7413 - acc: 0.5469
448/653 [===================>..........] - ETA: 0s - loss: 0.7376 - acc: 0.5402
576/653 [=========================>....] - ETA: 0s - loss: 0.7207 - acc: 0.5590
653/653 [==============================] - 0s 509us/step - loss: 0.7041 - acc: 0.5697
Epoch 25/50

 64/653 [=>............................] - ETA: 0s - loss: 0.6661 - acc: 0.5938
192/653 [=======>......................] - ETA: 0s - loss: 0.6855 - acc: 0.5729
320/653 [=============>................] - ETA: 0s - loss: 0.6987 - acc: 0.5687
448/653 [===================>..........] - ETA: 0s - loss: 0.7031 - acc: 0.5625
576/653 [=========================>....] - ETA: 0s - loss: 0.6979 - acc: 0.5712
653/653 [==============================] - 0s 505us/step - loss: 0.6947 - acc: 0.5758
Epoch 26/50

 64/653 [=>............................] - ETA: 0s - loss: 0.6307 - acc: 0.5938
192/653 [=======>......................] - ETA: 0s - loss: 0.6319 - acc: 0.6719
320/653 [=============>................] - ETA: 0s - loss: 0.6526 - acc: 0.6438
448/653 [===================>..........] - ETA: 0s - loss: 0.6678 - acc: 0.6250
576/653 [=========================>....] - ETA: 0s - loss: 0.6617 - acc: 0.6285
653/653 [==============================] - 0s 496us/step - loss: 0.6637 - acc: 0.6172
Epoch 27/50

 64/653 [=>............................] - ETA: 0s - loss: 0.6434 - acc: 0.6094
192/653 [=======>......................] - ETA: 0s - loss: 0.6267 - acc: 0.6615
320/653 [=============>................] - ETA: 0s - loss: 0.6538 - acc: 0.6281
448/653 [===================>..........] - ETA: 0s - loss: 0.6532 - acc: 0.6183
576/653 [=========================>....] - ETA: 0s - loss: 0.6614 - acc: 0.6146
653/653 [==============================] - 0s 503us/step - loss: 0.6610 - acc: 0.6049
Epoch 28/50

 64/653 [=>............................] - ETA: 0s - loss: 0.5663 - acc: 0.7500
192/653 [=======>......................] - ETA: 0s - loss: 0.6133 - acc: 0.6458
320/653 [=============>................] - ETA: 0s - loss: 0.6202 - acc: 0.6375
448/653 [===================>..........] - ETA: 0s - loss: 0.6259 - acc: 0.6317
576/653 [=========================>....] - ETA: 0s - loss: 0.6202 - acc: 0.6424
653/653 [==============================] - 0s 504us/step - loss: 0.6299 - acc: 0.6309
Epoch 29/50

 64/653 [=>............................] - ETA: 0s - loss: 0.5766 - acc: 0.6719
192/653 [=======>......................] - ETA: 0s - loss: 0.6122 - acc: 0.6562
320/653 [=============>................] - ETA: 0s - loss: 0.5995 - acc: 0.6656
448/653 [===================>..........] - ETA: 0s - loss: 0.6172 - acc: 0.6585
576/653 [=========================>....] - ETA: 0s - loss: 0.6112 - acc: 0.6684
653/653 [==============================] - 0s 509us/step - loss: 0.6106 - acc: 0.6708
Epoch 30/50

 64/653 [=>............................] - ETA: 0s - loss: 0.5511 - acc: 0.6875
192/653 [=======>......................] - ETA: 0s - loss: 0.5759 - acc: 0.7188
320/653 [=============>................] - ETA: 0s - loss: 0.5979 - acc: 0.6906
448/653 [===================>..........] - ETA: 0s - loss: 0.6110 - acc: 0.6763
576/653 [=========================>....] - ETA: 0s - loss: 0.6109 - acc: 0.6701
653/653 [==============================] - 0s 501us/step - loss: 0.6088 - acc: 0.6662
Epoch 31/50

 64/653 [=>............................] - ETA: 0s - loss: 0.5643 - acc: 0.6875
192/653 [=======>......................] - ETA: 0s - loss: 0.6094 - acc: 0.6510
320/653 [=============>................] - ETA: 0s - loss: 0.6279 - acc: 0.6406
448/653 [===================>..........] - ETA: 0s - loss: 0.6405 - acc: 0.6384
576/653 [=========================>....] - ETA: 0s - loss: 0.6324 - acc: 0.6441
653/653 [==============================] - 0s 493us/step - loss: 0.6365 - acc: 0.6401
Epoch 32/50

 64/653 [=>............................] - ETA: 0s - loss: 0.6507 - acc: 0.5625
192/653 [=======>......................] - ETA: 0s - loss: 0.6585 - acc: 0.5677
320/653 [=============>................] - ETA: 0s - loss: 0.6383 - acc: 0.6062
448/653 [===================>..........] - ETA: 0s - loss: 0.6312 - acc: 0.6071
576/653 [=========================>....] - ETA: 0s - loss: 0.6296 - acc: 0.6128
653/653 [==============================] - 0s 493us/step - loss: 0.6213 - acc: 0.6263
Epoch 33/50

 64/653 [=>............................] - ETA: 0s - loss: 0.5508 - acc: 0.6719
192/653 [=======>......................] - ETA: 0s - loss: 0.5536 - acc: 0.7135
320/653 [=============>................] - ETA: 0s - loss: 0.5600 - acc: 0.6844
448/653 [===================>..........] - ETA: 0s - loss: 0.5586 - acc: 0.6830
576/653 [=========================>....] - ETA: 0s - loss: 0.5592 - acc: 0.6736
653/653 [==============================] - 0s 516us/step - loss: 0.5655 - acc: 0.6723
Epoch 34/50

 64/653 [=>............................] - ETA: 0s - loss: 0.6225 - acc: 0.6406
192/653 [=======>......................] - ETA: 0s - loss: 0.6110 - acc: 0.6406
320/653 [=============>................] - ETA: 0s - loss: 0.6046 - acc: 0.6469
448/653 [===================>..........] - ETA: 0s - loss: 0.5965 - acc: 0.6562
576/653 [=========================>....] - ETA: 0s - loss: 0.5891 - acc: 0.6753
653/653 [==============================] - 0s 524us/step - loss: 0.5900 - acc: 0.6815
Epoch 35/50

 64/653 [=>............................] - ETA: 0s - loss: 0.5128 - acc: 0.7188
192/653 [=======>......................] - ETA: 0s - loss: 0.5293 - acc: 0.7396
320/653 [=============>................] - ETA: 0s - loss: 0.5777 - acc: 0.7031
448/653 [===================>..........] - ETA: 0s - loss: 0.5725 - acc: 0.7076
576/653 [=========================>....] - ETA: 0s - loss: 0.5734 - acc: 0.7031
653/653 [==============================] - 0s 505us/step - loss: 0.5756 - acc: 0.6983
Epoch 36/50

 64/653 [=>............................] - ETA: 0s - loss: 0.5121 - acc: 0.7500
192/653 [=======>......................] - ETA: 0s - loss: 0.5730 - acc: 0.6875
320/653 [=============>................] - ETA: 0s - loss: 0.5727 - acc: 0.6906
448/653 [===================>..........] - ETA: 0s - loss: 0.5705 - acc: 0.6853
576/653 [=========================>....] - ETA: 0s - loss: 0.5682 - acc: 0.6944
653/653 [==============================] - 0s 500us/step - loss: 0.5673 - acc: 0.6983
Epoch 37/50

 64/653 [=>............................] - ETA: 0s - loss: 0.5780 - acc: 0.7031
192/653 [=======>......................] - ETA: 0s - loss: 0.5637 - acc: 0.6875
320/653 [=============>................] - ETA: 0s - loss: 0.5591 - acc: 0.7031
448/653 [===================>..........] - ETA: 0s - loss: 0.5586 - acc: 0.6987
576/653 [=========================>....] - ETA: 0s - loss: 0.5508 - acc: 0.6962
653/653 [==============================] - 0s 504us/step - loss: 0.5609 - acc: 0.6845
Epoch 38/50

 64/653 [=>............................] - ETA: 0s - loss: 0.5520 - acc: 0.6562
192/653 [=======>......................] - ETA: 0s - loss: 0.5495 - acc: 0.7292
320/653 [=============>................] - ETA: 0s - loss: 0.5368 - acc: 0.7250
448/653 [===================>..........] - ETA: 0s - loss: 0.5160 - acc: 0.7478
576/653 [=========================>....] - ETA: 0s - loss: 0.5118 - acc: 0.7465
653/653 [==============================] - 0s 499us/step - loss: 0.5106 - acc: 0.7489
Epoch 39/50

 64/653 [=>............................] - ETA: 0s - loss: 0.5121 - acc: 0.7656
192/653 [=======>......................] - ETA: 0s - loss: 0.5545 - acc: 0.7031
320/653 [=============>................] - ETA: 0s - loss: 0.5347 - acc: 0.7219
448/653 [===================>..........] - ETA: 0s - loss: 0.5224 - acc: 0.7344
576/653 [=========================>....] - ETA: 0s - loss: 0.5303 - acc: 0.7344
653/653 [==============================] - 0s 509us/step - loss: 0.5324 - acc: 0.7289
Epoch 40/50

 64/653 [=>............................] - ETA: 0s - loss: 0.5389 - acc: 0.7188
192/653 [=======>......................] - ETA: 0s - loss: 0.5249 - acc: 0.7500
320/653 [=============>................] - ETA: 0s - loss: 0.5454 - acc: 0.7406
448/653 [===================>..........] - ETA: 0s - loss: 0.5568 - acc: 0.7165
576/653 [=========================>....] - ETA: 0s - loss: 0.5446 - acc: 0.7309
653/653 [==============================] - 0s 507us/step - loss: 0.5497 - acc: 0.7243
Epoch 41/50

 64/653 [=>............................] - ETA: 0s - loss: 0.5204 - acc: 0.7969
192/653 [=======>......................] - ETA: 0s - loss: 0.5331 - acc: 0.7396
320/653 [=============>................] - ETA: 0s - loss: 0.5032 - acc: 0.7656
448/653 [===================>..........] - ETA: 0s - loss: 0.5163 - acc: 0.7500
576/653 [=========================>....] - ETA: 0s - loss: 0.5244 - acc: 0.7413
653/653 [==============================] - 0s 534us/step - loss: 0.5266 - acc: 0.7443
Epoch 42/50

 64/653 [=>............................] - ETA: 0s - loss: 0.4590 - acc: 0.8281
192/653 [=======>......................] - ETA: 0s - loss: 0.4954 - acc: 0.7812
320/653 [=============>................] - ETA: 0s - loss: 0.5099 - acc: 0.7469
448/653 [===================>..........] - ETA: 0s - loss: 0.5206 - acc: 0.7321
576/653 [=========================>....] - ETA: 0s - loss: 0.5164 - acc: 0.7326
653/653 [==============================] - 0s 592us/step - loss: 0.5118 - acc: 0.7381
Epoch 43/50

 64/653 [=>............................] - ETA: 0s - loss: 0.4580 - acc: 0.7812
192/653 [=======>......................] - ETA: 0s - loss: 0.5179 - acc: 0.7188
320/653 [=============>................] - ETA: 0s - loss: 0.5218 - acc: 0.7156
448/653 [===================>..........] - ETA: 0s - loss: 0.5132 - acc: 0.7210
576/653 [=========================>....] - ETA: 0s - loss: 0.5015 - acc: 0.7309
653/653 [==============================] - 0s 533us/step - loss: 0.5078 - acc: 0.7259
Epoch 44/50

 64/653 [=>............................] - ETA: 0s - loss: 0.4207 - acc: 0.8438
192/653 [=======>......................] - ETA: 0s - loss: 0.4707 - acc: 0.7812
320/653 [=============>................] - ETA: 0s - loss: 0.4494 - acc: 0.8031
448/653 [===================>..........] - ETA: 0s - loss: 0.4629 - acc: 0.7790
576/653 [=========================>....] - ETA: 0s - loss: 0.4657 - acc: 0.7778
653/653 [==============================] - 0s 514us/step - loss: 0.4710 - acc: 0.7734
Epoch 45/50

 64/653 [=>............................] - ETA: 0s - loss: 0.5320 - acc: 0.7188
192/653 [=======>......................] - ETA: 0s - loss: 0.4823 - acc: 0.7812
320/653 [=============>................] - ETA: 0s - loss: 0.4905 - acc: 0.7594
448/653 [===================>..........] - ETA: 0s - loss: 0.4842 - acc: 0.7589
576/653 [=========================>....] - ETA: 0s - loss: 0.4801 - acc: 0.7674
653/653 [==============================] - 0s 511us/step - loss: 0.4764 - acc: 0.7703
Epoch 46/50

 64/653 [=>............................] - ETA: 0s - loss: 0.4991 - acc: 0.7500
192/653 [=======>......................] - ETA: 0s - loss: 0.5066 - acc: 0.7396
320/653 [=============>................] - ETA: 0s - loss: 0.5208 - acc: 0.7156
448/653 [===================>..........] - ETA: 0s - loss: 0.5086 - acc: 0.7321
576/653 [=========================>....] - ETA: 0s - loss: 0.5010 - acc: 0.7431
653/653 [==============================] - 0s 523us/step - loss: 0.5019 - acc: 0.7443
Epoch 47/50

 64/653 [=>............................] - ETA: 0s - loss: 0.5259 - acc: 0.6875
192/653 [=======>......................] - ETA: 0s - loss: 0.5047 - acc: 0.7135
320/653 [=============>................] - ETA: 0s - loss: 0.5039 - acc: 0.7250
448/653 [===================>..........] - ETA: 0s - loss: 0.4960 - acc: 0.7411
576/653 [=========================>....] - ETA: 0s - loss: 0.4818 - acc: 0.7569
653/653 [==============================] - 0s 517us/step - loss: 0.4753 - acc: 0.7642
Epoch 48/50

 64/653 [=>............................] - ETA: 0s - loss: 0.4077 - acc: 0.8125
192/653 [=======>......................] - ETA: 0s - loss: 0.4443 - acc: 0.7969
320/653 [=============>................] - ETA: 0s - loss: 0.4712 - acc: 0.7937
448/653 [===================>..........] - ETA: 0s - loss: 0.4729 - acc: 0.7812
576/653 [=========================>....] - ETA: 0s - loss: 0.4797 - acc: 0.7726
653/653 [==============================] - 0s 515us/step - loss: 0.4747 - acc: 0.7734
Epoch 49/50

 64/653 [=>............................] - ETA: 0s - loss: 0.4250 - acc: 0.7969
192/653 [=======>......................] - ETA: 0s - loss: 0.4632 - acc: 0.7917
320/653 [=============>................] - ETA: 0s - loss: 0.4506 - acc: 0.8000
448/653 [===================>..........] - ETA: 0s - loss: 0.4297 - acc: 0.8125
576/653 [=========================>....] - ETA: 0s - loss: 0.4437 - acc: 0.7986
653/653 [==============================] - 0s 522us/step - loss: 0.4459 - acc: 0.7948
Epoch 50/50

 64/653 [=>............................] - ETA: 0s - loss: 0.4419 - acc: 0.8281
192/653 [=======>......................] - ETA: 0s - loss: 0.4666 - acc: 0.7760
320/653 [=============>................] - ETA: 0s - loss: 0.4390 - acc: 0.8125
448/653 [===================>..........] - ETA: 0s - loss: 0.4304 - acc: 0.8192
576/653 [=========================>....] - ETA: 0s - loss: 0.4485 - acc: 0.7899
653/653 [==============================] - 0s 531us/step - loss: 0.4435 - acc: 0.7994

 64/218 [=======>......................] - ETA: 0s
218/218 [==============================] - 0s 999us/step

 64/653 [=>............................] - ETA: 0s
256/653 [==========>...................] - ETA: 0s
448/653 [===================>..........] - ETA: 0s
640/653 [============================>.] - ETA: 0s
653/653 [==============================] - 0s 297us/step
Killing tensorboard...
Done!
