thtools.__init__.py > running xstream path fixes
Epoch 1/50

 64/436 [===>..........................] - ETA: 10s - loss: 0.7133 - acc: 0.5781
192/436 [============>.................] - ETA: 2s - loss: 0.9341 - acc: 0.4896 
320/436 [=====================>........] - ETA: 0s - loss: 0.9640 - acc: 0.4813
436/436 [==============================] - 2s 5ms/step - loss: 0.9439 - acc: 0.4977
Epoch 2/50

 64/436 [===>..........................] - ETA: 0s - loss: 0.9486 - acc: 0.4531
192/436 [============>.................] - ETA: 0s - loss: 0.9049 - acc: 0.4740
320/436 [=====================>........] - ETA: 0s - loss: 0.8637 - acc: 0.4875
436/436 [==============================] - 0s 496us/step - loss: 0.8738 - acc: 0.4794
Epoch 3/50

 64/436 [===>..........................] - ETA: 0s - loss: 0.8970 - acc: 0.4531
192/436 [============>.................] - ETA: 0s - loss: 0.9174 - acc: 0.4583
320/436 [=====================>........] - ETA: 0s - loss: 0.8996 - acc: 0.4750
436/436 [==============================] - 0s 519us/step - loss: 0.8884 - acc: 0.4817
Epoch 4/50

 64/436 [===>..........................] - ETA: 0s - loss: 0.9049 - acc: 0.4531
192/436 [============>.................] - ETA: 0s - loss: 0.8731 - acc: 0.4427
320/436 [=====================>........] - ETA: 0s - loss: 0.9060 - acc: 0.4562
436/436 [==============================] - 0s 512us/step - loss: 0.8859 - acc: 0.4679
Epoch 5/50

 64/436 [===>..........................] - ETA: 0s - loss: 1.0180 - acc: 0.3906
192/436 [============>.................] - ETA: 0s - loss: 0.8692 - acc: 0.5156
320/436 [=====================>........] - ETA: 0s - loss: 0.8238 - acc: 0.5500
436/436 [==============================] - 0s 515us/step - loss: 0.8139 - acc: 0.5459
Epoch 6/50

 64/436 [===>..........................] - ETA: 0s - loss: 0.7167 - acc: 0.5938
192/436 [============>.................] - ETA: 0s - loss: 0.7873 - acc: 0.5312
320/436 [=====================>........] - ETA: 0s - loss: 0.7649 - acc: 0.5563
436/436 [==============================] - 0s 512us/step - loss: 0.7738 - acc: 0.5550
Epoch 7/50

 64/436 [===>..........................] - ETA: 0s - loss: 0.7457 - acc: 0.5469
192/436 [============>.................] - ETA: 0s - loss: 0.7911 - acc: 0.5365
320/436 [=====================>........] - ETA: 0s - loss: 0.8083 - acc: 0.5312
436/436 [==============================] - 0s 520us/step - loss: 0.7977 - acc: 0.5436
Epoch 8/50

 64/436 [===>..........................] - ETA: 0s - loss: 0.7276 - acc: 0.5156
192/436 [============>.................] - ETA: 0s - loss: 0.7454 - acc: 0.5208
320/436 [=====================>........] - ETA: 0s - loss: 0.7504 - acc: 0.5406
436/436 [==============================] - 0s 527us/step - loss: 0.7701 - acc: 0.5367
Epoch 9/50

 64/436 [===>..........................] - ETA: 0s - loss: 0.8359 - acc: 0.4531
192/436 [============>.................] - ETA: 0s - loss: 0.8824 - acc: 0.4323
320/436 [=====================>........] - ETA: 0s - loss: 0.8363 - acc: 0.4781
436/436 [==============================] - 0s 524us/step - loss: 0.8120 - acc: 0.5023
Epoch 10/50

 64/436 [===>..........................] - ETA: 0s - loss: 0.8089 - acc: 0.5781
192/436 [============>.................] - ETA: 0s - loss: 0.7284 - acc: 0.5781
320/436 [=====================>........] - ETA: 0s - loss: 0.7408 - acc: 0.5750
436/436 [==============================] - 0s 512us/step - loss: 0.7279 - acc: 0.5757
Epoch 11/50

 64/436 [===>..........................] - ETA: 0s - loss: 0.8391 - acc: 0.4375
192/436 [============>.................] - ETA: 0s - loss: 0.8136 - acc: 0.4688
320/436 [=====================>........] - ETA: 0s - loss: 0.8082 - acc: 0.4844
436/436 [==============================] - 0s 501us/step - loss: 0.7956 - acc: 0.5046
Epoch 12/50

 64/436 [===>..........................] - ETA: 0s - loss: 0.9043 - acc: 0.4219
192/436 [============>.................] - ETA: 0s - loss: 0.7903 - acc: 0.5208
320/436 [=====================>........] - ETA: 0s - loss: 0.8359 - acc: 0.5062
436/436 [==============================] - 0s 503us/step - loss: 0.8330 - acc: 0.5023
Epoch 13/50

 64/436 [===>..........................] - ETA: 0s - loss: 0.8268 - acc: 0.5000
192/436 [============>.................] - ETA: 0s - loss: 0.7694 - acc: 0.5417
320/436 [=====================>........] - ETA: 0s - loss: 0.7819 - acc: 0.5312
436/436 [==============================] - 0s 510us/step - loss: 0.7877 - acc: 0.5138
Epoch 14/50

 64/436 [===>..........................] - ETA: 0s - loss: 0.6835 - acc: 0.6406
192/436 [============>.................] - ETA: 0s - loss: 0.6963 - acc: 0.5833
320/436 [=====================>........] - ETA: 0s - loss: 0.7396 - acc: 0.5594
436/436 [==============================] - 0s 509us/step - loss: 0.7553 - acc: 0.5459
Epoch 15/50

 64/436 [===>..........................] - ETA: 0s - loss: 0.7858 - acc: 0.5781
192/436 [============>.................] - ETA: 0s - loss: 0.7180 - acc: 0.6042
320/436 [=====================>........] - ETA: 0s - loss: 0.7598 - acc: 0.5656
436/436 [==============================] - 0s 504us/step - loss: 0.7527 - acc: 0.5505
Epoch 16/50

 64/436 [===>..........................] - ETA: 0s - loss: 0.7111 - acc: 0.5781
192/436 [============>.................] - ETA: 0s - loss: 0.7100 - acc: 0.5208
320/436 [=====================>........] - ETA: 0s - loss: 0.7330 - acc: 0.5094
436/436 [==============================] - 0s 508us/step - loss: 0.7356 - acc: 0.5252
Epoch 17/50

 64/436 [===>..........................] - ETA: 0s - loss: 0.7194 - acc: 0.5781
192/436 [============>.................] - ETA: 0s - loss: 0.6750 - acc: 0.6094
320/436 [=====================>........] - ETA: 0s - loss: 0.6900 - acc: 0.6156
436/436 [==============================] - 0s 513us/step - loss: 0.6957 - acc: 0.6009
Epoch 18/50

 64/436 [===>..........................] - ETA: 0s - loss: 0.8576 - acc: 0.3906
192/436 [============>.................] - ETA: 0s - loss: 0.8293 - acc: 0.4583
320/436 [=====================>........] - ETA: 0s - loss: 0.8041 - acc: 0.4688
436/436 [==============================] - 0s 542us/step - loss: 0.7727 - acc: 0.4954
Epoch 19/50

 64/436 [===>..........................] - ETA: 0s - loss: 0.6888 - acc: 0.5000
192/436 [============>.................] - ETA: 0s - loss: 0.7158 - acc: 0.5365
320/436 [=====================>........] - ETA: 0s - loss: 0.7465 - acc: 0.5094
436/436 [==============================] - 0s 513us/step - loss: 0.7284 - acc: 0.5298
Epoch 20/50

 64/436 [===>..........................] - ETA: 0s - loss: 0.7532 - acc: 0.5000
192/436 [============>.................] - ETA: 0s - loss: 0.7588 - acc: 0.4740
320/436 [=====================>........] - ETA: 0s - loss: 0.7285 - acc: 0.5031
436/436 [==============================] - 0s 520us/step - loss: 0.6896 - acc: 0.5505
Epoch 21/50

 64/436 [===>..........................] - ETA: 0s - loss: 0.7287 - acc: 0.5625
192/436 [============>.................] - ETA: 0s - loss: 0.6812 - acc: 0.5990
320/436 [=====================>........] - ETA: 0s - loss: 0.6600 - acc: 0.6062
436/436 [==============================] - 0s 523us/step - loss: 0.6505 - acc: 0.6124
Epoch 22/50

 64/436 [===>..........................] - ETA: 0s - loss: 0.6354 - acc: 0.6250
192/436 [============>.................] - ETA: 0s - loss: 0.6553 - acc: 0.5938
320/436 [=====================>........] - ETA: 0s - loss: 0.6498 - acc: 0.6219
436/436 [==============================] - 0s 524us/step - loss: 0.6499 - acc: 0.6284
Epoch 23/50

 64/436 [===>..........................] - ETA: 0s - loss: 0.8208 - acc: 0.6094
192/436 [============>.................] - ETA: 0s - loss: 0.7193 - acc: 0.6042
320/436 [=====================>........] - ETA: 0s - loss: 0.7050 - acc: 0.5813
436/436 [==============================] - 0s 527us/step - loss: 0.7008 - acc: 0.5849
Epoch 24/50

 64/436 [===>..........................] - ETA: 0s - loss: 0.7385 - acc: 0.5469
192/436 [============>.................] - ETA: 0s - loss: 0.6678 - acc: 0.6042
320/436 [=====================>........] - ETA: 0s - loss: 0.6784 - acc: 0.6000
436/436 [==============================] - 0s 527us/step - loss: 0.6631 - acc: 0.6147
Epoch 25/50

 64/436 [===>..........................] - ETA: 0s - loss: 0.6468 - acc: 0.6250
192/436 [============>.................] - ETA: 0s - loss: 0.6669 - acc: 0.6094
320/436 [=====================>........] - ETA: 0s - loss: 0.6514 - acc: 0.5969
436/436 [==============================] - 0s 523us/step - loss: 0.6534 - acc: 0.5986
Epoch 26/50

 64/436 [===>..........................] - ETA: 0s - loss: 0.7000 - acc: 0.5938
192/436 [============>.................] - ETA: 0s - loss: 0.6727 - acc: 0.6094
320/436 [=====================>........] - ETA: 0s - loss: 0.6529 - acc: 0.6188
436/436 [==============================] - 0s 526us/step - loss: 0.6573 - acc: 0.6239
Epoch 27/50

 64/436 [===>..........................] - ETA: 0s - loss: 0.6982 - acc: 0.4688
192/436 [============>.................] - ETA: 0s - loss: 0.6604 - acc: 0.5156
320/436 [=====================>........] - ETA: 0s - loss: 0.6495 - acc: 0.5594
436/436 [==============================] - 0s 513us/step - loss: 0.6444 - acc: 0.5665
Epoch 28/50

 64/436 [===>..........................] - ETA: 0s - loss: 0.6709 - acc: 0.6562
192/436 [============>.................] - ETA: 0s - loss: 0.6369 - acc: 0.6406
320/436 [=====================>........] - ETA: 0s - loss: 0.6429 - acc: 0.6188
436/436 [==============================] - 0s 518us/step - loss: 0.6496 - acc: 0.6216
Epoch 29/50

 64/436 [===>..........................] - ETA: 0s - loss: 0.6447 - acc: 0.5781
192/436 [============>.................] - ETA: 0s - loss: 0.6470 - acc: 0.5729
320/436 [=====================>........] - ETA: 0s - loss: 0.6538 - acc: 0.5875
436/436 [==============================] - 0s 513us/step - loss: 0.6536 - acc: 0.5917
Epoch 30/50

 64/436 [===>..........................] - ETA: 0s - loss: 0.5838 - acc: 0.7188
192/436 [============>.................] - ETA: 0s - loss: 0.6169 - acc: 0.6458
320/436 [=====================>........] - ETA: 0s - loss: 0.6150 - acc: 0.6250
436/436 [==============================] - 0s 519us/step - loss: 0.6253 - acc: 0.6261
Epoch 31/50

 64/436 [===>..........................] - ETA: 0s - loss: 0.6843 - acc: 0.5938
192/436 [============>.................] - ETA: 0s - loss: 0.6583 - acc: 0.5573
320/436 [=====================>........] - ETA: 0s - loss: 0.6363 - acc: 0.5938
436/436 [==============================] - 0s 550us/step - loss: 0.6202 - acc: 0.6216
Epoch 32/50

 64/436 [===>..........................] - ETA: 0s - loss: 0.6568 - acc: 0.6250
192/436 [============>.................] - ETA: 0s - loss: 0.6069 - acc: 0.6667
320/436 [=====================>........] - ETA: 0s - loss: 0.5906 - acc: 0.6750
436/436 [==============================] - 0s 544us/step - loss: 0.5922 - acc: 0.6766
Epoch 33/50

 64/436 [===>..........................] - ETA: 0s - loss: 0.5619 - acc: 0.6719
192/436 [============>.................] - ETA: 0s - loss: 0.5463 - acc: 0.6875
320/436 [=====================>........] - ETA: 0s - loss: 0.5481 - acc: 0.6844
436/436 [==============================] - 0s 529us/step - loss: 0.5618 - acc: 0.6743
Epoch 34/50

 64/436 [===>..........................] - ETA: 0s - loss: 0.6692 - acc: 0.4844
192/436 [============>.................] - ETA: 0s - loss: 0.6115 - acc: 0.6094
320/436 [=====================>........] - ETA: 0s - loss: 0.5915 - acc: 0.6562
436/436 [==============================] - 0s 512us/step - loss: 0.5817 - acc: 0.6628
Epoch 35/50

 64/436 [===>..........................] - ETA: 0s - loss: 0.5690 - acc: 0.6875
192/436 [============>.................] - ETA: 0s - loss: 0.5329 - acc: 0.7188
320/436 [=====================>........] - ETA: 0s - loss: 0.5548 - acc: 0.6844
436/436 [==============================] - 0s 510us/step - loss: 0.5406 - acc: 0.7018
Epoch 36/50

 64/436 [===>..........................] - ETA: 0s - loss: 0.5689 - acc: 0.7344
192/436 [============>.................] - ETA: 0s - loss: 0.5755 - acc: 0.6667
320/436 [=====================>........] - ETA: 0s - loss: 0.5602 - acc: 0.6750
436/436 [==============================] - 0s 519us/step - loss: 0.5472 - acc: 0.7018
Epoch 37/50

 64/436 [===>..........................] - ETA: 0s - loss: 0.4927 - acc: 0.7656
192/436 [============>.................] - ETA: 0s - loss: 0.5015 - acc: 0.7760
320/436 [=====================>........] - ETA: 0s - loss: 0.5265 - acc: 0.7312
436/436 [==============================] - 0s 513us/step - loss: 0.5196 - acc: 0.7385
Epoch 38/50

 64/436 [===>..........................] - ETA: 0s - loss: 0.5077 - acc: 0.7188
192/436 [============>.................] - ETA: 0s - loss: 0.5565 - acc: 0.6823
320/436 [=====================>........] - ETA: 0s - loss: 0.5460 - acc: 0.6906
436/436 [==============================] - 0s 525us/step - loss: 0.5442 - acc: 0.6881
Epoch 39/50

 64/436 [===>..........................] - ETA: 0s - loss: 0.4952 - acc: 0.7500
192/436 [============>.................] - ETA: 0s - loss: 0.4931 - acc: 0.7656
320/436 [=====================>........] - ETA: 0s - loss: 0.4950 - acc: 0.7625
436/436 [==============================] - 0s 542us/step - loss: 0.5073 - acc: 0.7454
Epoch 40/50

 64/436 [===>..........................] - ETA: 0s - loss: 0.5432 - acc: 0.7500
192/436 [============>.................] - ETA: 0s - loss: 0.5066 - acc: 0.7396
320/436 [=====================>........] - ETA: 0s - loss: 0.5114 - acc: 0.7344
436/436 [==============================] - 0s 536us/step - loss: 0.5115 - acc: 0.7317
Epoch 41/50

 64/436 [===>..........................] - ETA: 0s - loss: 0.4471 - acc: 0.7344
192/436 [============>.................] - ETA: 0s - loss: 0.4900 - acc: 0.7031
320/436 [=====================>........] - ETA: 0s - loss: 0.4768 - acc: 0.7250
436/436 [==============================] - 0s 580us/step - loss: 0.4906 - acc: 0.7202
Epoch 42/50

 64/436 [===>..........................] - ETA: 0s - loss: 0.4680 - acc: 0.7500
192/436 [============>.................] - ETA: 0s - loss: 0.4596 - acc: 0.7656
320/436 [=====================>........] - ETA: 0s - loss: 0.4688 - acc: 0.7406
436/436 [==============================] - 0s 542us/step - loss: 0.4787 - acc: 0.7454
Epoch 43/50

 64/436 [===>..........................] - ETA: 0s - loss: 0.4919 - acc: 0.8125
192/436 [============>.................] - ETA: 0s - loss: 0.4609 - acc: 0.7812
320/436 [=====================>........] - ETA: 0s - loss: 0.4623 - acc: 0.7688
436/436 [==============================] - 0s 524us/step - loss: 0.4650 - acc: 0.7706
Epoch 44/50

 64/436 [===>..........................] - ETA: 0s - loss: 0.4602 - acc: 0.7812
192/436 [============>.................] - ETA: 0s - loss: 0.4520 - acc: 0.7917
320/436 [=====================>........] - ETA: 0s - loss: 0.4475 - acc: 0.7781
436/436 [==============================] - 0s 542us/step - loss: 0.4452 - acc: 0.7752
Epoch 45/50

 64/436 [===>..........................] - ETA: 0s - loss: 0.4115 - acc: 0.8594
192/436 [============>.................] - ETA: 0s - loss: 0.4459 - acc: 0.8073
320/436 [=====================>........] - ETA: 0s - loss: 0.4464 - acc: 0.8031
436/436 [==============================] - 0s 560us/step - loss: 0.4423 - acc: 0.8005
Epoch 46/50

 64/436 [===>..........................] - ETA: 0s - loss: 0.4794 - acc: 0.6719
192/436 [============>.................] - ETA: 0s - loss: 0.4489 - acc: 0.7500
320/436 [=====================>........] - ETA: 0s - loss: 0.4550 - acc: 0.7531
436/436 [==============================] - 0s 530us/step - loss: 0.4863 - acc: 0.7408
Epoch 47/50

 64/436 [===>..........................] - ETA: 0s - loss: 0.5473 - acc: 0.6719
192/436 [============>.................] - ETA: 0s - loss: 0.5072 - acc: 0.6875
320/436 [=====================>........] - ETA: 0s - loss: 0.5216 - acc: 0.6781
436/436 [==============================] - 0s 533us/step - loss: 0.5357 - acc: 0.6766
Epoch 48/50

 64/436 [===>..........................] - ETA: 0s - loss: 0.5095 - acc: 0.7500
192/436 [============>.................] - ETA: 0s - loss: 0.5452 - acc: 0.6771
320/436 [=====================>........] - ETA: 0s - loss: 0.5508 - acc: 0.6656
436/436 [==============================] - 0s 592us/step - loss: 0.5522 - acc: 0.6766
Epoch 49/50

 64/436 [===>..........................] - ETA: 0s - loss: 0.5448 - acc: 0.6562
192/436 [============>.................] - ETA: 0s - loss: 0.5840 - acc: 0.6927
320/436 [=====================>........] - ETA: 0s - loss: 0.5617 - acc: 0.7031
436/436 [==============================] - 0s 529us/step - loss: 0.5677 - acc: 0.6927
Epoch 50/50

 64/436 [===>..........................] - ETA: 0s - loss: 0.5177 - acc: 0.6875
192/436 [============>.................] - ETA: 0s - loss: 0.4917 - acc: 0.7188
320/436 [=====================>........] - ETA: 0s - loss: 0.4890 - acc: 0.7188
436/436 [==============================] - 0s 533us/step - loss: 0.4977 - acc: 0.7156

 64/217 [=======>......................] - ETA: 0s
217/217 [==============================] - 0s 745us/step

 64/436 [===>..........................] - ETA: 0s
256/436 [================>.............] - ETA: 0s
436/436 [==============================] - 0s 294us/step
Killing tensorboard...
Done!
