thtools.__init__.py > running xstream path fixes
Epoch 1/50

 64/436 [===>..........................] - ETA: 17s - loss: 0.9045 - acc: 0.5469
192/436 [============>.................] - ETA: 3s - loss: 1.0328 - acc: 0.4948 
320/436 [=====================>........] - ETA: 1s - loss: 0.8964 - acc: 0.5500
436/436 [==============================] - 3s 7ms/step - loss: 0.8368 - acc: 0.5619
Epoch 2/50

 64/436 [===>..........................] - ETA: 0s - loss: 0.5691 - acc: 0.7031
192/436 [============>.................] - ETA: 0s - loss: 0.6125 - acc: 0.6667
320/436 [=====================>........] - ETA: 0s - loss: 0.6015 - acc: 0.6656
436/436 [==============================] - 0s 483us/step - loss: 0.5806 - acc: 0.6789
Epoch 3/50

 64/436 [===>..........................] - ETA: 0s - loss: 0.6306 - acc: 0.6562
192/436 [============>.................] - ETA: 0s - loss: 0.5204 - acc: 0.7448
320/436 [=====================>........] - ETA: 0s - loss: 0.5125 - acc: 0.7531
436/436 [==============================] - 0s 489us/step - loss: 0.4791 - acc: 0.7844
Epoch 4/50

 64/436 [===>..........................] - ETA: 0s - loss: 0.3334 - acc: 0.8906
192/436 [============>.................] - ETA: 0s - loss: 0.3780 - acc: 0.8490
320/436 [=====================>........] - ETA: 0s - loss: 0.3632 - acc: 0.8688
436/436 [==============================] - 0s 496us/step - loss: 0.3648 - acc: 0.8601
Epoch 5/50

 64/436 [===>..........................] - ETA: 0s - loss: 0.3017 - acc: 0.8750
192/436 [============>.................] - ETA: 0s - loss: 0.2826 - acc: 0.8958
320/436 [=====================>........] - ETA: 0s - loss: 0.3083 - acc: 0.8781
436/436 [==============================] - 0s 502us/step - loss: 0.3064 - acc: 0.8784
Epoch 6/50

 64/436 [===>..........................] - ETA: 0s - loss: 0.2004 - acc: 0.9688
192/436 [============>.................] - ETA: 0s - loss: 0.2166 - acc: 0.9375
320/436 [=====================>........] - ETA: 0s - loss: 0.2213 - acc: 0.9344
436/436 [==============================] - 0s 536us/step - loss: 0.2277 - acc: 0.9335
Epoch 7/50

 64/436 [===>..........................] - ETA: 0s - loss: 0.1729 - acc: 0.9688
192/436 [============>.................] - ETA: 0s - loss: 0.1722 - acc: 0.9635
320/436 [=====================>........] - ETA: 0s - loss: 0.1687 - acc: 0.9688
436/436 [==============================] - 0s 509us/step - loss: 0.1619 - acc: 0.9725
Epoch 8/50

 64/436 [===>..........................] - ETA: 0s - loss: 0.1842 - acc: 0.9219
192/436 [============>.................] - ETA: 0s - loss: 0.1703 - acc: 0.9531
320/436 [=====================>........] - ETA: 0s - loss: 0.1518 - acc: 0.9656
436/436 [==============================] - 0s 514us/step - loss: 0.1442 - acc: 0.9702
Epoch 9/50

 64/436 [===>..........................] - ETA: 0s - loss: 0.1253 - acc: 0.9844
192/436 [============>.................] - ETA: 0s - loss: 0.1167 - acc: 0.9844
320/436 [=====================>........] - ETA: 0s - loss: 0.1179 - acc: 0.9750
436/436 [==============================] - 0s 509us/step - loss: 0.1138 - acc: 0.9794
Epoch 10/50

 64/436 [===>..........................] - ETA: 0s - loss: 0.0774 - acc: 0.9844
192/436 [============>.................] - ETA: 0s - loss: 0.0792 - acc: 0.9948
320/436 [=====================>........] - ETA: 0s - loss: 0.0862 - acc: 0.9906
436/436 [==============================] - 0s 495us/step - loss: 0.0901 - acc: 0.9885
Epoch 11/50

 64/436 [===>..........................] - ETA: 0s - loss: 0.1112 - acc: 1.0000
192/436 [============>.................] - ETA: 0s - loss: 0.0869 - acc: 0.9948
320/436 [=====================>........] - ETA: 0s - loss: 0.0907 - acc: 0.9906
436/436 [==============================] - 0s 500us/step - loss: 0.0842 - acc: 0.9931
Epoch 12/50

 64/436 [===>..........................] - ETA: 0s - loss: 0.0608 - acc: 1.0000
192/436 [============>.................] - ETA: 0s - loss: 0.0728 - acc: 1.0000
320/436 [=====================>........] - ETA: 0s - loss: 0.0755 - acc: 0.9969
436/436 [==============================] - 0s 500us/step - loss: 0.0743 - acc: 0.9954
Epoch 13/50

 64/436 [===>..........................] - ETA: 0s - loss: 0.0632 - acc: 1.0000
192/436 [============>.................] - ETA: 0s - loss: 0.0702 - acc: 0.9948
320/436 [=====================>........] - ETA: 0s - loss: 0.0672 - acc: 0.9938
436/436 [==============================] - 0s 502us/step - loss: 0.0700 - acc: 0.9931
Epoch 14/50

 64/436 [===>..........................] - ETA: 0s - loss: 0.0692 - acc: 0.9844
192/436 [============>.................] - ETA: 0s - loss: 0.0550 - acc: 0.9948
320/436 [=====================>........] - ETA: 0s - loss: 0.0534 - acc: 0.9969
436/436 [==============================] - 0s 514us/step - loss: 0.0514 - acc: 0.9954
Epoch 15/50

 64/436 [===>..........................] - ETA: 0s - loss: 0.0399 - acc: 1.0000
192/436 [============>.................] - ETA: 0s - loss: 0.0453 - acc: 1.0000
320/436 [=====================>........] - ETA: 0s - loss: 0.0465 - acc: 1.0000
436/436 [==============================] - 0s 525us/step - loss: 0.0531 - acc: 0.9954
Epoch 16/50

 64/436 [===>..........................] - ETA: 0s - loss: 0.0788 - acc: 0.9688
192/436 [============>.................] - ETA: 0s - loss: 0.0520 - acc: 0.9844
320/436 [=====================>........] - ETA: 0s - loss: 0.0513 - acc: 0.9875
436/436 [==============================] - 0s 545us/step - loss: 0.0520 - acc: 0.9885
Epoch 17/50

 64/436 [===>..........................] - ETA: 0s - loss: 0.0512 - acc: 1.0000
192/436 [============>.................] - ETA: 0s - loss: 0.0406 - acc: 0.9948
320/436 [=====================>........] - ETA: 0s - loss: 0.0344 - acc: 0.9969
436/436 [==============================] - 0s 497us/step - loss: 0.0380 - acc: 0.9954
Epoch 18/50

 64/436 [===>..........................] - ETA: 0s - loss: 0.0321 - acc: 1.0000
192/436 [============>.................] - ETA: 0s - loss: 0.0256 - acc: 1.0000
320/436 [=====================>........] - ETA: 0s - loss: 0.0303 - acc: 1.0000
436/436 [==============================] - 0s 493us/step - loss: 0.0353 - acc: 1.0000
Epoch 19/50

 64/436 [===>..........................] - ETA: 0s - loss: 0.0405 - acc: 1.0000
192/436 [============>.................] - ETA: 0s - loss: 0.0328 - acc: 1.0000
320/436 [=====================>........] - ETA: 0s - loss: 0.0404 - acc: 0.9969
436/436 [==============================] - 0s 492us/step - loss: 0.0380 - acc: 0.9954
Epoch 20/50

 64/436 [===>..........................] - ETA: 0s - loss: 0.0341 - acc: 1.0000
192/436 [============>.................] - ETA: 0s - loss: 0.0336 - acc: 1.0000
320/436 [=====================>........] - ETA: 0s - loss: 0.0368 - acc: 0.9969
436/436 [==============================] - 0s 506us/step - loss: 0.0343 - acc: 0.9977
Epoch 21/50

 64/436 [===>..........................] - ETA: 0s - loss: 0.0190 - acc: 1.0000
192/436 [============>.................] - ETA: 0s - loss: 0.0202 - acc: 1.0000
320/436 [=====================>........] - ETA: 0s - loss: 0.0226 - acc: 1.0000
436/436 [==============================] - 0s 514us/step - loss: 0.0263 - acc: 1.0000
Epoch 22/50

 64/436 [===>..........................] - ETA: 0s - loss: 0.0201 - acc: 1.0000
192/436 [============>.................] - ETA: 0s - loss: 0.0214 - acc: 1.0000
320/436 [=====================>........] - ETA: 0s - loss: 0.0266 - acc: 1.0000
436/436 [==============================] - 0s 509us/step - loss: 0.0267 - acc: 1.0000
Epoch 23/50

 64/436 [===>..........................] - ETA: 0s - loss: 0.0238 - acc: 1.0000
192/436 [============>.................] - ETA: 0s - loss: 0.0206 - acc: 1.0000
320/436 [=====================>........] - ETA: 0s - loss: 0.0228 - acc: 1.0000
436/436 [==============================] - 0s 516us/step - loss: 0.0219 - acc: 1.0000
Epoch 24/50

 64/436 [===>..........................] - ETA: 0s - loss: 0.0209 - acc: 1.0000
192/436 [============>.................] - ETA: 0s - loss: 0.0229 - acc: 1.0000
320/436 [=====================>........] - ETA: 0s - loss: 0.0284 - acc: 0.9969
436/436 [==============================] - 0s 506us/step - loss: 0.0258 - acc: 0.9977
Epoch 25/50

 64/436 [===>..........................] - ETA: 0s - loss: 0.0238 - acc: 1.0000
192/436 [============>.................] - ETA: 0s - loss: 0.0200 - acc: 1.0000
320/436 [=====================>........] - ETA: 0s - loss: 0.0238 - acc: 0.9938
436/436 [==============================] - 0s 506us/step - loss: 0.0278 - acc: 0.9954
Epoch 26/50

 64/436 [===>..........................] - ETA: 0s - loss: 0.0263 - acc: 1.0000
192/436 [============>.................] - ETA: 0s - loss: 0.0196 - acc: 1.0000
320/436 [=====================>........] - ETA: 0s - loss: 0.0279 - acc: 0.9969
436/436 [==============================] - 0s 503us/step - loss: 0.0285 - acc: 0.9954
Epoch 27/50

 64/436 [===>..........................] - ETA: 0s - loss: 0.0214 - acc: 1.0000
192/436 [============>.................] - ETA: 0s - loss: 0.0232 - acc: 1.0000
320/436 [=====================>........] - ETA: 0s - loss: 0.0220 - acc: 1.0000
436/436 [==============================] - 0s 491us/step - loss: 0.0225 - acc: 1.0000
Epoch 28/50

 64/436 [===>..........................] - ETA: 0s - loss: 0.0237 - acc: 1.0000
192/436 [============>.................] - ETA: 0s - loss: 0.0234 - acc: 1.0000
320/436 [=====================>........] - ETA: 0s - loss: 0.0209 - acc: 1.0000
436/436 [==============================] - 0s 494us/step - loss: 0.0392 - acc: 0.9908
Epoch 29/50

 64/436 [===>..........................] - ETA: 0s - loss: 0.0250 - acc: 1.0000
192/436 [============>.................] - ETA: 0s - loss: 0.0338 - acc: 0.9948
320/436 [=====================>........] - ETA: 0s - loss: 0.0406 - acc: 0.9906
436/436 [==============================] - 0s 497us/step - loss: 0.0535 - acc: 0.9862
Epoch 30/50

 64/436 [===>..........................] - ETA: 0s - loss: 0.0368 - acc: 1.0000
192/436 [============>.................] - ETA: 0s - loss: 0.0373 - acc: 0.9896
320/436 [=====================>........] - ETA: 0s - loss: 0.0493 - acc: 0.9844
436/436 [==============================] - 0s 499us/step - loss: 0.0769 - acc: 0.9702
Epoch 31/50

 64/436 [===>..........................] - ETA: 0s - loss: 0.0650 - acc: 0.9844
192/436 [============>.................] - ETA: 0s - loss: 0.0359 - acc: 0.9948
320/436 [=====================>........] - ETA: 0s - loss: 0.0381 - acc: 0.9969
436/436 [==============================] - 0s 497us/step - loss: 0.0393 - acc: 0.9977
Epoch 32/50

 64/436 [===>..........................] - ETA: 0s - loss: 0.0440 - acc: 1.0000
192/436 [============>.................] - ETA: 0s - loss: 0.0412 - acc: 1.0000
320/436 [=====================>........] - ETA: 0s - loss: 0.0404 - acc: 1.0000
436/436 [==============================] - 0s 497us/step - loss: 0.0516 - acc: 0.9954
Epoch 33/50

 64/436 [===>..........................] - ETA: 0s - loss: 0.0265 - acc: 1.0000
192/436 [============>.................] - ETA: 0s - loss: 0.0318 - acc: 0.9948
320/436 [=====================>........] - ETA: 0s - loss: 0.0256 - acc: 0.9969
436/436 [==============================] - 0s 500us/step - loss: 0.0265 - acc: 0.9977
Epoch 34/50

 64/436 [===>..........................] - ETA: 0s - loss: 0.0348 - acc: 1.0000
192/436 [============>.................] - ETA: 0s - loss: 0.0382 - acc: 1.0000
320/436 [=====================>........] - ETA: 0s - loss: 0.0296 - acc: 1.0000
436/436 [==============================] - 0s 497us/step - loss: 0.0305 - acc: 0.9977
Epoch 35/50

 64/436 [===>..........................] - ETA: 0s - loss: 0.0300 - acc: 1.0000
192/436 [============>.................] - ETA: 0s - loss: 0.0203 - acc: 1.0000
320/436 [=====================>........] - ETA: 0s - loss: 0.0189 - acc: 1.0000
436/436 [==============================] - 0s 493us/step - loss: 0.0209 - acc: 1.0000
Epoch 36/50

 64/436 [===>..........................] - ETA: 0s - loss: 0.0130 - acc: 1.0000
192/436 [============>.................] - ETA: 0s - loss: 0.0131 - acc: 1.0000
320/436 [=====================>........] - ETA: 0s - loss: 0.0154 - acc: 1.0000
436/436 [==============================] - 0s 494us/step - loss: 0.0141 - acc: 1.0000
Epoch 37/50

 64/436 [===>..........................] - ETA: 0s - loss: 0.0168 - acc: 1.0000
192/436 [============>.................] - ETA: 0s - loss: 0.0184 - acc: 1.0000
320/436 [=====================>........] - ETA: 0s - loss: 0.0158 - acc: 1.0000
436/436 [==============================] - 0s 496us/step - loss: 0.0146 - acc: 1.0000
Epoch 38/50

 64/436 [===>..........................] - ETA: 0s - loss: 0.0100 - acc: 1.0000
192/436 [============>.................] - ETA: 0s - loss: 0.0109 - acc: 1.0000
320/436 [=====================>........] - ETA: 0s - loss: 0.0108 - acc: 1.0000
436/436 [==============================] - 0s 495us/step - loss: 0.0120 - acc: 1.0000
Epoch 39/50

 64/436 [===>..........................] - ETA: 0s - loss: 0.0078 - acc: 1.0000
192/436 [============>.................] - ETA: 0s - loss: 0.0090 - acc: 1.0000
320/436 [=====================>........] - ETA: 0s - loss: 0.0119 - acc: 0.9969
436/436 [==============================] - 0s 496us/step - loss: 0.0101 - acc: 0.9977
Epoch 40/50

 64/436 [===>..........................] - ETA: 0s - loss: 0.0095 - acc: 1.0000
192/436 [============>.................] - ETA: 0s - loss: 0.0081 - acc: 1.0000
320/436 [=====================>........] - ETA: 0s - loss: 0.0092 - acc: 1.0000
436/436 [==============================] - 0s 492us/step - loss: 0.0097 - acc: 1.0000
Epoch 41/50

 64/436 [===>..........................] - ETA: 0s - loss: 0.0122 - acc: 1.0000
192/436 [============>.................] - ETA: 0s - loss: 0.0104 - acc: 1.0000
320/436 [=====================>........] - ETA: 0s - loss: 0.0087 - acc: 1.0000
436/436 [==============================] - 0s 495us/step - loss: 0.0085 - acc: 1.0000
Epoch 42/50

 64/436 [===>..........................] - ETA: 0s - loss: 0.0061 - acc: 1.0000
192/436 [============>.................] - ETA: 0s - loss: 0.0069 - acc: 1.0000
320/436 [=====================>........] - ETA: 0s - loss: 0.0074 - acc: 1.0000
436/436 [==============================] - 0s 496us/step - loss: 0.0085 - acc: 1.0000
Epoch 43/50

 64/436 [===>..........................] - ETA: 0s - loss: 0.0083 - acc: 1.0000
192/436 [============>.................] - ETA: 0s - loss: 0.0101 - acc: 1.0000
320/436 [=====================>........] - ETA: 0s - loss: 0.0099 - acc: 1.0000
436/436 [==============================] - 0s 499us/step - loss: 0.0098 - acc: 1.0000
Epoch 44/50

 64/436 [===>..........................] - ETA: 0s - loss: 0.0166 - acc: 1.0000
192/436 [============>.................] - ETA: 0s - loss: 0.0098 - acc: 1.0000
320/436 [=====================>........] - ETA: 0s - loss: 0.0097 - acc: 1.0000
436/436 [==============================] - 0s 494us/step - loss: 0.0095 - acc: 1.0000
Epoch 45/50

 64/436 [===>..........................] - ETA: 0s - loss: 0.0140 - acc: 1.0000
192/436 [============>.................] - ETA: 0s - loss: 0.0119 - acc: 1.0000
320/436 [=====================>........] - ETA: 0s - loss: 0.0101 - acc: 1.0000
436/436 [==============================] - 0s 494us/step - loss: 0.0096 - acc: 1.0000
Epoch 46/50

 64/436 [===>..........................] - ETA: 0s - loss: 0.0128 - acc: 1.0000
192/436 [============>.................] - ETA: 0s - loss: 0.0154 - acc: 0.9948
320/436 [=====================>........] - ETA: 0s - loss: 0.0112 - acc: 0.9969
436/436 [==============================] - 0s 493us/step - loss: 0.0094 - acc: 0.9977
Epoch 47/50

 64/436 [===>..........................] - ETA: 0s - loss: 0.0080 - acc: 1.0000
192/436 [============>.................] - ETA: 0s - loss: 0.0088 - acc: 1.0000
320/436 [=====================>........] - ETA: 0s - loss: 0.0075 - acc: 1.0000
436/436 [==============================] - 0s 495us/step - loss: 0.0066 - acc: 1.0000
Epoch 48/50

 64/436 [===>..........................] - ETA: 0s - loss: 0.0053 - acc: 1.0000
192/436 [============>.................] - ETA: 0s - loss: 0.0063 - acc: 1.0000
320/436 [=====================>........] - ETA: 0s - loss: 0.0061 - acc: 1.0000
436/436 [==============================] - 0s 496us/step - loss: 0.0077 - acc: 0.9977
Epoch 49/50

 64/436 [===>..........................] - ETA: 0s - loss: 0.0052 - acc: 1.0000
192/436 [============>.................] - ETA: 0s - loss: 0.0088 - acc: 1.0000
320/436 [=====================>........] - ETA: 0s - loss: 0.0072 - acc: 1.0000
436/436 [==============================] - 0s 492us/step - loss: 0.0068 - acc: 1.0000
Epoch 50/50

 64/436 [===>..........................] - ETA: 0s - loss: 0.0052 - acc: 1.0000
192/436 [============>.................] - ETA: 0s - loss: 0.0040 - acc: 1.0000
320/436 [=====================>........] - ETA: 0s - loss: 0.0043 - acc: 1.0000
436/436 [==============================] - 0s 491us/step - loss: 0.0045 - acc: 1.0000

 64/217 [=======>......................] - ETA: 0s
217/217 [==============================] - 0s 651us/step

 64/436 [===>..........................] - ETA: 0s
320/436 [=====================>........] - ETA: 0s
436/436 [==============================] - 0s 283us/step
Killing tensorboard...
Done!
