thtools.__init__.py > running xstream path fixes
Epoch 1/50

 64/653 [=>............................] - ETA: 14s - loss: 1.1288 - acc: 0.4531
192/653 [=======>......................] - ETA: 3s - loss: 1.1000 - acc: 0.4635 
320/653 [=============>................] - ETA: 1s - loss: 1.0957 - acc: 0.4656
448/653 [===================>..........] - ETA: 0s - loss: 1.0565 - acc: 0.4888
576/653 [=========================>....] - ETA: 0s - loss: 1.0451 - acc: 0.4861
653/653 [==============================] - 2s 3ms/step - loss: 1.0477 - acc: 0.4855
Epoch 2/50

 64/653 [=>............................] - ETA: 0s - loss: 0.9141 - acc: 0.4844
192/653 [=======>......................] - ETA: 0s - loss: 0.9733 - acc: 0.4635
320/653 [=============>................] - ETA: 0s - loss: 1.0428 - acc: 0.4500
448/653 [===================>..........] - ETA: 0s - loss: 0.9865 - acc: 0.4643
576/653 [=========================>....] - ETA: 0s - loss: 0.9895 - acc: 0.4688
653/653 [==============================] - 0s 490us/step - loss: 0.9805 - acc: 0.4778
Epoch 3/50

 64/653 [=>............................] - ETA: 0s - loss: 0.9292 - acc: 0.6094
192/653 [=======>......................] - ETA: 0s - loss: 0.9329 - acc: 0.5469
320/653 [=============>................] - ETA: 0s - loss: 0.9693 - acc: 0.5156
448/653 [===================>..........] - ETA: 0s - loss: 0.9575 - acc: 0.5134
576/653 [=========================>....] - ETA: 0s - loss: 0.9382 - acc: 0.5243
653/653 [==============================] - 0s 504us/step - loss: 0.9535 - acc: 0.5176
Epoch 4/50

 64/653 [=>............................] - ETA: 0s - loss: 0.9199 - acc: 0.5000
192/653 [=======>......................] - ETA: 0s - loss: 0.9858 - acc: 0.5000
320/653 [=============>................] - ETA: 0s - loss: 0.9459 - acc: 0.5094
448/653 [===================>..........] - ETA: 0s - loss: 0.9390 - acc: 0.4955
576/653 [=========================>....] - ETA: 0s - loss: 0.9561 - acc: 0.4896
653/653 [==============================] - 0s 504us/step - loss: 0.9593 - acc: 0.4931
Epoch 5/50

 64/653 [=>............................] - ETA: 0s - loss: 0.9288 - acc: 0.5000
192/653 [=======>......................] - ETA: 0s - loss: 0.9699 - acc: 0.4792
320/653 [=============>................] - ETA: 0s - loss: 0.9134 - acc: 0.4813
448/653 [===================>..........] - ETA: 0s - loss: 0.9064 - acc: 0.5067
576/653 [=========================>....] - ETA: 0s - loss: 0.9064 - acc: 0.5208
653/653 [==============================] - 0s 509us/step - loss: 0.8993 - acc: 0.5207
Epoch 6/50

 64/653 [=>............................] - ETA: 0s - loss: 0.9263 - acc: 0.4375
192/653 [=======>......................] - ETA: 0s - loss: 0.9481 - acc: 0.4896
320/653 [=============>................] - ETA: 0s - loss: 0.9229 - acc: 0.5031
448/653 [===================>..........] - ETA: 0s - loss: 0.9355 - acc: 0.4955
576/653 [=========================>....] - ETA: 0s - loss: 0.9423 - acc: 0.5052
653/653 [==============================] - 0s 503us/step - loss: 0.9580 - acc: 0.4977
Epoch 7/50

 64/653 [=>............................] - ETA: 0s - loss: 0.8250 - acc: 0.4844
192/653 [=======>......................] - ETA: 0s - loss: 0.7997 - acc: 0.4792
320/653 [=============>................] - ETA: 0s - loss: 0.8201 - acc: 0.4875
448/653 [===================>..........] - ETA: 0s - loss: 0.8400 - acc: 0.4955
576/653 [=========================>....] - ETA: 0s - loss: 0.8802 - acc: 0.4826
653/653 [==============================] - 0s 505us/step - loss: 0.8903 - acc: 0.4900
Epoch 8/50

 64/653 [=>............................] - ETA: 0s - loss: 0.9323 - acc: 0.5156
192/653 [=======>......................] - ETA: 0s - loss: 0.8204 - acc: 0.5573
320/653 [=============>................] - ETA: 0s - loss: 0.8426 - acc: 0.5406
448/653 [===================>..........] - ETA: 0s - loss: 0.8625 - acc: 0.5379
576/653 [=========================>....] - ETA: 0s - loss: 0.8782 - acc: 0.5521
653/653 [==============================] - 0s 499us/step - loss: 0.8822 - acc: 0.5421
Epoch 9/50

 64/653 [=>............................] - ETA: 0s - loss: 0.8260 - acc: 0.5312
192/653 [=======>......................] - ETA: 0s - loss: 0.8569 - acc: 0.5260
320/653 [=============>................] - ETA: 0s - loss: 0.8567 - acc: 0.5188
448/653 [===================>..........] - ETA: 0s - loss: 0.8647 - acc: 0.5246
576/653 [=========================>....] - ETA: 0s - loss: 0.8620 - acc: 0.5243
653/653 [==============================] - 0s 502us/step - loss: 0.8566 - acc: 0.5222
Epoch 10/50

 64/653 [=>............................] - ETA: 0s - loss: 0.9909 - acc: 0.4531
192/653 [=======>......................] - ETA: 0s - loss: 0.9062 - acc: 0.5052
320/653 [=============>................] - ETA: 0s - loss: 0.8972 - acc: 0.5031
448/653 [===================>..........] - ETA: 0s - loss: 0.8907 - acc: 0.5112
576/653 [=========================>....] - ETA: 0s - loss: 0.8737 - acc: 0.5208
653/653 [==============================] - 0s 513us/step - loss: 0.8844 - acc: 0.5207
Epoch 11/50

 64/653 [=>............................] - ETA: 0s - loss: 0.7640 - acc: 0.6406
192/653 [=======>......................] - ETA: 0s - loss: 0.7753 - acc: 0.5833
320/653 [=============>................] - ETA: 0s - loss: 0.8145 - acc: 0.5625
448/653 [===================>..........] - ETA: 0s - loss: 0.8045 - acc: 0.5580
576/653 [=========================>....] - ETA: 0s - loss: 0.8133 - acc: 0.5503
653/653 [==============================] - 0s 515us/step - loss: 0.8153 - acc: 0.5421
Epoch 12/50

 64/653 [=>............................] - ETA: 0s - loss: 0.7552 - acc: 0.5625
192/653 [=======>......................] - ETA: 0s - loss: 0.7406 - acc: 0.5521
320/653 [=============>................] - ETA: 0s - loss: 0.8059 - acc: 0.5375
448/653 [===================>..........] - ETA: 0s - loss: 0.7891 - acc: 0.5446
576/653 [=========================>....] - ETA: 0s - loss: 0.7959 - acc: 0.5451
653/653 [==============================] - 0s 510us/step - loss: 0.8088 - acc: 0.5329
Epoch 13/50

 64/653 [=>............................] - ETA: 0s - loss: 0.7686 - acc: 0.5469
192/653 [=======>......................] - ETA: 0s - loss: 0.8281 - acc: 0.5104
320/653 [=============>................] - ETA: 0s - loss: 0.8860 - acc: 0.4750
448/653 [===================>..........] - ETA: 0s - loss: 0.8642 - acc: 0.4888
576/653 [=========================>....] - ETA: 0s - loss: 0.8618 - acc: 0.5069
653/653 [==============================] - 0s 504us/step - loss: 0.8648 - acc: 0.5008
Epoch 14/50

 64/653 [=>............................] - ETA: 0s - loss: 0.8936 - acc: 0.5156
192/653 [=======>......................] - ETA: 0s - loss: 0.8209 - acc: 0.5156
320/653 [=============>................] - ETA: 0s - loss: 0.8054 - acc: 0.5406
448/653 [===================>..........] - ETA: 0s - loss: 0.8294 - acc: 0.5089
576/653 [=========================>....] - ETA: 0s - loss: 0.8103 - acc: 0.5191
653/653 [==============================] - 0s 518us/step - loss: 0.8097 - acc: 0.5222
Epoch 15/50

 64/653 [=>............................] - ETA: 0s - loss: 0.7185 - acc: 0.4844
192/653 [=======>......................] - ETA: 0s - loss: 0.7846 - acc: 0.5000
320/653 [=============>................] - ETA: 0s - loss: 0.7797 - acc: 0.5188
448/653 [===================>..........] - ETA: 0s - loss: 0.7688 - acc: 0.5357
576/653 [=========================>....] - ETA: 0s - loss: 0.7577 - acc: 0.5451
653/653 [==============================] - 0s 504us/step - loss: 0.7563 - acc: 0.5421
Epoch 16/50

 64/653 [=>............................] - ETA: 0s - loss: 0.9360 - acc: 0.3906
192/653 [=======>......................] - ETA: 0s - loss: 0.8857 - acc: 0.4688
320/653 [=============>................] - ETA: 0s - loss: 0.8516 - acc: 0.4906
448/653 [===================>..........] - ETA: 0s - loss: 0.8428 - acc: 0.4978
576/653 [=========================>....] - ETA: 0s - loss: 0.8295 - acc: 0.5069
653/653 [==============================] - 0s 541us/step - loss: 0.8211 - acc: 0.5115
Epoch 17/50

 64/653 [=>............................] - ETA: 0s - loss: 0.6385 - acc: 0.6094
192/653 [=======>......................] - ETA: 0s - loss: 0.6852 - acc: 0.5938
320/653 [=============>................] - ETA: 0s - loss: 0.7185 - acc: 0.5750
448/653 [===================>..........] - ETA: 0s - loss: 0.7079 - acc: 0.5848
576/653 [=========================>....] - ETA: 0s - loss: 0.7286 - acc: 0.5781
653/653 [==============================] - 0s 537us/step - loss: 0.7257 - acc: 0.5773
Epoch 18/50

 64/653 [=>............................] - ETA: 0s - loss: 0.7185 - acc: 0.5938
192/653 [=======>......................] - ETA: 0s - loss: 0.7504 - acc: 0.5625
320/653 [=============>................] - ETA: 0s - loss: 0.7415 - acc: 0.5719
448/653 [===================>..........] - ETA: 0s - loss: 0.7297 - acc: 0.5737
576/653 [=========================>....] - ETA: 0s - loss: 0.7161 - acc: 0.5885
653/653 [==============================] - 0s 526us/step - loss: 0.7293 - acc: 0.5942
Epoch 19/50

 64/653 [=>............................] - ETA: 0s - loss: 0.6854 - acc: 0.6406
192/653 [=======>......................] - ETA: 0s - loss: 0.7285 - acc: 0.5521
320/653 [=============>................] - ETA: 0s - loss: 0.7447 - acc: 0.5469
448/653 [===================>..........] - ETA: 0s - loss: 0.7457 - acc: 0.5558
576/653 [=========================>....] - ETA: 0s - loss: 0.7352 - acc: 0.5625
653/653 [==============================] - 0s 519us/step - loss: 0.7287 - acc: 0.5620
Epoch 20/50

 64/653 [=>............................] - ETA: 0s - loss: 0.6278 - acc: 0.5781
192/653 [=======>......................] - ETA: 0s - loss: 0.7248 - acc: 0.5573
320/653 [=============>................] - ETA: 0s - loss: 0.7214 - acc: 0.5531
448/653 [===================>..........] - ETA: 0s - loss: 0.7360 - acc: 0.5625
576/653 [=========================>....] - ETA: 0s - loss: 0.7365 - acc: 0.5625
653/653 [==============================] - 0s 551us/step - loss: 0.7489 - acc: 0.5436
Epoch 21/50

 64/653 [=>............................] - ETA: 0s - loss: 0.8153 - acc: 0.5000
192/653 [=======>......................] - ETA: 0s - loss: 0.7475 - acc: 0.5677
320/653 [=============>................] - ETA: 0s - loss: 0.7494 - acc: 0.5625
448/653 [===================>..........] - ETA: 0s - loss: 0.7300 - acc: 0.5603
576/653 [=========================>....] - ETA: 0s - loss: 0.7340 - acc: 0.5608
653/653 [==============================] - 0s 509us/step - loss: 0.7263 - acc: 0.5681
Epoch 22/50

 64/653 [=>............................] - ETA: 0s - loss: 0.6494 - acc: 0.6875
192/653 [=======>......................] - ETA: 0s - loss: 0.6688 - acc: 0.6250
320/653 [=============>................] - ETA: 0s - loss: 0.7185 - acc: 0.5875
448/653 [===================>..........] - ETA: 0s - loss: 0.7364 - acc: 0.5647
576/653 [=========================>....] - ETA: 0s - loss: 0.7151 - acc: 0.5694
653/653 [==============================] - 0s 516us/step - loss: 0.7244 - acc: 0.5666
Epoch 23/50

 64/653 [=>............................] - ETA: 0s - loss: 0.7966 - acc: 0.5000
192/653 [=======>......................] - ETA: 0s - loss: 0.7263 - acc: 0.5417
320/653 [=============>................] - ETA: 0s - loss: 0.7147 - acc: 0.5594
448/653 [===================>..........] - ETA: 0s - loss: 0.7191 - acc: 0.5759
576/653 [=========================>....] - ETA: 0s - loss: 0.6976 - acc: 0.5885
653/653 [==============================] - 0s 518us/step - loss: 0.7061 - acc: 0.5804
Epoch 24/50

 64/653 [=>............................] - ETA: 0s - loss: 0.8054 - acc: 0.5781
192/653 [=======>......................] - ETA: 0s - loss: 0.7735 - acc: 0.5469
320/653 [=============>................] - ETA: 0s - loss: 0.7518 - acc: 0.5750
448/653 [===================>..........] - ETA: 0s - loss: 0.7235 - acc: 0.5826
576/653 [=========================>....] - ETA: 0s - loss: 0.7237 - acc: 0.5868
653/653 [==============================] - 0s 525us/step - loss: 0.7261 - acc: 0.5773
Epoch 25/50

 64/653 [=>............................] - ETA: 0s - loss: 0.7049 - acc: 0.5938
192/653 [=======>......................] - ETA: 0s - loss: 0.6669 - acc: 0.5990
320/653 [=============>................] - ETA: 0s - loss: 0.6573 - acc: 0.6156
448/653 [===================>..........] - ETA: 0s - loss: 0.6904 - acc: 0.5804
576/653 [=========================>....] - ETA: 0s - loss: 0.6950 - acc: 0.5816
653/653 [==============================] - 0s 545us/step - loss: 0.6977 - acc: 0.5819
Epoch 26/50

 64/653 [=>............................] - ETA: 0s - loss: 0.7275 - acc: 0.5312
192/653 [=======>......................] - ETA: 0s - loss: 0.7220 - acc: 0.5625
320/653 [=============>................] - ETA: 0s - loss: 0.7018 - acc: 0.5844
448/653 [===================>..........] - ETA: 0s - loss: 0.6911 - acc: 0.5893
576/653 [=========================>....] - ETA: 0s - loss: 0.6869 - acc: 0.5955
653/653 [==============================] - 0s 515us/step - loss: 0.6892 - acc: 0.5926
Epoch 27/50

 64/653 [=>............................] - ETA: 0s - loss: 0.6732 - acc: 0.6250
192/653 [=======>......................] - ETA: 0s - loss: 0.6869 - acc: 0.5885
320/653 [=============>................] - ETA: 0s - loss: 0.6958 - acc: 0.5719
448/653 [===================>..........] - ETA: 0s - loss: 0.7192 - acc: 0.5759
576/653 [=========================>....] - ETA: 0s - loss: 0.7293 - acc: 0.5712
653/653 [==============================] - 0s 512us/step - loss: 0.7227 - acc: 0.5743
Epoch 28/50

 64/653 [=>............................] - ETA: 0s - loss: 0.8419 - acc: 0.3594
192/653 [=======>......................] - ETA: 0s - loss: 0.8119 - acc: 0.4948
320/653 [=============>................] - ETA: 0s - loss: 0.7812 - acc: 0.5219
448/653 [===================>..........] - ETA: 0s - loss: 0.7629 - acc: 0.5402
576/653 [=========================>....] - ETA: 0s - loss: 0.7589 - acc: 0.5312
653/653 [==============================] - 0s 524us/step - loss: 0.7602 - acc: 0.5360
Epoch 29/50

 64/653 [=>............................] - ETA: 0s - loss: 0.7656 - acc: 0.5156
192/653 [=======>......................] - ETA: 0s - loss: 0.7810 - acc: 0.5052
320/653 [=============>................] - ETA: 0s - loss: 0.7838 - acc: 0.4969
448/653 [===================>..........] - ETA: 0s - loss: 0.7651 - acc: 0.5067
576/653 [=========================>....] - ETA: 0s - loss: 0.7507 - acc: 0.5208
653/653 [==============================] - 0s 540us/step - loss: 0.7375 - acc: 0.5268
Epoch 30/50

 64/653 [=>............................] - ETA: 0s - loss: 0.8208 - acc: 0.5469
192/653 [=======>......................] - ETA: 0s - loss: 0.7728 - acc: 0.5052
320/653 [=============>................] - ETA: 0s - loss: 0.7626 - acc: 0.5344
448/653 [===================>..........] - ETA: 0s - loss: 0.7693 - acc: 0.5357
576/653 [=========================>....] - ETA: 0s - loss: 0.7653 - acc: 0.5451
653/653 [==============================] - 0s 517us/step - loss: 0.7679 - acc: 0.5406
Epoch 31/50

 64/653 [=>............................] - ETA: 0s - loss: 0.7366 - acc: 0.5625
192/653 [=======>......................] - ETA: 0s - loss: 0.7396 - acc: 0.5677
320/653 [=============>................] - ETA: 0s - loss: 0.7307 - acc: 0.5531
448/653 [===================>..........] - ETA: 0s - loss: 0.7105 - acc: 0.5692
576/653 [=========================>....] - ETA: 0s - loss: 0.7145 - acc: 0.5781
653/653 [==============================] - 0s 523us/step - loss: 0.7142 - acc: 0.5758
Epoch 32/50

 64/653 [=>............................] - ETA: 0s - loss: 0.7624 - acc: 0.5000
192/653 [=======>......................] - ETA: 0s - loss: 0.7537 - acc: 0.5260
320/653 [=============>................] - ETA: 0s - loss: 0.7632 - acc: 0.5281
448/653 [===================>..........] - ETA: 0s - loss: 0.7514 - acc: 0.5312
576/653 [=========================>....] - ETA: 0s - loss: 0.7375 - acc: 0.5486
653/653 [==============================] - 0s 521us/step - loss: 0.7297 - acc: 0.5574
Epoch 33/50

 64/653 [=>............................] - ETA: 0s - loss: 0.7525 - acc: 0.4219
192/653 [=======>......................] - ETA: 0s - loss: 0.7411 - acc: 0.5000
320/653 [=============>................] - ETA: 0s - loss: 0.7247 - acc: 0.5375
448/653 [===================>..........] - ETA: 0s - loss: 0.7188 - acc: 0.5580
576/653 [=========================>....] - ETA: 0s - loss: 0.7256 - acc: 0.5399
653/653 [==============================] - 0s 517us/step - loss: 0.7129 - acc: 0.5513
Epoch 34/50

 64/653 [=>............................] - ETA: 0s - loss: 0.7713 - acc: 0.4844
192/653 [=======>......................] - ETA: 0s - loss: 0.7120 - acc: 0.5573
320/653 [=============>................] - ETA: 0s - loss: 0.6925 - acc: 0.5813
448/653 [===================>..........] - ETA: 0s - loss: 0.6973 - acc: 0.5759
576/653 [=========================>....] - ETA: 0s - loss: 0.6984 - acc: 0.5694
653/653 [==============================] - 0s 526us/step - loss: 0.7032 - acc: 0.5681
Epoch 35/50

 64/653 [=>............................] - ETA: 0s - loss: 0.7325 - acc: 0.5000
192/653 [=======>......................] - ETA: 0s - loss: 0.7017 - acc: 0.5312
320/653 [=============>................] - ETA: 0s - loss: 0.7157 - acc: 0.5250
448/653 [===================>..........] - ETA: 0s - loss: 0.7098 - acc: 0.5335
576/653 [=========================>....] - ETA: 0s - loss: 0.6969 - acc: 0.5521
653/653 [==============================] - 0s 520us/step - loss: 0.7003 - acc: 0.5498
Epoch 36/50

 64/653 [=>............................] - ETA: 0s - loss: 0.6808 - acc: 0.5312
192/653 [=======>......................] - ETA: 0s - loss: 0.6748 - acc: 0.5781
320/653 [=============>................] - ETA: 0s - loss: 0.6806 - acc: 0.5719
448/653 [===================>..........] - ETA: 0s - loss: 0.6928 - acc: 0.5647
576/653 [=========================>....] - ETA: 0s - loss: 0.7000 - acc: 0.5590
653/653 [==============================] - 0s 522us/step - loss: 0.7176 - acc: 0.5406
Epoch 37/50

 64/653 [=>............................] - ETA: 0s - loss: 0.7336 - acc: 0.4844
192/653 [=======>......................] - ETA: 0s - loss: 0.7136 - acc: 0.5469
320/653 [=============>................] - ETA: 0s - loss: 0.7030 - acc: 0.5781
448/653 [===================>..........] - ETA: 0s - loss: 0.7008 - acc: 0.5871
576/653 [=========================>....] - ETA: 0s - loss: 0.7025 - acc: 0.5729
653/653 [==============================] - 0s 527us/step - loss: 0.7046 - acc: 0.5666
Epoch 38/50

 64/653 [=>............................] - ETA: 0s - loss: 0.7084 - acc: 0.5938
192/653 [=======>......................] - ETA: 0s - loss: 0.7306 - acc: 0.5781
320/653 [=============>................] - ETA: 0s - loss: 0.7151 - acc: 0.5656
448/653 [===================>..........] - ETA: 0s - loss: 0.7170 - acc: 0.5424
576/653 [=========================>....] - ETA: 0s - loss: 0.7007 - acc: 0.5677
653/653 [==============================] - 0s 523us/step - loss: 0.7027 - acc: 0.5620
Epoch 39/50

 64/653 [=>............................] - ETA: 0s - loss: 0.6784 - acc: 0.6406
192/653 [=======>......................] - ETA: 0s - loss: 0.6970 - acc: 0.5781
320/653 [=============>................] - ETA: 0s - loss: 0.6787 - acc: 0.5813
448/653 [===================>..........] - ETA: 0s - loss: 0.6815 - acc: 0.5848
576/653 [=========================>....] - ETA: 0s - loss: 0.6896 - acc: 0.5747
653/653 [==============================] - 0s 520us/step - loss: 0.6865 - acc: 0.5835
Epoch 40/50

 64/653 [=>............................] - ETA: 0s - loss: 0.6984 - acc: 0.5781
192/653 [=======>......................] - ETA: 0s - loss: 0.7304 - acc: 0.5260
320/653 [=============>................] - ETA: 0s - loss: 0.7287 - acc: 0.5312
448/653 [===================>..........] - ETA: 0s - loss: 0.7113 - acc: 0.5603
576/653 [=========================>....] - ETA: 0s - loss: 0.7021 - acc: 0.5660
653/653 [==============================] - 0s 531us/step - loss: 0.7050 - acc: 0.5605
Epoch 41/50

 64/653 [=>............................] - ETA: 0s - loss: 0.7836 - acc: 0.5000
192/653 [=======>......................] - ETA: 0s - loss: 0.7604 - acc: 0.4948
320/653 [=============>................] - ETA: 0s - loss: 0.7313 - acc: 0.5312
448/653 [===================>..........] - ETA: 0s - loss: 0.7254 - acc: 0.5223
576/653 [=========================>....] - ETA: 0s - loss: 0.7262 - acc: 0.5260
653/653 [==============================] - 0s 530us/step - loss: 0.7149 - acc: 0.5329
Epoch 42/50

 64/653 [=>............................] - ETA: 0s - loss: 0.6557 - acc: 0.5781
192/653 [=======>......................] - ETA: 0s - loss: 0.6815 - acc: 0.5833
320/653 [=============>................] - ETA: 0s - loss: 0.6755 - acc: 0.6094
448/653 [===================>..........] - ETA: 0s - loss: 0.6935 - acc: 0.5871
576/653 [=========================>....] - ETA: 0s - loss: 0.6922 - acc: 0.5833
653/653 [==============================] - 0s 535us/step - loss: 0.6869 - acc: 0.5804
Epoch 43/50

 64/653 [=>............................] - ETA: 0s - loss: 0.6468 - acc: 0.6094
192/653 [=======>......................] - ETA: 0s - loss: 0.6651 - acc: 0.5781
320/653 [=============>................] - ETA: 0s - loss: 0.6718 - acc: 0.5969
448/653 [===================>..........] - ETA: 0s - loss: 0.6744 - acc: 0.5982
576/653 [=========================>....] - ETA: 0s - loss: 0.6829 - acc: 0.5833
653/653 [==============================] - 0s 533us/step - loss: 0.6783 - acc: 0.5819
Epoch 44/50

 64/653 [=>............................] - ETA: 0s - loss: 0.6454 - acc: 0.6562
192/653 [=======>......................] - ETA: 0s - loss: 0.6561 - acc: 0.5833
320/653 [=============>................] - ETA: 0s - loss: 0.6599 - acc: 0.5594
448/653 [===================>..........] - ETA: 0s - loss: 0.6714 - acc: 0.5603
576/653 [=========================>....] - ETA: 0s - loss: 0.6742 - acc: 0.5781
653/653 [==============================] - 0s 523us/step - loss: 0.6741 - acc: 0.5743
Epoch 45/50

 64/653 [=>............................] - ETA: 0s - loss: 0.6901 - acc: 0.6094
192/653 [=======>......................] - ETA: 0s - loss: 0.6874 - acc: 0.5990
320/653 [=============>................] - ETA: 0s - loss: 0.7047 - acc: 0.5781
448/653 [===================>..........] - ETA: 0s - loss: 0.6959 - acc: 0.5893
576/653 [=========================>....] - ETA: 0s - loss: 0.6963 - acc: 0.5868
653/653 [==============================] - 0s 531us/step - loss: 0.6975 - acc: 0.5835
Epoch 46/50

 64/653 [=>............................] - ETA: 0s - loss: 0.6498 - acc: 0.5625
192/653 [=======>......................] - ETA: 0s - loss: 0.6639 - acc: 0.5625
320/653 [=============>................] - ETA: 0s - loss: 0.6761 - acc: 0.5594
448/653 [===================>..........] - ETA: 0s - loss: 0.6623 - acc: 0.5915
576/653 [=========================>....] - ETA: 0s - loss: 0.6661 - acc: 0.5990
653/653 [==============================] - 0s 524us/step - loss: 0.6720 - acc: 0.5988
Epoch 47/50

 64/653 [=>............................] - ETA: 0s - loss: 0.6679 - acc: 0.5625
192/653 [=======>......................] - ETA: 0s - loss: 0.6671 - acc: 0.6094
320/653 [=============>................] - ETA: 0s - loss: 0.6553 - acc: 0.6062
448/653 [===================>..........] - ETA: 0s - loss: 0.6600 - acc: 0.6004
576/653 [=========================>....] - ETA: 0s - loss: 0.6658 - acc: 0.5972
653/653 [==============================] - 0s 520us/step - loss: 0.6690 - acc: 0.5865
Epoch 48/50

 64/653 [=>............................] - ETA: 0s - loss: 0.6684 - acc: 0.5469
192/653 [=======>......................] - ETA: 0s - loss: 0.6823 - acc: 0.5729
320/653 [=============>................] - ETA: 0s - loss: 0.6820 - acc: 0.5563
448/653 [===================>..........] - ETA: 0s - loss: 0.6800 - acc: 0.5670
576/653 [=========================>....] - ETA: 0s - loss: 0.6779 - acc: 0.5712
653/653 [==============================] - 0s 528us/step - loss: 0.6789 - acc: 0.5727
Epoch 49/50

 64/653 [=>............................] - ETA: 0s - loss: 0.6723 - acc: 0.5781
192/653 [=======>......................] - ETA: 0s - loss: 0.6600 - acc: 0.5885
320/653 [=============>................] - ETA: 0s - loss: 0.6437 - acc: 0.6312
448/653 [===================>..........] - ETA: 0s - loss: 0.6524 - acc: 0.6138
576/653 [=========================>....] - ETA: 0s - loss: 0.6581 - acc: 0.6111
653/653 [==============================] - 0s 531us/step - loss: 0.6534 - acc: 0.6156
Epoch 50/50

 64/653 [=>............................] - ETA: 0s - loss: 0.6518 - acc: 0.6250
192/653 [=======>......................] - ETA: 0s - loss: 0.6591 - acc: 0.6094
320/653 [=============>................] - ETA: 0s - loss: 0.6597 - acc: 0.6250
448/653 [===================>..........] - ETA: 0s - loss: 0.6588 - acc: 0.6071
576/653 [=========================>....] - ETA: 0s - loss: 0.6518 - acc: 0.6215
653/653 [==============================] - 0s 523us/step - loss: 0.6553 - acc: 0.6202

 64/218 [=======>......................] - ETA: 0s
218/218 [==============================] - 0s 751us/step

 64/653 [=>............................] - ETA: 0s
256/653 [==========>...................] - ETA: 0s
448/653 [===================>..........] - ETA: 0s
640/653 [============================>.] - ETA: 0s
653/653 [==============================] - 0s 301us/step
Killing tensorboard...
Done!
