thtools.__init__.py > running xstream path fixes
Epoch 1/50

 64/436 [===>..........................] - ETA: 21s - loss: 0.8733 - acc: 0.6094
192/436 [============>.................] - ETA: 4s - loss: 1.0051 - acc: 0.5469 
320/436 [=====================>........] - ETA: 1s - loss: 1.0949 - acc: 0.5219
436/436 [==============================] - 4s 9ms/step - loss: 1.1691 - acc: 0.5115
Epoch 2/50

 64/436 [===>..........................] - ETA: 0s - loss: 1.1346 - acc: 0.4375
192/436 [============>.................] - ETA: 0s - loss: 1.0799 - acc: 0.5000
320/436 [=====================>........] - ETA: 0s - loss: 1.0866 - acc: 0.5031
436/436 [==============================] - 0s 506us/step - loss: 1.0494 - acc: 0.5298
Epoch 3/50

 64/436 [===>..........................] - ETA: 0s - loss: 1.2032 - acc: 0.4688
192/436 [============>.................] - ETA: 0s - loss: 1.0093 - acc: 0.5000
320/436 [=====================>........] - ETA: 0s - loss: 1.0469 - acc: 0.4594
436/436 [==============================] - 0s 516us/step - loss: 1.0130 - acc: 0.4839
Epoch 4/50

 64/436 [===>..........................] - ETA: 0s - loss: 1.0964 - acc: 0.5000
192/436 [============>.................] - ETA: 0s - loss: 1.0704 - acc: 0.5000
320/436 [=====================>........] - ETA: 0s - loss: 1.0557 - acc: 0.4906
436/436 [==============================] - 0s 516us/step - loss: 1.0185 - acc: 0.4862
Epoch 5/50

 64/436 [===>..........................] - ETA: 0s - loss: 0.9492 - acc: 0.4688
192/436 [============>.................] - ETA: 0s - loss: 0.9371 - acc: 0.5208
320/436 [=====================>........] - ETA: 0s - loss: 0.9227 - acc: 0.5250
436/436 [==============================] - 0s 507us/step - loss: 0.9484 - acc: 0.5069
Epoch 6/50

 64/436 [===>..........................] - ETA: 0s - loss: 0.9254 - acc: 0.5781
192/436 [============>.................] - ETA: 0s - loss: 0.9543 - acc: 0.5000
320/436 [=====================>........] - ETA: 0s - loss: 0.9541 - acc: 0.5281
436/436 [==============================] - 0s 509us/step - loss: 0.9910 - acc: 0.5161
Epoch 7/50

 64/436 [===>..........................] - ETA: 0s - loss: 0.9610 - acc: 0.5312
192/436 [============>.................] - ETA: 0s - loss: 1.0088 - acc: 0.5469
320/436 [=====================>........] - ETA: 0s - loss: 0.9896 - acc: 0.5469
436/436 [==============================] - 0s 502us/step - loss: 0.9629 - acc: 0.5413
Epoch 8/50

 64/436 [===>..........................] - ETA: 0s - loss: 1.0246 - acc: 0.5312
192/436 [============>.................] - ETA: 0s - loss: 0.9940 - acc: 0.5365
320/436 [=====================>........] - ETA: 0s - loss: 0.9701 - acc: 0.5437
436/436 [==============================] - 0s 520us/step - loss: 0.9753 - acc: 0.5413
Epoch 9/50

 64/436 [===>..........................] - ETA: 0s - loss: 0.9499 - acc: 0.4375
192/436 [============>.................] - ETA: 0s - loss: 0.9550 - acc: 0.4635
320/436 [=====================>........] - ETA: 0s - loss: 0.9291 - acc: 0.4656
436/436 [==============================] - 0s 519us/step - loss: 0.9491 - acc: 0.4633
Epoch 10/50

 64/436 [===>..........................] - ETA: 0s - loss: 0.7591 - acc: 0.6094
192/436 [============>.................] - ETA: 0s - loss: 0.9036 - acc: 0.5312
320/436 [=====================>........] - ETA: 0s - loss: 0.9767 - acc: 0.5188
436/436 [==============================] - 0s 519us/step - loss: 0.9685 - acc: 0.5046
Epoch 11/50

 64/436 [===>..........................] - ETA: 0s - loss: 0.9583 - acc: 0.4688
192/436 [============>.................] - ETA: 0s - loss: 1.0626 - acc: 0.5000
320/436 [=====================>........] - ETA: 0s - loss: 0.9989 - acc: 0.5188
436/436 [==============================] - 0s 518us/step - loss: 0.9339 - acc: 0.5344
Epoch 12/50

 64/436 [===>..........................] - ETA: 0s - loss: 0.9956 - acc: 0.4844
192/436 [============>.................] - ETA: 0s - loss: 0.9357 - acc: 0.4948
320/436 [=====================>........] - ETA: 0s - loss: 0.9177 - acc: 0.5031
436/436 [==============================] - 0s 519us/step - loss: 0.9210 - acc: 0.5000
Epoch 13/50

 64/436 [===>..........................] - ETA: 0s - loss: 1.0881 - acc: 0.4219
192/436 [============>.................] - ETA: 0s - loss: 0.9699 - acc: 0.5417
320/436 [=====================>........] - ETA: 0s - loss: 0.9259 - acc: 0.5406
436/436 [==============================] - 0s 521us/step - loss: 0.9567 - acc: 0.5275
Epoch 14/50

 64/436 [===>..........................] - ETA: 0s - loss: 0.9733 - acc: 0.5469
192/436 [============>.................] - ETA: 0s - loss: 0.9111 - acc: 0.5208
320/436 [=====================>........] - ETA: 0s - loss: 0.9176 - acc: 0.5312
436/436 [==============================] - 0s 522us/step - loss: 0.8855 - acc: 0.5505
Epoch 15/50

 64/436 [===>..........................] - ETA: 0s - loss: 0.8298 - acc: 0.5781
192/436 [============>.................] - ETA: 0s - loss: 0.7557 - acc: 0.6198
320/436 [=====================>........] - ETA: 0s - loss: 0.7803 - acc: 0.5719
436/436 [==============================] - 0s 514us/step - loss: 0.8134 - acc: 0.5550
Epoch 16/50

 64/436 [===>..........................] - ETA: 0s - loss: 0.8043 - acc: 0.6250
192/436 [============>.................] - ETA: 0s - loss: 0.8094 - acc: 0.5938
320/436 [=====================>........] - ETA: 0s - loss: 0.7961 - acc: 0.6156
436/436 [==============================] - 0s 512us/step - loss: 0.8122 - acc: 0.5986
Epoch 17/50

 64/436 [===>..........................] - ETA: 0s - loss: 0.6307 - acc: 0.6562
192/436 [============>.................] - ETA: 0s - loss: 0.7998 - acc: 0.5938
320/436 [=====================>........] - ETA: 0s - loss: 0.8239 - acc: 0.5656
436/436 [==============================] - 0s 534us/step - loss: 0.8106 - acc: 0.5711
Epoch 18/50

 64/436 [===>..........................] - ETA: 0s - loss: 0.9985 - acc: 0.5312
192/436 [============>.................] - ETA: 0s - loss: 0.8329 - acc: 0.5625
320/436 [=====================>........] - ETA: 0s - loss: 0.8598 - acc: 0.5563
436/436 [==============================] - 0s 519us/step - loss: 0.8586 - acc: 0.5413
Epoch 19/50

 64/436 [===>..........................] - ETA: 0s - loss: 0.8517 - acc: 0.5938
192/436 [============>.................] - ETA: 0s - loss: 0.9087 - acc: 0.5312
320/436 [=====================>........] - ETA: 0s - loss: 0.8489 - acc: 0.5625
436/436 [==============================] - 0s 522us/step - loss: 0.8215 - acc: 0.5711
Epoch 20/50

 64/436 [===>..........................] - ETA: 0s - loss: 0.7831 - acc: 0.5781
192/436 [============>.................] - ETA: 0s - loss: 0.8323 - acc: 0.5677
320/436 [=====================>........] - ETA: 0s - loss: 0.8079 - acc: 0.5719
436/436 [==============================] - 0s 526us/step - loss: 0.7920 - acc: 0.5849
Epoch 21/50

 64/436 [===>..........................] - ETA: 0s - loss: 0.7402 - acc: 0.5781
192/436 [============>.................] - ETA: 0s - loss: 0.7132 - acc: 0.6042
320/436 [=====================>........] - ETA: 0s - loss: 0.7219 - acc: 0.5844
436/436 [==============================] - 0s 540us/step - loss: 0.7184 - acc: 0.5940
Epoch 22/50

 64/436 [===>..........................] - ETA: 0s - loss: 0.7665 - acc: 0.5469
192/436 [============>.................] - ETA: 0s - loss: 0.7707 - acc: 0.5677
320/436 [=====================>........] - ETA: 0s - loss: 0.7559 - acc: 0.5844
436/436 [==============================] - 0s 530us/step - loss: 0.7068 - acc: 0.6307
Epoch 23/50

 64/436 [===>..........................] - ETA: 0s - loss: 0.6379 - acc: 0.6875
192/436 [============>.................] - ETA: 0s - loss: 0.7190 - acc: 0.6250
320/436 [=====================>........] - ETA: 0s - loss: 0.6814 - acc: 0.6375
436/436 [==============================] - 0s 521us/step - loss: 0.6934 - acc: 0.6193
Epoch 24/50

 64/436 [===>..........................] - ETA: 0s - loss: 0.7848 - acc: 0.6406
192/436 [============>.................] - ETA: 0s - loss: 0.7151 - acc: 0.6615
320/436 [=====================>........] - ETA: 0s - loss: 0.7424 - acc: 0.6094
436/436 [==============================] - 0s 531us/step - loss: 0.7464 - acc: 0.5940
Epoch 25/50

 64/436 [===>..........................] - ETA: 0s - loss: 0.7410 - acc: 0.6094
192/436 [============>.................] - ETA: 0s - loss: 0.7884 - acc: 0.5729
320/436 [=====================>........] - ETA: 0s - loss: 0.7460 - acc: 0.5938
436/436 [==============================] - 0s 502us/step - loss: 0.7466 - acc: 0.5963
Epoch 26/50

 64/436 [===>..........................] - ETA: 0s - loss: 0.7348 - acc: 0.6875
192/436 [============>.................] - ETA: 0s - loss: 0.7483 - acc: 0.6458
320/436 [=====================>........] - ETA: 0s - loss: 0.7431 - acc: 0.6469
436/436 [==============================] - 0s 497us/step - loss: 0.7434 - acc: 0.6376
Epoch 27/50

 64/436 [===>..........................] - ETA: 0s - loss: 0.7329 - acc: 0.6719
192/436 [============>.................] - ETA: 0s - loss: 0.7357 - acc: 0.6094
320/436 [=====================>........] - ETA: 0s - loss: 0.7057 - acc: 0.6125
436/436 [==============================] - 0s 567us/step - loss: 0.6901 - acc: 0.6261
Epoch 28/50

 64/436 [===>..........................] - ETA: 0s - loss: 0.5237 - acc: 0.8125
192/436 [============>.................] - ETA: 0s - loss: 0.5313 - acc: 0.7865
320/436 [=====================>........] - ETA: 0s - loss: 0.5726 - acc: 0.7469
436/436 [==============================] - 0s 555us/step - loss: 0.5907 - acc: 0.7362
Epoch 29/50

 64/436 [===>..........................] - ETA: 0s - loss: 0.5660 - acc: 0.6875
192/436 [============>.................] - ETA: 0s - loss: 0.5847 - acc: 0.6927
320/436 [=====================>........] - ETA: 0s - loss: 0.5820 - acc: 0.6937
436/436 [==============================] - 0s 511us/step - loss: 0.5935 - acc: 0.6858
Epoch 30/50

 64/436 [===>..........................] - ETA: 0s - loss: 0.4783 - acc: 0.8438
192/436 [============>.................] - ETA: 0s - loss: 0.6094 - acc: 0.7292
320/436 [=====================>........] - ETA: 0s - loss: 0.6020 - acc: 0.7281
436/436 [==============================] - 0s 491us/step - loss: 0.6096 - acc: 0.7087
Epoch 31/50

 64/436 [===>..........................] - ETA: 0s - loss: 0.6011 - acc: 0.7344
192/436 [============>.................] - ETA: 0s - loss: 0.6376 - acc: 0.6615
320/436 [=====================>........] - ETA: 0s - loss: 0.5913 - acc: 0.6937
436/436 [==============================] - 0s 489us/step - loss: 0.5885 - acc: 0.6881
Epoch 32/50

 64/436 [===>..........................] - ETA: 0s - loss: 0.6910 - acc: 0.6719
192/436 [============>.................] - ETA: 0s - loss: 0.5747 - acc: 0.7292
320/436 [=====================>........] - ETA: 0s - loss: 0.5633 - acc: 0.7250
436/436 [==============================] - 0s 486us/step - loss: 0.5665 - acc: 0.7041
Epoch 33/50

 64/436 [===>..........................] - ETA: 0s - loss: 0.4874 - acc: 0.7656
192/436 [============>.................] - ETA: 0s - loss: 0.5501 - acc: 0.7552
320/436 [=====================>........] - ETA: 0s - loss: 0.5528 - acc: 0.7469
436/436 [==============================] - 0s 501us/step - loss: 0.5541 - acc: 0.7408
Epoch 34/50

 64/436 [===>..........................] - ETA: 0s - loss: 0.5800 - acc: 0.7656
192/436 [============>.................] - ETA: 0s - loss: 0.5331 - acc: 0.7448
320/436 [=====================>........] - ETA: 0s - loss: 0.5069 - acc: 0.7719
436/436 [==============================] - 0s 493us/step - loss: 0.5404 - acc: 0.7569
Epoch 35/50

 64/436 [===>..........................] - ETA: 0s - loss: 0.5398 - acc: 0.7812
192/436 [============>.................] - ETA: 0s - loss: 0.5174 - acc: 0.7760
320/436 [=====================>........] - ETA: 0s - loss: 0.5311 - acc: 0.7719
436/436 [==============================] - 0s 492us/step - loss: 0.5325 - acc: 0.7638
Epoch 36/50

 64/436 [===>..........................] - ETA: 0s - loss: 0.6011 - acc: 0.7031
192/436 [============>.................] - ETA: 0s - loss: 0.5523 - acc: 0.7344
320/436 [=====================>........] - ETA: 0s - loss: 0.5377 - acc: 0.7469
436/436 [==============================] - 0s 488us/step - loss: 0.5194 - acc: 0.7477
Epoch 37/50

 64/436 [===>..........................] - ETA: 0s - loss: 0.5499 - acc: 0.7188
192/436 [============>.................] - ETA: 0s - loss: 0.5556 - acc: 0.7240
320/436 [=====================>........] - ETA: 0s - loss: 0.5318 - acc: 0.7469
436/436 [==============================] - 0s 503us/step - loss: 0.5383 - acc: 0.7592
Epoch 38/50

 64/436 [===>..........................] - ETA: 0s - loss: 0.5543 - acc: 0.7188
192/436 [============>.................] - ETA: 0s - loss: 0.5260 - acc: 0.7604
320/436 [=====================>........] - ETA: 0s - loss: 0.5372 - acc: 0.7469
436/436 [==============================] - 0s 510us/step - loss: 0.5343 - acc: 0.7454
Epoch 39/50

 64/436 [===>..........................] - ETA: 0s - loss: 0.3922 - acc: 0.8594
192/436 [============>.................] - ETA: 0s - loss: 0.5220 - acc: 0.7969
320/436 [=====================>........] - ETA: 0s - loss: 0.5192 - acc: 0.7937
436/436 [==============================] - 0s 503us/step - loss: 0.5320 - acc: 0.7729
Epoch 40/50

 64/436 [===>..........................] - ETA: 0s - loss: 0.4637 - acc: 0.8281
192/436 [============>.................] - ETA: 0s - loss: 0.5026 - acc: 0.8177
320/436 [=====================>........] - ETA: 0s - loss: 0.4891 - acc: 0.8156
436/436 [==============================] - 0s 509us/step - loss: 0.5036 - acc: 0.8096
Epoch 41/50

 64/436 [===>..........................] - ETA: 0s - loss: 0.5525 - acc: 0.7500
192/436 [============>.................] - ETA: 0s - loss: 0.6240 - acc: 0.7135
320/436 [=====================>........] - ETA: 0s - loss: 0.5975 - acc: 0.7219
436/436 [==============================] - 0s 502us/step - loss: 0.5707 - acc: 0.7248
Epoch 42/50

 64/436 [===>..........................] - ETA: 0s - loss: 0.4439 - acc: 0.8125
192/436 [============>.................] - ETA: 0s - loss: 0.4478 - acc: 0.8177
320/436 [=====================>........] - ETA: 0s - loss: 0.4580 - acc: 0.8031
436/436 [==============================] - 0s 496us/step - loss: 0.4500 - acc: 0.8142
Epoch 43/50

 64/436 [===>..........................] - ETA: 0s - loss: 0.4378 - acc: 0.8438
192/436 [============>.................] - ETA: 0s - loss: 0.5018 - acc: 0.7917
320/436 [=====================>........] - ETA: 0s - loss: 0.4775 - acc: 0.8063
436/436 [==============================] - 0s 497us/step - loss: 0.4815 - acc: 0.8028
Epoch 44/50

 64/436 [===>..........................] - ETA: 0s - loss: 0.4652 - acc: 0.7812
192/436 [============>.................] - ETA: 0s - loss: 0.4594 - acc: 0.7917
320/436 [=====================>........] - ETA: 0s - loss: 0.4534 - acc: 0.8031
436/436 [==============================] - 0s 490us/step - loss: 0.4387 - acc: 0.8211
Epoch 45/50

 64/436 [===>..........................] - ETA: 0s - loss: 0.3720 - acc: 0.8281
192/436 [============>.................] - ETA: 0s - loss: 0.4340 - acc: 0.7917
320/436 [=====================>........] - ETA: 0s - loss: 0.4581 - acc: 0.7969
436/436 [==============================] - 0s 494us/step - loss: 0.4783 - acc: 0.7844
Epoch 46/50

 64/436 [===>..........................] - ETA: 0s - loss: 0.3631 - acc: 0.8750
192/436 [============>.................] - ETA: 0s - loss: 0.3882 - acc: 0.8594
320/436 [=====================>........] - ETA: 0s - loss: 0.4059 - acc: 0.8281
436/436 [==============================] - 0s 488us/step - loss: 0.4044 - acc: 0.8257
Epoch 47/50

 64/436 [===>..........................] - ETA: 0s - loss: 0.4652 - acc: 0.8125
192/436 [============>.................] - ETA: 0s - loss: 0.4069 - acc: 0.8438
320/436 [=====================>........] - ETA: 0s - loss: 0.4078 - acc: 0.8375
436/436 [==============================] - 0s 495us/step - loss: 0.4023 - acc: 0.8303
Epoch 48/50

 64/436 [===>..........................] - ETA: 0s - loss: 0.5293 - acc: 0.8125
192/436 [============>.................] - ETA: 0s - loss: 0.4578 - acc: 0.8125
320/436 [=====================>........] - ETA: 0s - loss: 0.4441 - acc: 0.8313
436/436 [==============================] - 0s 487us/step - loss: 0.4274 - acc: 0.8417
Epoch 49/50

 64/436 [===>..........................] - ETA: 0s - loss: 0.3437 - acc: 0.8750
192/436 [============>.................] - ETA: 0s - loss: 0.4096 - acc: 0.8229
320/436 [=====================>........] - ETA: 0s - loss: 0.4187 - acc: 0.8250
436/436 [==============================] - 0s 487us/step - loss: 0.3990 - acc: 0.8280
Epoch 50/50

 64/436 [===>..........................] - ETA: 0s - loss: 0.3462 - acc: 0.8594
192/436 [============>.................] - ETA: 0s - loss: 0.3804 - acc: 0.8802
320/436 [=====================>........] - ETA: 0s - loss: 0.3816 - acc: 0.8656
436/436 [==============================] - 0s 487us/step - loss: 0.3676 - acc: 0.8693

 64/218 [=======>......................] - ETA: 0s
218/218 [==============================] - 0s 662us/step

 64/436 [===>..........................] - ETA: 0s
256/436 [================>.............] - ETA: 0s
436/436 [==============================] - 0s 262us/step
Killing tensorboard...
Done!
