thtools.__init__.py > running xstream path fixes
Epoch 1/50

 64/436 [===>..........................] - ETA: 9s - loss: 0.9189 - acc: 0.5781
192/436 [============>.................] - ETA: 2s - loss: 1.0547 - acc: 0.5104
320/436 [=====================>........] - ETA: 0s - loss: 0.9995 - acc: 0.5094
436/436 [==============================] - 2s 4ms/step - loss: 1.0060 - acc: 0.5115
Epoch 2/50

 64/436 [===>..........................] - ETA: 0s - loss: 0.8421 - acc: 0.6250
192/436 [============>.................] - ETA: 0s - loss: 0.9051 - acc: 0.5625
320/436 [=====================>........] - ETA: 0s - loss: 0.9036 - acc: 0.5563
436/436 [==============================] - 0s 528us/step - loss: 0.8938 - acc: 0.5459
Epoch 3/50

 64/436 [===>..........................] - ETA: 0s - loss: 0.9730 - acc: 0.5156
192/436 [============>.................] - ETA: 0s - loss: 0.8828 - acc: 0.5573
320/436 [=====================>........] - ETA: 0s - loss: 0.8352 - acc: 0.5563
436/436 [==============================] - 0s 520us/step - loss: 0.8216 - acc: 0.5642
Epoch 4/50

 64/436 [===>..........................] - ETA: 0s - loss: 0.8710 - acc: 0.6562
192/436 [============>.................] - ETA: 0s - loss: 0.8928 - acc: 0.5573
320/436 [=====================>........] - ETA: 0s - loss: 0.8589 - acc: 0.5375
436/436 [==============================] - 0s 506us/step - loss: 0.8303 - acc: 0.5482
Epoch 5/50

 64/436 [===>..........................] - ETA: 0s - loss: 0.6517 - acc: 0.6250
192/436 [============>.................] - ETA: 0s - loss: 0.7648 - acc: 0.5729
320/436 [=====================>........] - ETA: 0s - loss: 0.8086 - acc: 0.5437
436/436 [==============================] - 0s 537us/step - loss: 0.7940 - acc: 0.5505
Epoch 6/50

 64/436 [===>..........................] - ETA: 0s - loss: 0.8240 - acc: 0.5938
192/436 [============>.................] - ETA: 0s - loss: 0.7656 - acc: 0.5833
320/436 [=====================>........] - ETA: 0s - loss: 0.7740 - acc: 0.5781
436/436 [==============================] - 0s 544us/step - loss: 0.7958 - acc: 0.5734
Epoch 7/50

 64/436 [===>..........................] - ETA: 0s - loss: 0.7739 - acc: 0.5000
192/436 [============>.................] - ETA: 0s - loss: 0.7208 - acc: 0.5781
320/436 [=====================>........] - ETA: 0s - loss: 0.6742 - acc: 0.6156
436/436 [==============================] - 0s 525us/step - loss: 0.6566 - acc: 0.6330
Epoch 8/50

 64/436 [===>..........................] - ETA: 0s - loss: 0.8467 - acc: 0.5625
192/436 [============>.................] - ETA: 0s - loss: 0.6868 - acc: 0.6094
320/436 [=====================>........] - ETA: 0s - loss: 0.6718 - acc: 0.6344
436/436 [==============================] - 0s 532us/step - loss: 0.6621 - acc: 0.6284
Epoch 9/50

 64/436 [===>..........................] - ETA: 0s - loss: 0.5848 - acc: 0.6562
192/436 [============>.................] - ETA: 0s - loss: 0.6457 - acc: 0.6302
320/436 [=====================>........] - ETA: 0s - loss: 0.6399 - acc: 0.6406
436/436 [==============================] - 0s 531us/step - loss: 0.6158 - acc: 0.6583
Epoch 10/50

 64/436 [===>..........................] - ETA: 0s - loss: 0.6057 - acc: 0.7188
192/436 [============>.................] - ETA: 0s - loss: 0.6077 - acc: 0.6667
320/436 [=====================>........] - ETA: 0s - loss: 0.5735 - acc: 0.7063
436/436 [==============================] - 0s 526us/step - loss: 0.5756 - acc: 0.7087
Epoch 11/50

 64/436 [===>..........................] - ETA: 0s - loss: 0.5127 - acc: 0.7656
192/436 [============>.................] - ETA: 0s - loss: 0.5673 - acc: 0.7240
320/436 [=====================>........] - ETA: 0s - loss: 0.5618 - acc: 0.7375
436/436 [==============================] - 0s 518us/step - loss: 0.5599 - acc: 0.7431
Epoch 12/50

 64/436 [===>..........................] - ETA: 0s - loss: 0.5799 - acc: 0.7656
192/436 [============>.................] - ETA: 0s - loss: 0.6169 - acc: 0.7240
320/436 [=====================>........] - ETA: 0s - loss: 0.5376 - acc: 0.7719
436/436 [==============================] - 0s 515us/step - loss: 0.5226 - acc: 0.7683
Epoch 13/50

 64/436 [===>..........................] - ETA: 0s - loss: 0.4801 - acc: 0.6719
192/436 [============>.................] - ETA: 0s - loss: 0.5175 - acc: 0.7083
320/436 [=====================>........] - ETA: 0s - loss: 0.4965 - acc: 0.7531
436/436 [==============================] - 0s 515us/step - loss: 0.5024 - acc: 0.7569
Epoch 14/50

 64/436 [===>..........................] - ETA: 0s - loss: 0.4701 - acc: 0.7812
192/436 [============>.................] - ETA: 0s - loss: 0.4096 - acc: 0.8385
320/436 [=====================>........] - ETA: 0s - loss: 0.4340 - acc: 0.8000
436/436 [==============================] - 0s 531us/step - loss: 0.4407 - acc: 0.7890
Epoch 15/50

 64/436 [===>..........................] - ETA: 0s - loss: 0.4565 - acc: 0.8438
192/436 [============>.................] - ETA: 0s - loss: 0.3854 - acc: 0.8490
320/436 [=====================>........] - ETA: 0s - loss: 0.4028 - acc: 0.8375
436/436 [==============================] - 0s 523us/step - loss: 0.4183 - acc: 0.8280
Epoch 16/50

 64/436 [===>..........................] - ETA: 0s - loss: 0.2973 - acc: 0.8750
192/436 [============>.................] - ETA: 0s - loss: 0.3730 - acc: 0.8177
320/436 [=====================>........] - ETA: 0s - loss: 0.3852 - acc: 0.8250
436/436 [==============================] - 0s 550us/step - loss: 0.3834 - acc: 0.8257
Epoch 17/50

 64/436 [===>..........................] - ETA: 0s - loss: 0.2985 - acc: 0.8750
192/436 [============>.................] - ETA: 0s - loss: 0.3759 - acc: 0.8385
320/436 [=====================>........] - ETA: 0s - loss: 0.4083 - acc: 0.8344
436/436 [==============================] - 0s 555us/step - loss: 0.3970 - acc: 0.8394
Epoch 18/50

 64/436 [===>..........................] - ETA: 0s - loss: 0.3580 - acc: 0.8438
192/436 [============>.................] - ETA: 0s - loss: 0.3497 - acc: 0.8594
320/436 [=====================>........] - ETA: 0s - loss: 0.3559 - acc: 0.8531
436/436 [==============================] - 0s 518us/step - loss: 0.3602 - acc: 0.8555
Epoch 19/50

 64/436 [===>..........................] - ETA: 0s - loss: 0.3265 - acc: 0.9062
192/436 [============>.................] - ETA: 0s - loss: 0.3134 - acc: 0.8906
320/436 [=====================>........] - ETA: 0s - loss: 0.3376 - acc: 0.8656
436/436 [==============================] - 0s 517us/step - loss: 0.3502 - acc: 0.8578
Epoch 20/50

 64/436 [===>..........................] - ETA: 0s - loss: 0.3287 - acc: 0.8281
192/436 [============>.................] - ETA: 0s - loss: 0.3853 - acc: 0.8021
320/436 [=====================>........] - ETA: 0s - loss: 0.3740 - acc: 0.8125
436/436 [==============================] - 0s 508us/step - loss: 0.3602 - acc: 0.8280
Epoch 21/50

 64/436 [===>..........................] - ETA: 0s - loss: 0.3298 - acc: 0.8594
192/436 [============>.................] - ETA: 0s - loss: 0.3324 - acc: 0.8698
320/436 [=====================>........] - ETA: 0s - loss: 0.3333 - acc: 0.8688
436/436 [==============================] - 0s 512us/step - loss: 0.3411 - acc: 0.8578
Epoch 22/50

 64/436 [===>..........................] - ETA: 0s - loss: 0.2557 - acc: 0.8906
192/436 [============>.................] - ETA: 0s - loss: 0.3011 - acc: 0.8750
320/436 [=====================>........] - ETA: 0s - loss: 0.3105 - acc: 0.8656
436/436 [==============================] - 0s 514us/step - loss: 0.3149 - acc: 0.8624
Epoch 23/50

 64/436 [===>..........................] - ETA: 0s - loss: 0.2485 - acc: 0.9375
192/436 [============>.................] - ETA: 0s - loss: 0.2681 - acc: 0.9115
320/436 [=====================>........] - ETA: 0s - loss: 0.2645 - acc: 0.9000
436/436 [==============================] - 0s 516us/step - loss: 0.2581 - acc: 0.9060
Epoch 24/50

 64/436 [===>..........................] - ETA: 0s - loss: 0.2417 - acc: 0.9219
192/436 [============>.................] - ETA: 0s - loss: 0.3360 - acc: 0.8594
320/436 [=====================>........] - ETA: 0s - loss: 0.3105 - acc: 0.8625
436/436 [==============================] - 0s 544us/step - loss: 0.3248 - acc: 0.8624
Epoch 25/50

 64/436 [===>..........................] - ETA: 0s - loss: 0.2190 - acc: 0.9375
192/436 [============>.................] - ETA: 0s - loss: 0.2749 - acc: 0.9271
320/436 [=====================>........] - ETA: 0s - loss: 0.2806 - acc: 0.9031
436/436 [==============================] - 0s 522us/step - loss: 0.2888 - acc: 0.8968
Epoch 26/50

 64/436 [===>..........................] - ETA: 0s - loss: 0.2060 - acc: 0.9375
192/436 [============>.................] - ETA: 0s - loss: 0.2295 - acc: 0.9167
320/436 [=====================>........] - ETA: 0s - loss: 0.2124 - acc: 0.9250
436/436 [==============================] - 0s 531us/step - loss: 0.2290 - acc: 0.9151
Epoch 27/50

 64/436 [===>..........................] - ETA: 0s - loss: 0.2218 - acc: 0.9375
192/436 [============>.................] - ETA: 0s - loss: 0.2381 - acc: 0.9271
320/436 [=====================>........] - ETA: 0s - loss: 0.2898 - acc: 0.9031
436/436 [==============================] - 0s 524us/step - loss: 0.3128 - acc: 0.8876
Epoch 28/50

 64/436 [===>..........................] - ETA: 0s - loss: 0.2197 - acc: 0.9219
192/436 [============>.................] - ETA: 0s - loss: 0.3009 - acc: 0.8802
320/436 [=====================>........] - ETA: 0s - loss: 0.2799 - acc: 0.8938
436/436 [==============================] - 0s 527us/step - loss: 0.2849 - acc: 0.8876
Epoch 29/50

 64/436 [===>..........................] - ETA: 0s - loss: 0.2257 - acc: 0.8906
192/436 [============>.................] - ETA: 0s - loss: 0.3215 - acc: 0.8490
320/436 [=====================>........] - ETA: 0s - loss: 0.3228 - acc: 0.8594
436/436 [==============================] - 0s 532us/step - loss: 0.3067 - acc: 0.8647
Epoch 30/50

 64/436 [===>..........................] - ETA: 0s - loss: 0.1711 - acc: 0.9375
192/436 [============>.................] - ETA: 0s - loss: 0.2672 - acc: 0.9115
320/436 [=====================>........] - ETA: 0s - loss: 0.2474 - acc: 0.9156
436/436 [==============================] - 0s 526us/step - loss: 0.2506 - acc: 0.9151
Epoch 31/50

 64/436 [===>..........................] - ETA: 0s - loss: 0.2399 - acc: 0.9219
192/436 [============>.................] - ETA: 0s - loss: 0.1926 - acc: 0.9323
320/436 [=====================>........] - ETA: 0s - loss: 0.2096 - acc: 0.9313
436/436 [==============================] - 0s 531us/step - loss: 0.2016 - acc: 0.9381
Epoch 32/50

 64/436 [===>..........................] - ETA: 0s - loss: 0.3099 - acc: 0.8750
192/436 [============>.................] - ETA: 0s - loss: 0.3289 - acc: 0.8698
320/436 [=====================>........] - ETA: 0s - loss: 0.2845 - acc: 0.8938
436/436 [==============================] - 0s 525us/step - loss: 0.2749 - acc: 0.8968
Epoch 33/50

 64/436 [===>..........................] - ETA: 0s - loss: 0.1572 - acc: 0.9062
192/436 [============>.................] - ETA: 0s - loss: 0.2028 - acc: 0.9219
320/436 [=====================>........] - ETA: 0s - loss: 0.2319 - acc: 0.9219
436/436 [==============================] - 0s 533us/step - loss: 0.2298 - acc: 0.9220
Epoch 34/50

 64/436 [===>..........................] - ETA: 0s - loss: 0.1859 - acc: 0.9375
192/436 [============>.................] - ETA: 0s - loss: 0.2056 - acc: 0.9427
320/436 [=====================>........] - ETA: 0s - loss: 0.1955 - acc: 0.9500
436/436 [==============================] - 0s 522us/step - loss: 0.1779 - acc: 0.9472
Epoch 35/50

 64/436 [===>..........................] - ETA: 0s - loss: 0.1638 - acc: 0.9531
192/436 [============>.................] - ETA: 0s - loss: 0.1774 - acc: 0.9479
320/436 [=====================>........] - ETA: 0s - loss: 0.1597 - acc: 0.9437
436/436 [==============================] - 0s 531us/step - loss: 0.1495 - acc: 0.9518
Epoch 36/50

 64/436 [===>..........................] - ETA: 0s - loss: 0.0691 - acc: 1.0000
192/436 [============>.................] - ETA: 0s - loss: 0.1759 - acc: 0.9427
320/436 [=====================>........] - ETA: 0s - loss: 0.1507 - acc: 0.9469
436/436 [==============================] - 0s 520us/step - loss: 0.1422 - acc: 0.9518
Epoch 37/50

 64/436 [===>..........................] - ETA: 0s - loss: 0.1145 - acc: 0.9688
192/436 [============>.................] - ETA: 0s - loss: 0.1160 - acc: 0.9688
320/436 [=====================>........] - ETA: 0s - loss: 0.1239 - acc: 0.9625
436/436 [==============================] - 0s 525us/step - loss: 0.1176 - acc: 0.9610
Epoch 38/50

 64/436 [===>..........................] - ETA: 0s - loss: 0.0715 - acc: 1.0000
192/436 [============>.................] - ETA: 0s - loss: 0.0826 - acc: 0.9896
320/436 [=====================>........] - ETA: 0s - loss: 0.1064 - acc: 0.9750
436/436 [==============================] - 0s 536us/step - loss: 0.1136 - acc: 0.9679
Epoch 39/50

 64/436 [===>..........................] - ETA: 0s - loss: 0.1100 - acc: 0.9844
192/436 [============>.................] - ETA: 0s - loss: 0.1396 - acc: 0.9688
320/436 [=====================>........] - ETA: 0s - loss: 0.1269 - acc: 0.9719
436/436 [==============================] - 0s 522us/step - loss: 0.1201 - acc: 0.9725
Epoch 40/50

 64/436 [===>..........................] - ETA: 0s - loss: 0.0659 - acc: 1.0000
192/436 [============>.................] - ETA: 0s - loss: 0.0715 - acc: 0.9896
320/436 [=====================>........] - ETA: 0s - loss: 0.0810 - acc: 0.9844
436/436 [==============================] - 0s 519us/step - loss: 0.0872 - acc: 0.9817
Epoch 41/50

 64/436 [===>..........................] - ETA: 0s - loss: 0.1017 - acc: 0.9531
192/436 [============>.................] - ETA: 0s - loss: 0.1286 - acc: 0.9635
320/436 [=====================>........] - ETA: 0s - loss: 0.1463 - acc: 0.9531
436/436 [==============================] - 0s 522us/step - loss: 0.1372 - acc: 0.9541
Epoch 42/50

 64/436 [===>..........................] - ETA: 0s - loss: 0.1831 - acc: 0.9375
192/436 [============>.................] - ETA: 0s - loss: 0.0972 - acc: 0.9740
320/436 [=====================>........] - ETA: 0s - loss: 0.1047 - acc: 0.9719
436/436 [==============================] - 0s 528us/step - loss: 0.1123 - acc: 0.9679
Epoch 43/50

 64/436 [===>..........................] - ETA: 0s - loss: 0.1421 - acc: 0.9531
192/436 [============>.................] - ETA: 0s - loss: 0.1203 - acc: 0.9635
320/436 [=====================>........] - ETA: 0s - loss: 0.1164 - acc: 0.9656
436/436 [==============================] - 0s 527us/step - loss: 0.1122 - acc: 0.9633
Epoch 44/50

 64/436 [===>..........................] - ETA: 0s - loss: 0.1423 - acc: 0.9688
192/436 [============>.................] - ETA: 0s - loss: 0.1218 - acc: 0.9688
320/436 [=====================>........] - ETA: 0s - loss: 0.1421 - acc: 0.9531
436/436 [==============================] - 0s 528us/step - loss: 0.1769 - acc: 0.9381
Epoch 45/50

 64/436 [===>..........................] - ETA: 0s - loss: 0.2391 - acc: 0.9062
192/436 [============>.................] - ETA: 0s - loss: 0.1867 - acc: 0.9271
320/436 [=====================>........] - ETA: 0s - loss: 0.1975 - acc: 0.9281
436/436 [==============================] - 0s 513us/step - loss: 0.1815 - acc: 0.9289
Epoch 46/50

 64/436 [===>..........................] - ETA: 0s - loss: 0.2832 - acc: 0.9062
192/436 [============>.................] - ETA: 0s - loss: 0.1819 - acc: 0.9219
320/436 [=====================>........] - ETA: 0s - loss: 0.1444 - acc: 0.9469
436/436 [==============================] - 0s 534us/step - loss: 0.1594 - acc: 0.9404
Epoch 47/50

 64/436 [===>..........................] - ETA: 0s - loss: 0.0977 - acc: 0.9688
192/436 [============>.................] - ETA: 0s - loss: 0.1371 - acc: 0.9531
320/436 [=====================>........] - ETA: 0s - loss: 0.1272 - acc: 0.9594
436/436 [==============================] - 0s 530us/step - loss: 0.1232 - acc: 0.9587
Epoch 48/50

 64/436 [===>..........................] - ETA: 0s - loss: 0.1660 - acc: 0.9531
192/436 [============>.................] - ETA: 0s - loss: 0.1577 - acc: 0.9375
320/436 [=====================>........] - ETA: 0s - loss: 0.1579 - acc: 0.9469
436/436 [==============================] - 0s 531us/step - loss: 0.1393 - acc: 0.9541
Epoch 49/50

 64/436 [===>..........................] - ETA: 0s - loss: 0.1224 - acc: 0.9531
192/436 [============>.................] - ETA: 0s - loss: 0.0846 - acc: 0.9740
320/436 [=====================>........] - ETA: 0s - loss: 0.1142 - acc: 0.9625
436/436 [==============================] - 0s 528us/step - loss: 0.1071 - acc: 0.9702
Epoch 50/50

 64/436 [===>..........................] - ETA: 0s - loss: 0.0605 - acc: 1.0000
192/436 [============>.................] - ETA: 0s - loss: 0.0709 - acc: 0.9844
320/436 [=====================>........] - ETA: 0s - loss: 0.0708 - acc: 0.9812
436/436 [==============================] - 0s 539us/step - loss: 0.0807 - acc: 0.9748

 64/217 [=======>......................] - ETA: 0s
217/217 [==============================] - 0s 711us/step

 64/436 [===>..........................] - ETA: 0s
256/436 [================>.............] - ETA: 0s
436/436 [==============================] - 0s 290us/step
Killing tensorboard...
Done!
