thtools.__init__.py > running xstream path fixes
Epoch 1/50

 64/435 [===>..........................] - ETA: 15s - loss: 0.8042 - acc: 0.5781
192/435 [============>.................] - ETA: 3s - loss: 0.9308 - acc: 0.5469 
320/435 [=====================>........] - ETA: 0s - loss: 0.9983 - acc: 0.5281
435/435 [==============================] - 3s 6ms/step - loss: 1.0301 - acc: 0.5103
Epoch 2/50

 64/435 [===>..........................] - ETA: 0s - loss: 1.0005 - acc: 0.4062
192/435 [============>.................] - ETA: 0s - loss: 0.9946 - acc: 0.5052
320/435 [=====================>........] - ETA: 0s - loss: 1.0347 - acc: 0.4750
435/435 [==============================] - 0s 517us/step - loss: 1.0194 - acc: 0.4851
Epoch 3/50

 64/435 [===>..........................] - ETA: 0s - loss: 1.1041 - acc: 0.5156
192/435 [============>.................] - ETA: 0s - loss: 1.1243 - acc: 0.4896
320/435 [=====================>........] - ETA: 0s - loss: 1.0413 - acc: 0.5062
435/435 [==============================] - 0s 538us/step - loss: 1.0697 - acc: 0.4966
Epoch 4/50

 64/435 [===>..........................] - ETA: 0s - loss: 0.9785 - acc: 0.4688
192/435 [============>.................] - ETA: 0s - loss: 0.9477 - acc: 0.5052
320/435 [=====================>........] - ETA: 0s - loss: 0.9646 - acc: 0.5156
435/435 [==============================] - 0s 528us/step - loss: 0.9624 - acc: 0.5172
Epoch 5/50

 64/435 [===>..........................] - ETA: 0s - loss: 0.9667 - acc: 0.5625
192/435 [============>.................] - ETA: 0s - loss: 0.9173 - acc: 0.5417
320/435 [=====================>........] - ETA: 0s - loss: 0.9563 - acc: 0.5344
435/435 [==============================] - 0s 531us/step - loss: 0.9312 - acc: 0.5586
Epoch 6/50

 64/435 [===>..........................] - ETA: 0s - loss: 0.8736 - acc: 0.5781
192/435 [============>.................] - ETA: 0s - loss: 0.8488 - acc: 0.5677
320/435 [=====================>........] - ETA: 0s - loss: 0.9077 - acc: 0.5437
435/435 [==============================] - 0s 530us/step - loss: 0.9177 - acc: 0.5425
Epoch 7/50

 64/435 [===>..........................] - ETA: 0s - loss: 0.8858 - acc: 0.5625
192/435 [============>.................] - ETA: 0s - loss: 0.9491 - acc: 0.5469
320/435 [=====================>........] - ETA: 0s - loss: 0.9348 - acc: 0.5281
435/435 [==============================] - 0s 528us/step - loss: 0.9158 - acc: 0.5126
Epoch 8/50

 64/435 [===>..........................] - ETA: 0s - loss: 0.8766 - acc: 0.5469
192/435 [============>.................] - ETA: 0s - loss: 0.8756 - acc: 0.5885
320/435 [=====================>........] - ETA: 0s - loss: 0.8961 - acc: 0.5813
435/435 [==============================] - 0s 530us/step - loss: 0.9097 - acc: 0.5632
Epoch 9/50

 64/435 [===>..........................] - ETA: 0s - loss: 0.7986 - acc: 0.5000
192/435 [============>.................] - ETA: 0s - loss: 0.8324 - acc: 0.5417
320/435 [=====================>........] - ETA: 0s - loss: 0.8633 - acc: 0.5375
435/435 [==============================] - 0s 529us/step - loss: 0.8483 - acc: 0.5402
Epoch 10/50

 64/435 [===>..........................] - ETA: 0s - loss: 1.0564 - acc: 0.4844
192/435 [============>.................] - ETA: 0s - loss: 0.9030 - acc: 0.4948
320/435 [=====================>........] - ETA: 0s - loss: 0.8632 - acc: 0.5250
435/435 [==============================] - 0s 527us/step - loss: 0.8398 - acc: 0.5333
Epoch 11/50

 64/435 [===>..........................] - ETA: 0s - loss: 1.0776 - acc: 0.4531
192/435 [============>.................] - ETA: 0s - loss: 0.8942 - acc: 0.5365
320/435 [=====================>........] - ETA: 0s - loss: 0.8821 - acc: 0.5563
435/435 [==============================] - 0s 530us/step - loss: 0.8540 - acc: 0.5770
Epoch 12/50

 64/435 [===>..........................] - ETA: 0s - loss: 1.0608 - acc: 0.4062
192/435 [============>.................] - ETA: 0s - loss: 0.9034 - acc: 0.4792
320/435 [=====================>........] - ETA: 0s - loss: 0.8992 - acc: 0.5062
435/435 [==============================] - 0s 528us/step - loss: 0.8649 - acc: 0.5195
Epoch 13/50

 64/435 [===>..........................] - ETA: 0s - loss: 0.8901 - acc: 0.5781
192/435 [============>.................] - ETA: 0s - loss: 0.8956 - acc: 0.5521
320/435 [=====================>........] - ETA: 0s - loss: 0.8705 - acc: 0.5687
435/435 [==============================] - 0s 531us/step - loss: 0.8463 - acc: 0.5724
Epoch 14/50

 64/435 [===>..........................] - ETA: 0s - loss: 0.6978 - acc: 0.6719
192/435 [============>.................] - ETA: 0s - loss: 0.8413 - acc: 0.5417
320/435 [=====================>........] - ETA: 0s - loss: 0.8527 - acc: 0.5312
435/435 [==============================] - 0s 533us/step - loss: 0.8523 - acc: 0.5356
Epoch 15/50

 64/435 [===>..........................] - ETA: 0s - loss: 0.8762 - acc: 0.4688
192/435 [============>.................] - ETA: 0s - loss: 0.8293 - acc: 0.5156
320/435 [=====================>........] - ETA: 0s - loss: 0.8864 - acc: 0.4875
435/435 [==============================] - 0s 531us/step - loss: 0.8769 - acc: 0.4874
Epoch 16/50

 64/435 [===>..........................] - ETA: 0s - loss: 1.0236 - acc: 0.4688
192/435 [============>.................] - ETA: 0s - loss: 0.9243 - acc: 0.4948
320/435 [=====================>........] - ETA: 0s - loss: 0.8926 - acc: 0.4906
435/435 [==============================] - 0s 527us/step - loss: 0.8769 - acc: 0.4920
Epoch 17/50

 64/435 [===>..........................] - ETA: 0s - loss: 0.7243 - acc: 0.5469
192/435 [============>.................] - ETA: 0s - loss: 0.7449 - acc: 0.5677
320/435 [=====================>........] - ETA: 0s - loss: 0.7777 - acc: 0.5719
435/435 [==============================] - 0s 528us/step - loss: 0.8062 - acc: 0.5747
Epoch 18/50

 64/435 [===>..........................] - ETA: 0s - loss: 0.8801 - acc: 0.5312
192/435 [============>.................] - ETA: 0s - loss: 0.8346 - acc: 0.4844
320/435 [=====================>........] - ETA: 0s - loss: 0.8097 - acc: 0.5188
435/435 [==============================] - 0s 528us/step - loss: 0.7880 - acc: 0.5356
Epoch 19/50

 64/435 [===>..........................] - ETA: 0s - loss: 0.8850 - acc: 0.4844
192/435 [============>.................] - ETA: 0s - loss: 0.9207 - acc: 0.4740
320/435 [=====================>........] - ETA: 0s - loss: 0.8748 - acc: 0.5219
435/435 [==============================] - 0s 529us/step - loss: 0.8428 - acc: 0.5264
Epoch 20/50

 64/435 [===>..........................] - ETA: 0s - loss: 0.7613 - acc: 0.5938
192/435 [============>.................] - ETA: 0s - loss: 0.8244 - acc: 0.5573
320/435 [=====================>........] - ETA: 0s - loss: 0.8147 - acc: 0.5563
435/435 [==============================] - 0s 522us/step - loss: 0.7893 - acc: 0.5701
Epoch 21/50

 64/435 [===>..........................] - ETA: 0s - loss: 0.7059 - acc: 0.5781
192/435 [============>.................] - ETA: 0s - loss: 0.7098 - acc: 0.6094
320/435 [=====================>........] - ETA: 0s - loss: 0.7386 - acc: 0.5875
435/435 [==============================] - 0s 523us/step - loss: 0.7389 - acc: 0.5908
Epoch 22/50

 64/435 [===>..........................] - ETA: 0s - loss: 0.6862 - acc: 0.5938
192/435 [============>.................] - ETA: 0s - loss: 0.7650 - acc: 0.5625
320/435 [=====================>........] - ETA: 0s - loss: 0.7983 - acc: 0.5563
435/435 [==============================] - 0s 521us/step - loss: 0.8021 - acc: 0.5563
Epoch 23/50

 64/435 [===>..........................] - ETA: 0s - loss: 0.8196 - acc: 0.5312
192/435 [============>.................] - ETA: 0s - loss: 0.7421 - acc: 0.5781
320/435 [=====================>........] - ETA: 0s - loss: 0.7870 - acc: 0.5344
435/435 [==============================] - 0s 528us/step - loss: 0.7904 - acc: 0.5287
Epoch 24/50

 64/435 [===>..........................] - ETA: 0s - loss: 0.7555 - acc: 0.5938
192/435 [============>.................] - ETA: 0s - loss: 0.7663 - acc: 0.5469
320/435 [=====================>........] - ETA: 0s - loss: 0.7958 - acc: 0.5344
435/435 [==============================] - 0s 530us/step - loss: 0.8047 - acc: 0.5333
Epoch 25/50

 64/435 [===>..........................] - ETA: 0s - loss: 0.9052 - acc: 0.4531
192/435 [============>.................] - ETA: 0s - loss: 0.8045 - acc: 0.5156
320/435 [=====================>........] - ETA: 0s - loss: 0.7977 - acc: 0.5188
435/435 [==============================] - 0s 530us/step - loss: 0.8120 - acc: 0.5195
Epoch 26/50

 64/435 [===>..........................] - ETA: 0s - loss: 0.7143 - acc: 0.6406
192/435 [============>.................] - ETA: 0s - loss: 0.8103 - acc: 0.5521
320/435 [=====================>........] - ETA: 0s - loss: 0.8150 - acc: 0.5219
435/435 [==============================] - 0s 529us/step - loss: 0.8066 - acc: 0.5310
Epoch 27/50

 64/435 [===>..........................] - ETA: 0s - loss: 0.7549 - acc: 0.5781
192/435 [============>.................] - ETA: 0s - loss: 0.7708 - acc: 0.5781
320/435 [=====================>........] - ETA: 0s - loss: 0.7661 - acc: 0.5406
435/435 [==============================] - 0s 526us/step - loss: 0.7614 - acc: 0.5632
Epoch 28/50

 64/435 [===>..........................] - ETA: 0s - loss: 0.6659 - acc: 0.6562
192/435 [============>.................] - ETA: 0s - loss: 0.7128 - acc: 0.5625
320/435 [=====================>........] - ETA: 0s - loss: 0.7108 - acc: 0.5687
435/435 [==============================] - 0s 531us/step - loss: 0.7149 - acc: 0.5770
Epoch 29/50

 64/435 [===>..........................] - ETA: 0s - loss: 0.6591 - acc: 0.6250
192/435 [============>.................] - ETA: 0s - loss: 0.7151 - acc: 0.5677
320/435 [=====================>........] - ETA: 0s - loss: 0.7399 - acc: 0.5594
435/435 [==============================] - 0s 529us/step - loss: 0.7409 - acc: 0.5609
Epoch 30/50

 64/435 [===>..........................] - ETA: 0s - loss: 0.7265 - acc: 0.5938
192/435 [============>.................] - ETA: 0s - loss: 0.7492 - acc: 0.5885
320/435 [=====================>........] - ETA: 0s - loss: 0.7880 - acc: 0.5469
435/435 [==============================] - 0s 529us/step - loss: 0.7934 - acc: 0.5471
Epoch 31/50

 64/435 [===>..........................] - ETA: 0s - loss: 0.6144 - acc: 0.7188
192/435 [============>.................] - ETA: 0s - loss: 0.7145 - acc: 0.5938
320/435 [=====================>........] - ETA: 0s - loss: 0.7319 - acc: 0.5594
435/435 [==============================] - 0s 526us/step - loss: 0.7358 - acc: 0.5701
Epoch 32/50

 64/435 [===>..........................] - ETA: 0s - loss: 0.8376 - acc: 0.4844
192/435 [============>.................] - ETA: 0s - loss: 0.7900 - acc: 0.5104
320/435 [=====================>........] - ETA: 0s - loss: 0.7575 - acc: 0.5344
435/435 [==============================] - 0s 529us/step - loss: 0.7741 - acc: 0.5218
Epoch 33/50

 64/435 [===>..........................] - ETA: 0s - loss: 0.8378 - acc: 0.5000
192/435 [============>.................] - ETA: 0s - loss: 0.7562 - acc: 0.5417
320/435 [=====================>........] - ETA: 0s - loss: 0.7651 - acc: 0.5375
435/435 [==============================] - 0s 532us/step - loss: 0.7864 - acc: 0.5287
Epoch 34/50

 64/435 [===>..........................] - ETA: 0s - loss: 0.7417 - acc: 0.5000
192/435 [============>.................] - ETA: 0s - loss: 0.7327 - acc: 0.5208
320/435 [=====================>........] - ETA: 0s - loss: 0.7394 - acc: 0.5406
435/435 [==============================] - 0s 530us/step - loss: 0.7447 - acc: 0.5333
Epoch 35/50

 64/435 [===>..........................] - ETA: 0s - loss: 0.7751 - acc: 0.5000
192/435 [============>.................] - ETA: 0s - loss: 0.7833 - acc: 0.5312
320/435 [=====================>........] - ETA: 0s - loss: 0.7990 - acc: 0.5344
435/435 [==============================] - 0s 530us/step - loss: 0.7874 - acc: 0.5356
Epoch 36/50

 64/435 [===>..........................] - ETA: 0s - loss: 0.7883 - acc: 0.5781
192/435 [============>.................] - ETA: 0s - loss: 0.7272 - acc: 0.5729
320/435 [=====================>........] - ETA: 0s - loss: 0.7314 - acc: 0.5625
435/435 [==============================] - 0s 530us/step - loss: 0.7320 - acc: 0.5632
Epoch 37/50

 64/435 [===>..........................] - ETA: 0s - loss: 0.8373 - acc: 0.5000
192/435 [============>.................] - ETA: 0s - loss: 0.7446 - acc: 0.5677
320/435 [=====================>........] - ETA: 0s - loss: 0.7369 - acc: 0.5531
435/435 [==============================] - 0s 526us/step - loss: 0.7193 - acc: 0.5632
Epoch 38/50

 64/435 [===>..........................] - ETA: 0s - loss: 0.7791 - acc: 0.5312
192/435 [============>.................] - ETA: 0s - loss: 0.7673 - acc: 0.5208
320/435 [=====================>........] - ETA: 0s - loss: 0.7543 - acc: 0.5281
435/435 [==============================] - 0s 528us/step - loss: 0.7383 - acc: 0.5425
Epoch 39/50

 64/435 [===>..........................] - ETA: 0s - loss: 0.7075 - acc: 0.5156
192/435 [============>.................] - ETA: 0s - loss: 0.7225 - acc: 0.5521
320/435 [=====================>........] - ETA: 0s - loss: 0.7228 - acc: 0.5437
435/435 [==============================] - 0s 525us/step - loss: 0.7250 - acc: 0.5448
Epoch 40/50

 64/435 [===>..........................] - ETA: 0s - loss: 0.7041 - acc: 0.5625
192/435 [============>.................] - ETA: 0s - loss: 0.6838 - acc: 0.5885
320/435 [=====================>........] - ETA: 0s - loss: 0.7080 - acc: 0.5844
435/435 [==============================] - 0s 526us/step - loss: 0.7148 - acc: 0.5724
Epoch 41/50

 64/435 [===>..........................] - ETA: 0s - loss: 0.7878 - acc: 0.3750
192/435 [============>.................] - ETA: 0s - loss: 0.7424 - acc: 0.5104
320/435 [=====================>........] - ETA: 0s - loss: 0.7454 - acc: 0.5281
435/435 [==============================] - 0s 527us/step - loss: 0.7431 - acc: 0.5264
Epoch 42/50

 64/435 [===>..........................] - ETA: 0s - loss: 0.7086 - acc: 0.5781
192/435 [============>.................] - ETA: 0s - loss: 0.7036 - acc: 0.5729
320/435 [=====================>........] - ETA: 0s - loss: 0.7234 - acc: 0.5375
435/435 [==============================] - 0s 521us/step - loss: 0.7201 - acc: 0.5402
Epoch 43/50

 64/435 [===>..........................] - ETA: 0s - loss: 0.7288 - acc: 0.5781
192/435 [============>.................] - ETA: 0s - loss: 0.7493 - acc: 0.5260
320/435 [=====================>........] - ETA: 0s - loss: 0.7464 - acc: 0.5469
435/435 [==============================] - 0s 533us/step - loss: 0.7480 - acc: 0.5356
Epoch 44/50

 64/435 [===>..........................] - ETA: 0s - loss: 0.7703 - acc: 0.5156
192/435 [============>.................] - ETA: 0s - loss: 0.7439 - acc: 0.5469
320/435 [=====================>........] - ETA: 0s - loss: 0.7316 - acc: 0.5500
435/435 [==============================] - 0s 530us/step - loss: 0.7254 - acc: 0.5632
Epoch 45/50

 64/435 [===>..........................] - ETA: 0s - loss: 0.6570 - acc: 0.6406
192/435 [============>.................] - ETA: 0s - loss: 0.7167 - acc: 0.5677
320/435 [=====================>........] - ETA: 0s - loss: 0.7026 - acc: 0.5938
435/435 [==============================] - 0s 529us/step - loss: 0.7189 - acc: 0.5747
Epoch 46/50

 64/435 [===>..........................] - ETA: 0s - loss: 0.7066 - acc: 0.5781
192/435 [============>.................] - ETA: 0s - loss: 0.6920 - acc: 0.5938
320/435 [=====================>........] - ETA: 0s - loss: 0.7002 - acc: 0.5750
435/435 [==============================] - 0s 531us/step - loss: 0.7065 - acc: 0.5816
Epoch 47/50

 64/435 [===>..........................] - ETA: 0s - loss: 0.6774 - acc: 0.6562
192/435 [============>.................] - ETA: 0s - loss: 0.7048 - acc: 0.6250
320/435 [=====================>........] - ETA: 0s - loss: 0.6908 - acc: 0.6125
435/435 [==============================] - 0s 533us/step - loss: 0.7207 - acc: 0.5816
Epoch 48/50

 64/435 [===>..........................] - ETA: 0s - loss: 0.6900 - acc: 0.5469
192/435 [============>.................] - ETA: 0s - loss: 0.7134 - acc: 0.5625
320/435 [=====================>........] - ETA: 0s - loss: 0.7248 - acc: 0.5500
435/435 [==============================] - 0s 533us/step - loss: 0.7220 - acc: 0.5494
Epoch 49/50

 64/435 [===>..........................] - ETA: 0s - loss: 0.7051 - acc: 0.5625
192/435 [============>.................] - ETA: 0s - loss: 0.7329 - acc: 0.5677
320/435 [=====================>........] - ETA: 0s - loss: 0.7346 - acc: 0.5469
435/435 [==============================] - 0s 533us/step - loss: 0.7261 - acc: 0.5471
Epoch 50/50

 64/435 [===>..........................] - ETA: 0s - loss: 0.6472 - acc: 0.6250
192/435 [============>.................] - ETA: 0s - loss: 0.6994 - acc: 0.5625
320/435 [=====================>........] - ETA: 0s - loss: 0.7018 - acc: 0.5656
435/435 [==============================] - 0s 530us/step - loss: 0.7078 - acc: 0.5494

 64/218 [=======>......................] - ETA: 0s
218/218 [==============================] - 0s 756us/step

 64/435 [===>..........................] - ETA: 0s
256/435 [================>.............] - ETA: 0s
435/435 [==============================] - 0s 303us/step
Killing tensorboard...
Done!
